^F:\DEV\UNI\YEAR4\HIGH_PERFORMANCE_GFX\TESTVULKAN\TESTVULKAN\IMGUI\IMGUI.CPP
F:\DEV\UNI\YEAR4\HIGH_PERFORMANCE_GFX\TESTVULKAN\TESTVULKAN\IMGUI\IMGUI.H
F:\DEV\UNI\YEAR4\HIGH_PERFORMANCE_GFX\TESTVULKAN\TESTVULKAN\IMGUI\IMCONFIG.H
C:\PROGRAM FILES (X86)\WINDOWS KITS\10\INCLUDE\10.0.18362.0\UCRT\FLOAT.H
C:\PROGRAM FILES (X86)\WINDOWS KITS\10\INCLUDE\10.0.18362.0\UCRT\CORECRT.H
C:\PROGRAM FILES (X86)\MICROSOFT VISUAL STUDIO\2019\COMMUNITY\VC\TOOLS\MSVC\14.28.29333\INCLUDE\VCRUNTIME.H
C:\PROGRAM FILES (X86)\MICROSOFT VISUAL STUDIO\2019\COMMUNITY\VC\TOOLS\MSVC\14.28.29333\INCLUDE\SAL.H
C:\PROGRAM FILES (X86)\MICROSOFT VISUAL STUDIO\2019\COMMUNITY\VC\TOOLS\MSVC\14.28.29333\INCLUDE\CONCURRENCYSAL.H
C:\PROGRAM FILES (X86)\MICROSOFT VISUAL STUDIO\2019\COMMUNITY\VC\TOOLS\MSVC\14.28.29333\INCLUDE\VADEFS.H
C:\PROGRAM FILES (X86)\MICROSOFT VISUAL STUDIO\2019\COMMUNITY\VC\TOOLS\MSVC\14.28.29333\INCLUDE\STDARG.H
C:\PROGRAM FILES (X86)\WINDOWS KITS\10\INCLUDE\10.0.18362.0\UCRT\STDDEF.H
C:\PROGRAM FILES (X86)\WINDOWS KITS\10\INCLUDE\10.0.18362.0\UCRT\STRING.H
C:\PROGRAM FILES (X86)\WINDOWS KITS\10\INCLUDE\10.0.18362.0\UCRT\CORECRT_MEMORY.H
C:\PROGRAM FILES (X86)\WINDOWS KITS\10\INCLUDE\10.0.18362.0\UCRT\CORECRT_MEMCPY_S.H
C:\PROGRAM FILES (X86)\WINDOWS KITS\10\INCLUDE\10.0.18362.0\UCRT\ERRNO.H
C:\PROGRAM FILES (X86)\MICROSOFT VISUAL STUDIO\2019\COMMUNITY\VC\TOOLS\MSVC\14.28.29333\INCLUDE\VCRUNTIME_STRING.H
C:\PROGRAM FILES (X86)\WINDOWS KITS\10\INCLUDE\10.0.18362.0\UCRT\CORECRT_WSTRING.H
C:\PROGRAM FILES (X86)\WINDOWS KITS\10\INCLUDE\10.0.18362.0\UCRT\ASSERT.H
F:\DEV\UNI\YEAR4\HIGH_PERFORMANCE_GFX\TESTVULKAN\TESTVULKAN\IMGUI\IMGUI_INTERNAL.H
C:\PROGRAM FILES (X86)\WINDOWS KITS\10\INCLUDE\10.0.18362.0\UCRT\STDIO.H
C:\PROGRAM FILES (X86)\WINDOWS KITS\10\INCLUDE\10.0.18362.0\UCRT\CORECRT_WSTDIO.H
C:\PROGRAM FILES (X86)\WINDOWS KITS\10\INCLUDE\10.0.18362.0\UCRT\CORECRT_STDIO_CONFIG.H
C:\PROGRAM FILES (X86)\WINDOWS KITS\10\INCLUDE\10.0.18362.0\UCRT\STDLIB.H
C:\PROGRAM FILES (X86)\WINDOWS KITS\10\INCLUDE\10.0.18362.0\UCRT\CORECRT_MALLOC.H
C:\PROGRAM FILES (X86)\WINDOWS KITS\10\INCLUDE\10.0.18362.0\UCRT\CORECRT_SEARCH.H
C:\PROGRAM FILES (X86)\WINDOWS KITS\10\INCLUDE\10.0.18362.0\UCRT\CORECRT_WSTDLIB.H
C:\PROGRAM FILES (X86)\MICROSOFT VISUAL STUDIO\2019\COMMUNITY\VC\TOOLS\MSVC\14.28.29333\INCLUDE\LIMITS.H
C:\PROGRAM FILES (X86)\WINDOWS KITS\10\INCLUDE\10.0.18362.0\UCRT\MATH.H
C:\PROGRAM FILES (X86)\WINDOWS KITS\10\INCLUDE\10.0.18362.0\UCRT\CORECRT_MATH.H
F:\DEV\UNI\YEAR4\HIGH_PERFORMANCE_GFX\TESTVULKAN\TESTVULKAN\IMGUI\IMSTB_TEXTEDIT.H
C:\PROGRAM FILES (X86)\WINDOWS KITS\10\INCLUDE\10.0.18362.0\UCRT\CTYPE.H
C:\PROGRAM FILES (X86)\WINDOWS KITS\10\INCLUDE\10.0.18362.0\UCRT\CORECRT_WCTYPE.H
C:\PROGRAM FILES (X86)\MICROSOFT VISUAL STUDIO\2019\COMMUNITY\VC\TOOLS\MSVC\14.28.29333\INCLUDE\STDINT.H
C:\PROGRAM FILES (X86)\WINDOWS KITS\10\INCLUDE\10.0.18362.0\UM\WINDOWS.H
C:\PROGRAM FILES (X86)\WINDOWS KITS\10\INCLUDE\10.0.18362.0\SHARED\WINAPIFAMILY.H
C:\PROGRAM FILES (X86)\WINDOWS KITS\10\INCLUDE\10.0.18362.0\SHARED\WINPACKAGEFAMILY.H
C:\PROGRAM FILES (X86)\WINDOWS KITS\10\INCLUDE\10.0.18362.0\SHARED\SDKDDKVER.H
C:\PROGRAM FILES (X86)\MICROSOFT VISUAL STUDIO\2019\COMMUNITY\VC\TOOLS\MSVC\14.28.29333\INCLUDE\EXCPT.H
C:\PROGRAM FILES (X86)\WINDOWS KITS\10\INCLUDE\10.0.18362.0\SHARED\WINDEF.H
C:\PROGRAM FILES (X86)\WINDOWS KITS\10\INCLUDE\10.0.18362.0\SHARED\MINWINDEF.H
C:\PROGRAM FILES (X86)\WINDOWS KITS\10\INCLUDE\10.0.18362.0\SHARED\SPECSTRINGS.H
C:\PROGRAM FILES (X86)\WINDOWS KITS\10\INCLUDE\10.0.18362.0\SHARED\SPECSTRINGS_STRICT.H
C:\PROGRAM FILES (X86)\WINDOWS KITS\10\INCLUDE\10.0.18362.0\SHARED\SPECSTRINGS_UNDEF.H
C:\PROGRAM FILES (X86)\WINDOWS KITS\10\INCLUDE\10.0.18362.0\SHARED\DRIVERSPECS.H
C:\PROGRAM FILES (X86)\WINDOWS KITS\10\INCLUDE\10.0.18362.0\SHARED\SDV_DRIVERSPECS.H
C:\PROGRAM FILES (X86)\WINDOWS KITS\10\INCLUDE\10.0.18362.0\UM\WINNT.H
C:\PROGRAM FILES (X86)\WINDOWS KITS\10\INCLUDE\10.0.18362.0\SHARED\KERNELSPECS.H
C:\PROGRAM FILES (X86)\WINDOWS KITS\10\INCLUDE\10.0.18362.0\SHARED\BASETSD.H
C:\PROGRAM FILES (X86)\WINDOWS KITS\10\INCLUDE\10.0.18362.0\SHARED\GUIDDEF.H
C:\PROGRAM FILES (X86)\WINDOWS KITS\10\INCLUDE\10.0.18362.0\SHARED\PSHPACK4.H
C:\PROGRAM FILES (X86)\WINDOWS KITS\10\INCLUDE\10.0.18362.0\SHARED\POPPACK.H
C:\PROGRAM FILES (X86)\WINDOWS KITS\10\INCLUDE\10.0.18362.0\SHARED\PSHPACK2.H
C:\PROGRAM FILES (X86)\WINDOWS KITS\10\INCLUDE\10.0.18362.0\SHARED\PSHPACK8.H
C:\PROGRAM FILES (X86)\WINDOWS KITS\10\INCLUDE\10.0.18362.0\SHARED\PSHPACK1.H
C:\PROGRAM FILES (X86)\WINDOWS KITS\10\INCLUDE\10.0.18362.0\SHARED\APISET.H
C:\PROGRAM FILES (X86)\WINDOWS KITS\10\INCLUDE\10.0.18362.0\SHARED\KTMTYPES.H
C:\PROGRAM FILES (X86)\WINDOWS KITS\10\INCLUDE\10.0.18362.0\UM\WINBASE.H
C:\PROGRAM FILES (X86)\WINDOWS KITS\10\INCLUDE\10.0.18362.0\SHARED\APISETCCONV.H
C:\PROGRAM FILES (X86)\WINDOWS KITS\10\INCLUDE\10.0.18362.0\UM\MINWINBASE.H
C:\PROGRAM FILES (X86)\WINDOWS KITS\10\INCLUDE\10.0.18362.0\UM\APIQUERY2.H
C:\PROGRAM FILES (X86)\WINDOWS KITS\10\INCLUDE\10.0.18362.0\UM\PROCESSENV.H
C:\PROGRAM FILES (X86)\WINDOWS KITS\10\INCLUDE\10.0.18362.0\UM\FILEAPIFROMAPP.H
C:\PROGRAM FILES (X86)\WINDOWS KITS\10\INCLUDE\10.0.18362.0\UM\FILEAPI.H
C:\PROGRAM FILES (X86)\WINDOWS KITS\10\INCLUDE\10.0.18362.0\UM\DEBUGAPI.H
C:\PROGRAM FILES (X86)\WINDOWS KITS\10\INCLUDE\10.0.18362.0\UM\UTILAPISET.H
C:\PROGRAM FILES (X86)\WINDOWS KITS\10\INCLUDE\10.0.18362.0\UM\HANDLEAPI.H
C:\PROGRAM FILES (X86)\WINDOWS KITS\10\INCLUDE\10.0.18362.0\UM\ERRHANDLINGAPI.H
C:\PROGRAM FILES (X86)\WINDOWS KITS\10\INCLUDE\10.0.18362.0\UM\FIBERSAPI.H
C:\PROGRAM FILES (X86)\WINDOWS KITS\10\INCLUDE\10.0.18362.0\UM\NAMEDPIPEAPI.H
C:\PROGRAM FILES (X86)\WINDOWS KITS\10\INCLUDE\10.0.18362.0\UM\PROFILEAPI.H
C:\PROGRAM FILES (X86)\WINDOWS KITS\10\INCLUDE\10.0.18362.0\UM\HEAPAPI.H
C:\PROGRAM FILES (X86)\WINDOWS KITS\10\INCLUDE\10.0.18362.0\UM\IOAPISET.H
C:\PROGRAM FILES (X86)\WINDOWS KITS\10\INCLUDE\10.0.18362.0\UM\SYNCHAPI.H
C:\PROGRAM FILES (X86)\WINDOWS KITS\10\INCLUDE\10.0.18362.0\UM\INTERLOCKEDAPI.H
C:\PROGRAM FILES (X86)\WINDOWS KITS\10\INCLUDE\10.0.18362.0\UM\PROCESSTHREADSAPI.H
C:\PROGRAM FILES (X86)\WINDOWS KITS\10\INCLUDE\10.0.18362.0\UM\SYSINFOAPI.H
C:\PROGRAM FILES (X86)\WINDOWS KITS\10\INCLUDE\10.0.18362.0\UM\MEMORYAPI.H
C:\PROGRAM FILES (X86)\WINDOWS KITS\10\INCLUDE\10.0.18362.0\UM\ENCLAVEAPI.H
C:\PROGRAM FILES (X86)\WINDOWS KITS\10\INCLUDE\10.0.18362.0\UM\THREADPOOLLEGACYAPISET.H
C:\PROGRAM FILES (X86)\WINDOWS KITS\10\INCLUDE\10.0.18362.0\UM\THREADPOOLAPISET.H
C:\PROGRAM FILES (X86)\WINDOWS KITS\10\INCLUDE\10.0.18362.0\UM\JOBAPI.H
C:\PROGRAM FILES (X86)\WINDOWS KITS\10\INCLUDE\10.0.18362.0\UM\JOBAPI2.H
C:\PROGRAM FILES (X86)\WINDOWS KITS\10\INCLUDE\10.0.18362.0\UM\WOW64APISET.H
C:\PROGRAM FILES (X86)\WINDOWS KITS\10\INCLUDE\10.0.18362.0\UM\LIBLOADERAPI.H
C:\PROGRAM FILES (X86)\WINDOWS KITS\10\INCLUDE\10.0.18362.0\UM\SECURITYBASEAPI.H
C:\PROGRAM FILES (X86)\WINDOWS KITS\10\INCLUDE\10.0.18362.0\UM\NAMESPACEAPI.H
C:\PROGRAM FILES (X86)\WINDOWS KITS\10\INCLUDE\10.0.18362.0\UM\SYSTEMTOPOLOGYAPI.H
C:\PROGRAM FILES (X86)\WINDOWS KITS\10\INCLUDE\10.0.18362.0\UM\PROCESSTOPOLOGYAPI.H
C:\PROGRAM FILES (X86)\WINDOWS KITS\10\INCLUDE\10.0.18362.0\UM\SECURITYAPPCONTAINER.H
C:\PROGRAM FILES (X86)\WINDOWS KITS\10\INCLUDE\10.0.18362.0\UM\REALTIMEAPISET.H
C:\PROGRAM FILES (X86)\WINDOWS KITS\10\INCLUDE\10.0.18362.0\SHARED\WINERROR.H
C:\PROGRAM FILES (X86)\WINDOWS KITS\10\INCLUDE\10.0.18362.0\UM\TIMEZONEAPI.H
C:\PROGRAM FILES (X86)\WINDOWS KITS\10\INCLUDE\10.0.18362.0\UM\WINGDI.H
C:\PROGRAM FILES (X86)\WINDOWS KITS\10\INCLUDE\10.0.18362.0\UM\WINUSER.H
C:\PROGRAM FILES (X86)\WINDOWS KITS\10\INCLUDE\10.0.18362.0\SHARED\TVOUT.H
C:\PROGRAM FILES (X86)\WINDOWS KITS\10\INCLUDE\10.0.18362.0\UM\WINNLS.H
C:\PROGRAM FILES (X86)\WINDOWS KITS\10\INCLUDE\10.0.18362.0\UM\DATETIMEAPI.H
C:\PROGRAM FILES (X86)\WINDOWS KITS\10\INCLUDE\10.0.18362.0\UM\STRINGAPISET.H
C:\PROGRAM FILES (X86)\WINDOWS KITS\10\INCLUDE\10.0.18362.0\UM\WINCON.H
C:\PROGRAM FILES (X86)\WINDOWS KITS\10\INCLUDE\10.0.18362.0\UM\WINCONTYPES.H
C:\PROGRAM FILES (X86)\WINDOWS KITS\10\INCLUDE\10.0.18362.0\UM\CONSOLEAPI.H
C:\PROGRAM FILES (X86)\WINDOWS KITS\10\INCLUDE\10.0.18362.0\UM\CONSOLEAPI2.H
C:\PROGRAM FILES (X86)\WINDOWS KITS\10\INCLUDE\10.0.18362.0\UM\CONSOLEAPI3.H
C:\PROGRAM FILES (X86)\WINDOWS KITS\10\INCLUDE\10.0.18362.0\UM\WINVER.H
C:\PROGRAM FILES (X86)\WINDOWS KITS\10\INCLUDE\10.0.18362.0\UM\VERRSRC.H
C:\PROGRAM FILES (X86)\WINDOWS KITS\10\INCLUDE\10.0.18362.0\UM\WINREG.H
C:\PROGRAM FILES (X86)\WINDOWS KITS\10\INCLUDE\10.0.18362.0\UM\REASON.H
C:\PROGRAM FILES (X86)\WINDOWS KITS\10\INCLUDE\10.0.18362.0\UM\WINNETWK.H
C:\PROGRAM FILES (X86)\WINDOWS KITS\10\INCLUDE\10.0.18362.0\SHARED\WNNC.H
C:\PROGRAM FILES (X86)\WINDOWS KITS\10\INCLUDE\10.0.18362.0\SHARED\STRALIGN.H
C:\PROGRAM FILES (X86)\WINDOWS KITS\10\INCLUDE\10.0.18362.0\UM\WINSVC.H
C:\PROGRAM FILES (X86)\WINDOWS KITS\10\INCLUDE\10.0.18362.0\UM\MCX.H
C:\PROGRAM FILES (X86)\WINDOWS KITS\10\INCLUDE\10.0.18362.0\UM\IMM.H
C:\PROGRAM FILES (X86)\WINDOWS KITS\10\INCLUDE\10.0.18362.0\UM\IME_CMODES.H
^F:\DEV\UNI\YEAR4\HIGH_PERFORMANCE_GFX\TESTVULKAN\TESTVULKAN\IMGUI\IMGUI_DEMO.CPP
F:\DEV\UNI\YEAR4\HIGH_PERFORMANCE_GFX\TESTVULKAN\TESTVULKAN\IMGUI\IMGUI.H
F:\DEV\UNI\YEAR4\HIGH_PERFORMANCE_GFX\TESTVULKAN\TESTVULKAN\IMGUI\IMCONFIG.H
C:\PROGRAM FILES (X86)\WINDOWS KITS\10\INCLUDE\10.0.18362.0\UCRT\FLOAT.H
C:\PROGRAM FILES (X86)\WINDOWS KITS\10\INCLUDE\10.0.18362.0\UCRT\CORECRT.H
C:\PROGRAM FILES (X86)\MICROSOFT VISUAL STUDIO\2019\COMMUNITY\VC\TOOLS\MSVC\14.28.29333\INCLUDE\VCRUNTIME.H
C:\PROGRAM FILES (X86)\MICROSOFT VISUAL STUDIO\2019\COMMUNITY\VC\TOOLS\MSVC\14.28.29333\INCLUDE\SAL.H
C:\PROGRAM FILES (X86)\MICROSOFT VISUAL STUDIO\2019\COMMUNITY\VC\TOOLS\MSVC\14.28.29333\INCLUDE\CONCURRENCYSAL.H
C:\PROGRAM FILES (X86)\MICROSOFT VISUAL STUDIO\2019\COMMUNITY\VC\TOOLS\MSVC\14.28.29333\INCLUDE\VADEFS.H
C:\PROGRAM FILES (X86)\MICROSOFT VISUAL STUDIO\2019\COMMUNITY\VC\TOOLS\MSVC\14.28.29333\INCLUDE\STDARG.H
C:\PROGRAM FILES (X86)\WINDOWS KITS\10\INCLUDE\10.0.18362.0\UCRT\STDDEF.H
C:\PROGRAM FILES (X86)\WINDOWS KITS\10\INCLUDE\10.0.18362.0\UCRT\STRING.H
C:\PROGRAM FILES (X86)\WINDOWS KITS\10\INCLUDE\10.0.18362.0\UCRT\CORECRT_MEMORY.H
C:\PROGRAM FILES (X86)\WINDOWS KITS\10\INCLUDE\10.0.18362.0\UCRT\CORECRT_MEMCPY_S.H
C:\PROGRAM FILES (X86)\WINDOWS KITS\10\INCLUDE\10.0.18362.0\UCRT\ERRNO.H
C:\PROGRAM FILES (X86)\MICROSOFT VISUAL STUDIO\2019\COMMUNITY\VC\TOOLS\MSVC\14.28.29333\INCLUDE\VCRUNTIME_STRING.H
C:\PROGRAM FILES (X86)\WINDOWS KITS\10\INCLUDE\10.0.18362.0\UCRT\CORECRT_WSTRING.H
C:\PROGRAM FILES (X86)\WINDOWS KITS\10\INCLUDE\10.0.18362.0\UCRT\ASSERT.H
C:\PROGRAM FILES (X86)\WINDOWS KITS\10\INCLUDE\10.0.18362.0\UCRT\CTYPE.H
C:\PROGRAM FILES (X86)\WINDOWS KITS\10\INCLUDE\10.0.18362.0\UCRT\CORECRT_WCTYPE.H
C:\PROGRAM FILES (X86)\MICROSOFT VISUAL STUDIO\2019\COMMUNITY\VC\TOOLS\MSVC\14.28.29333\INCLUDE\LIMITS.H
C:\PROGRAM FILES (X86)\WINDOWS KITS\10\INCLUDE\10.0.18362.0\UCRT\MATH.H
C:\PROGRAM FILES (X86)\WINDOWS KITS\10\INCLUDE\10.0.18362.0\UCRT\CORECRT_MATH.H
C:\PROGRAM FILES (X86)\WINDOWS KITS\10\INCLUDE\10.0.18362.0\UCRT\STDIO.H
C:\PROGRAM FILES (X86)\WINDOWS KITS\10\INCLUDE\10.0.18362.0\UCRT\CORECRT_WSTDIO.H
C:\PROGRAM FILES (X86)\WINDOWS KITS\10\INCLUDE\10.0.18362.0\UCRT\CORECRT_STDIO_CONFIG.H
C:\PROGRAM FILES (X86)\WINDOWS KITS\10\INCLUDE\10.0.18362.0\UCRT\STDLIB.H
C:\PROGRAM FILES (X86)\WINDOWS KITS\10\INCLUDE\10.0.18362.0\UCRT\CORECRT_MALLOC.H
C:\PROGRAM FILES (X86)\WINDOWS KITS\10\INCLUDE\10.0.18362.0\UCRT\CORECRT_SEARCH.H
C:\PROGRAM FILES (X86)\WINDOWS KITS\10\INCLUDE\10.0.18362.0\UCRT\CORECRT_WSTDLIB.H
C:\PROGRAM FILES (X86)\MICROSOFT VISUAL STUDIO\2019\COMMUNITY\VC\TOOLS\MSVC\14.28.29333\INCLUDE\STDINT.H
^F:\DEV\UNI\YEAR4\HIGH_PERFORMANCE_GFX\TESTVULKAN\TESTVULKAN\IMGUI\IMGUI_DRAW.CPP
F:\DEV\UNI\YEAR4\HIGH_PERFORMANCE_GFX\TESTVULKAN\TESTVULKAN\IMGUI\IMGUI.H
F:\DEV\UNI\YEAR4\HIGH_PERFORMANCE_GFX\TESTVULKAN\TESTVULKAN\IMGUI\IMCONFIG.H
C:\PROGRAM FILES (X86)\WINDOWS KITS\10\INCLUDE\10.0.18362.0\UCRT\FLOAT.H
C:\PROGRAM FILES (X86)\WINDOWS KITS\10\INCLUDE\10.0.18362.0\UCRT\CORECRT.H
C:\PROGRAM FILES (X86)\MICROSOFT VISUAL STUDIO\2019\COMMUNITY\VC\TOOLS\MSVC\14.28.29333\INCLUDE\VCRUNTIME.H
C:\PROGRAM FILES (X86)\MICROSOFT VISUAL STUDIO\2019\COMMUNITY\VC\TOOLS\MSVC\14.28.29333\INCLUDE\SAL.H
C:\PROGRAM FILES (X86)\MICROSOFT VISUAL STUDIO\2019\COMMUNITY\VC\TOOLS\MSVC\14.28.29333\INCLUDE\CONCURRENCYSAL.H
C:\PROGRAM FILES (X86)\MICROSOFT VISUAL STUDIO\2019\COMMUNITY\VC\TOOLS\MSVC\14.28.29333\INCLUDE\VADEFS.H
C:\PROGRAM FILES (X86)\MICROSOFT VISUAL STUDIO\2019\COMMUNITY\VC\TOOLS\MSVC\14.28.29333\INCLUDE\STDARG.H
C:\PROGRAM FILES (X86)\WINDOWS KITS\10\INCLUDE\10.0.18362.0\UCRT\STDDEF.H
C:\PROGRAM FILES (X86)\WINDOWS KITS\10\INCLUDE\10.0.18362.0\UCRT\STRING.H
C:\PROGRAM FILES (X86)\WINDOWS KITS\10\INCLUDE\10.0.18362.0\UCRT\CORECRT_MEMORY.H
C:\PROGRAM FILES (X86)\WINDOWS KITS\10\INCLUDE\10.0.18362.0\UCRT\CORECRT_MEMCPY_S.H
C:\PROGRAM FILES (X86)\WINDOWS KITS\10\INCLUDE\10.0.18362.0\UCRT\ERRNO.H
C:\PROGRAM FILES (X86)\MICROSOFT VISUAL STUDIO\2019\COMMUNITY\VC\TOOLS\MSVC\14.28.29333\INCLUDE\VCRUNTIME_STRING.H
C:\PROGRAM FILES (X86)\WINDOWS KITS\10\INCLUDE\10.0.18362.0\UCRT\CORECRT_WSTRING.H
C:\PROGRAM FILES (X86)\WINDOWS KITS\10\INCLUDE\10.0.18362.0\UCRT\ASSERT.H
F:\DEV\UNI\YEAR4\HIGH_PERFORMANCE_GFX\TESTVULKAN\TESTVULKAN\IMGUI\IMGUI_INTERNAL.H
C:\PROGRAM FILES (X86)\WINDOWS KITS\10\INCLUDE\10.0.18362.0\UCRT\STDIO.H
C:\PROGRAM FILES (X86)\WINDOWS KITS\10\INCLUDE\10.0.18362.0\UCRT\CORECRT_WSTDIO.H
C:\PROGRAM FILES (X86)\WINDOWS KITS\10\INCLUDE\10.0.18362.0\UCRT\CORECRT_STDIO_CONFIG.H
C:\PROGRAM FILES (X86)\WINDOWS KITS\10\INCLUDE\10.0.18362.0\UCRT\STDLIB.H
C:\PROGRAM FILES (X86)\WINDOWS KITS\10\INCLUDE\10.0.18362.0\UCRT\CORECRT_MALLOC.H
C:\PROGRAM FILES (X86)\WINDOWS KITS\10\INCLUDE\10.0.18362.0\UCRT\CORECRT_SEARCH.H
C:\PROGRAM FILES (X86)\WINDOWS KITS\10\INCLUDE\10.0.18362.0\UCRT\CORECRT_WSTDLIB.H
C:\PROGRAM FILES (X86)\MICROSOFT VISUAL STUDIO\2019\COMMUNITY\VC\TOOLS\MSVC\14.28.29333\INCLUDE\LIMITS.H
C:\PROGRAM FILES (X86)\WINDOWS KITS\10\INCLUDE\10.0.18362.0\UCRT\MATH.H
C:\PROGRAM FILES (X86)\WINDOWS KITS\10\INCLUDE\10.0.18362.0\UCRT\CORECRT_MATH.H
F:\DEV\UNI\YEAR4\HIGH_PERFORMANCE_GFX\TESTVULKAN\TESTVULKAN\IMGUI\IMSTB_TEXTEDIT.H
C:\PROGRAM FILES (X86)\WINDOWS KITS\10\INCLUDE\10.0.18362.0\UCRT\MALLOC.H
F:\DEV\UNI\YEAR4\HIGH_PERFORMANCE_GFX\TESTVULKAN\TESTVULKAN\IMGUI\IMSTB_RECTPACK.H
F:\DEV\UNI\YEAR4\HIGH_PERFORMANCE_GFX\TESTVULKAN\TESTVULKAN\IMGUI\IMSTB_TRUETYPE.H
^F:\DEV\UNI\YEAR4\HIGH_PERFORMANCE_GFX\TESTVULKAN\TESTVULKAN\IMGUI\IMGUI_IMPL_GLFW.CPP
F:\DEV\UNI\YEAR4\HIGH_PERFORMANCE_GFX\TESTVULKAN\TESTVULKAN\IMGUI\IMGUI.H
F:\DEV\UNI\YEAR4\HIGH_PERFORMANCE_GFX\TESTVULKAN\TESTVULKAN\IMGUI\IMCONFIG.H
C:\PROGRAM FILES (X86)\WINDOWS KITS\10\INCLUDE\10.0.18362.0\UCRT\FLOAT.H
C:\PROGRAM FILES (X86)\WINDOWS KITS\10\INCLUDE\10.0.18362.0\UCRT\CORECRT.H
C:\PROGRAM FILES (X86)\MICROSOFT VISUAL STUDIO\2019\COMMUNITY\VC\TOOLS\MSVC\14.28.29333\INCLUDE\VCRUNTIME.H
C:\PROGRAM FILES (X86)\MICROSOFT VISUAL STUDIO\2019\COMMUNITY\VC\TOOLS\MSVC\14.28.29333\INCLUDE\SAL.H
C:\PROGRAM FILES (X86)\MICROSOFT VISUAL STUDIO\2019\COMMUNITY\VC\TOOLS\MSVC\14.28.29333\INCLUDE\CONCURRENCYSAL.H
C:\PROGRAM FILES (X86)\MICROSOFT VISUAL STUDIO\2019\COMMUNITY\VC\TOOLS\MSVC\14.28.29333\INCLUDE\VADEFS.H
C:\PROGRAM FILES (X86)\MICROSOFT VISUAL STUDIO\2019\COMMUNITY\VC\TOOLS\MSVC\14.28.29333\INCLUDE\STDARG.H
C:\PROGRAM FILES (X86)\WINDOWS KITS\10\INCLUDE\10.0.18362.0\UCRT\STDDEF.H
C:\PROGRAM FILES (X86)\WINDOWS KITS\10\INCLUDE\10.0.18362.0\UCRT\STRING.H
C:\PROGRAM FILES (X86)\WINDOWS KITS\10\INCLUDE\10.0.18362.0\UCRT\CORECRT_MEMORY.H
C:\PROGRAM FILES (X86)\WINDOWS KITS\10\INCLUDE\10.0.18362.0\UCRT\CORECRT_MEMCPY_S.H
C:\PROGRAM FILES (X86)\WINDOWS KITS\10\INCLUDE\10.0.18362.0\UCRT\ERRNO.H
C:\PROGRAM FILES (X86)\MICROSOFT VISUAL STUDIO\2019\COMMUNITY\VC\TOOLS\MSVC\14.28.29333\INCLUDE\VCRUNTIME_STRING.H
C:\PROGRAM FILES (X86)\WINDOWS KITS\10\INCLUDE\10.0.18362.0\UCRT\CORECRT_WSTRING.H
C:\PROGRAM FILES (X86)\WINDOWS KITS\10\INCLUDE\10.0.18362.0\UCRT\ASSERT.H
F:\DEV\UNI\YEAR4\HIGH_PERFORMANCE_GFX\TESTVULKAN\TESTVULKAN\IMGUI\IMGUI_IMPL_GLFW.H
C:\USERS\BENJA\DOCUMENTS\VISUAL STUDIO 2019\LIBRARIES\GLFW-3.3.2\INCLUDE\GLFW\GLFW3.H
C:\PROGRAM FILES (X86)\MICROSOFT VISUAL STUDIO\2019\COMMUNITY\VC\TOOLS\MSVC\14.28.29333\INCLUDE\STDINT.H
C:\PROGRAM FILES (X86)\WINDOWS KITS\10\INCLUDE\10.0.18362.0\UM\GL\GL.H
C:\PROGRAM FILES (X86)\WINDOWS KITS\10\INCLUDE\10.0.18362.0\SHARED\WINAPIFAMILY.H
C:\PROGRAM FILES (X86)\WINDOWS KITS\10\INCLUDE\10.0.18362.0\SHARED\WINPACKAGEFAMILY.H
C:\USERS\BENJA\DOCUMENTS\VISUAL STUDIO 2019\LIBRARIES\GLFW-3.3.2\INCLUDE\GLFW\GLFW3NATIVE.H
C:\PROGRAM FILES (X86)\WINDOWS KITS\10\INCLUDE\10.0.18362.0\UM\WINDOWS.H
C:\PROGRAM FILES (X86)\WINDOWS KITS\10\INCLUDE\10.0.18362.0\SHARED\SDKDDKVER.H
C:\PROGRAM FILES (X86)\MICROSOFT VISUAL STUDIO\2019\COMMUNITY\VC\TOOLS\MSVC\14.28.29333\INCLUDE\EXCPT.H
C:\PROGRAM FILES (X86)\WINDOWS KITS\10\INCLUDE\10.0.18362.0\SHARED\WINDEF.H
C:\PROGRAM FILES (X86)\WINDOWS KITS\10\INCLUDE\10.0.18362.0\SHARED\MINWINDEF.H
C:\PROGRAM FILES (X86)\WINDOWS KITS\10\INCLUDE\10.0.18362.0\SHARED\SPECSTRINGS.H
C:\PROGRAM FILES (X86)\WINDOWS KITS\10\INCLUDE\10.0.18362.0\SHARED\SPECSTRINGS_STRICT.H
C:\PROGRAM FILES (X86)\WINDOWS KITS\10\INCLUDE\10.0.18362.0\SHARED\SPECSTRINGS_UNDEF.H
C:\PROGRAM FILES (X86)\WINDOWS KITS\10\INCLUDE\10.0.18362.0\SHARED\DRIVERSPECS.H
C:\PROGRAM FILES (X86)\WINDOWS KITS\10\INCLUDE\10.0.18362.0\SHARED\SDV_DRIVERSPECS.H
C:\PROGRAM FILES (X86)\WINDOWS KITS\10\INCLUDE\10.0.18362.0\UM\WINNT.H
C:\PROGRAM FILES (X86)\WINDOWS KITS\10\INCLUDE\10.0.18362.0\UCRT\CTYPE.H
C:\PROGRAM FILES (X86)\WINDOWS KITS\10\INCLUDE\10.0.18362.0\UCRT\CORECRT_WCTYPE.H
C:\PROGRAM FILES (X86)\WINDOWS KITS\10\INCLUDE\10.0.18362.0\SHARED\KERNELSPECS.H
C:\PROGRAM FILES (X86)\WINDOWS KITS\10\INCLUDE\10.0.18362.0\SHARED\BASETSD.H
C:\PROGRAM FILES (X86)\WINDOWS KITS\10\INCLUDE\10.0.18362.0\SHARED\GUIDDEF.H
C:\PROGRAM FILES (X86)\WINDOWS KITS\10\INCLUDE\10.0.18362.0\SHARED\PSHPACK4.H
C:\PROGRAM FILES (X86)\WINDOWS KITS\10\INCLUDE\10.0.18362.0\SHARED\POPPACK.H
C:\PROGRAM FILES (X86)\WINDOWS KITS\10\INCLUDE\10.0.18362.0\SHARED\PSHPACK2.H
C:\PROGRAM FILES (X86)\WINDOWS KITS\10\INCLUDE\10.0.18362.0\SHARED\PSHPACK8.H
C:\PROGRAM FILES (X86)\WINDOWS KITS\10\INCLUDE\10.0.18362.0\SHARED\PSHPACK1.H
C:\PROGRAM FILES (X86)\WINDOWS KITS\10\INCLUDE\10.0.18362.0\SHARED\APISET.H
C:\PROGRAM FILES (X86)\WINDOWS KITS\10\INCLUDE\10.0.18362.0\SHARED\KTMTYPES.H
C:\PROGRAM FILES (X86)\WINDOWS KITS\10\INCLUDE\10.0.18362.0\UM\WINBASE.H
C:\PROGRAM FILES (X86)\WINDOWS KITS\10\INCLUDE\10.0.18362.0\SHARED\APISETCCONV.H
C:\PROGRAM FILES (X86)\WINDOWS KITS\10\INCLUDE\10.0.18362.0\UM\MINWINBASE.H
C:\PROGRAM FILES (X86)\WINDOWS KITS\10\INCLUDE\10.0.18362.0\UM\APIQUERY2.H
C:\PROGRAM FILES (X86)\WINDOWS KITS\10\INCLUDE\10.0.18362.0\UM\PROCESSENV.H
C:\PROGRAM FILES (X86)\WINDOWS KITS\10\INCLUDE\10.0.18362.0\UM\FILEAPIFROMAPP.H
C:\PROGRAM FILES (X86)\WINDOWS KITS\10\INCLUDE\10.0.18362.0\UM\FILEAPI.H
C:\PROGRAM FILES (X86)\WINDOWS KITS\10\INCLUDE\10.0.18362.0\UM\DEBUGAPI.H
C:\PROGRAM FILES (X86)\WINDOWS KITS\10\INCLUDE\10.0.18362.0\UM\UTILAPISET.H
C:\PROGRAM FILES (X86)\WINDOWS KITS\10\INCLUDE\10.0.18362.0\UM\HANDLEAPI.H
C:\PROGRAM FILES (X86)\WINDOWS KITS\10\INCLUDE\10.0.18362.0\UM\ERRHANDLINGAPI.H
C:\PROGRAM FILES (X86)\WINDOWS KITS\10\INCLUDE\10.0.18362.0\UM\FIBERSAPI.H
C:\PROGRAM FILES (X86)\WINDOWS KITS\10\INCLUDE\10.0.18362.0\UM\NAMEDPIPEAPI.H
C:\PROGRAM FILES (X86)\WINDOWS KITS\10\INCLUDE\10.0.18362.0\UM\PROFILEAPI.H
C:\PROGRAM FILES (X86)\WINDOWS KITS\10\INCLUDE\10.0.18362.0\UM\HEAPAPI.H
C:\PROGRAM FILES (X86)\WINDOWS KITS\10\INCLUDE\10.0.18362.0\UM\IOAPISET.H
C:\PROGRAM FILES (X86)\WINDOWS KITS\10\INCLUDE\10.0.18362.0\UM\SYNCHAPI.H
C:\PROGRAM FILES (X86)\WINDOWS KITS\10\INCLUDE\10.0.18362.0\UM\INTERLOCKEDAPI.H
C:\PROGRAM FILES (X86)\WINDOWS KITS\10\INCLUDE\10.0.18362.0\UM\PROCESSTHREADSAPI.H
C:\PROGRAM FILES (X86)\WINDOWS KITS\10\INCLUDE\10.0.18362.0\UM\SYSINFOAPI.H
C:\PROGRAM FILES (X86)\WINDOWS KITS\10\INCLUDE\10.0.18362.0\UM\MEMORYAPI.H
C:\PROGRAM FILES (X86)\WINDOWS KITS\10\INCLUDE\10.0.18362.0\UM\ENCLAVEAPI.H
C:\PROGRAM FILES (X86)\WINDOWS KITS\10\INCLUDE\10.0.18362.0\UM\THREADPOOLLEGACYAPISET.H
C:\PROGRAM FILES (X86)\WINDOWS KITS\10\INCLUDE\10.0.18362.0\UM\THREADPOOLAPISET.H
C:\PROGRAM FILES (X86)\WINDOWS KITS\10\INCLUDE\10.0.18362.0\UM\JOBAPI.H
C:\PROGRAM FILES (X86)\WINDOWS KITS\10\INCLUDE\10.0.18362.0\UM\JOBAPI2.H
C:\PROGRAM FILES (X86)\WINDOWS KITS\10\INCLUDE\10.0.18362.0\UM\WOW64APISET.H
C:\PROGRAM FILES (X86)\WINDOWS KITS\10\INCLUDE\10.0.18362.0\UM\LIBLOADERAPI.H
C:\PROGRAM FILES (X86)\WINDOWS KITS\10\INCLUDE\10.0.18362.0\UM\SECURITYBASEAPI.H
C:\PROGRAM FILES (X86)\WINDOWS KITS\10\INCLUDE\10.0.18362.0\UM\NAMESPACEAPI.H
C:\PROGRAM FILES (X86)\WINDOWS KITS\10\INCLUDE\10.0.18362.0\UM\SYSTEMTOPOLOGYAPI.H
C:\PROGRAM FILES (X86)\WINDOWS KITS\10\INCLUDE\10.0.18362.0\UM\PROCESSTOPOLOGYAPI.H
C:\PROGRAM FILES (X86)\WINDOWS KITS\10\INCLUDE\10.0.18362.0\UM\SECURITYAPPCONTAINER.H
C:\PROGRAM FILES (X86)\WINDOWS KITS\10\INCLUDE\10.0.18362.0\UM\REALTIMEAPISET.H
C:\PROGRAM FILES (X86)\WINDOWS KITS\10\INCLUDE\10.0.18362.0\SHARED\WINERROR.H
C:\PROGRAM FILES (X86)\WINDOWS KITS\10\INCLUDE\10.0.18362.0\UM\TIMEZONEAPI.H
C:\PROGRAM FILES (X86)\WINDOWS KITS\10\INCLUDE\10.0.18362.0\UM\WINGDI.H
C:\PROGRAM FILES (X86)\WINDOWS KITS\10\INCLUDE\10.0.18362.0\UM\WINUSER.H
C:\PROGRAM FILES (X86)\WINDOWS KITS\10\INCLUDE\10.0.18362.0\SHARED\TVOUT.H
C:\PROGRAM FILES (X86)\WINDOWS KITS\10\INCLUDE\10.0.18362.0\UM\WINNLS.H
C:\PROGRAM FILES (X86)\WINDOWS KITS\10\INCLUDE\10.0.18362.0\UM\DATETIMEAPI.H
C:\PROGRAM FILES (X86)\WINDOWS KITS\10\INCLUDE\10.0.18362.0\UM\STRINGAPISET.H
C:\PROGRAM FILES (X86)\WINDOWS KITS\10\INCLUDE\10.0.18362.0\UM\WINCON.H
C:\PROGRAM FILES (X86)\WINDOWS KITS\10\INCLUDE\10.0.18362.0\UM\WINCONTYPES.H
C:\PROGRAM FILES (X86)\WINDOWS KITS\10\INCLUDE\10.0.18362.0\UM\CONSOLEAPI.H
C:\PROGRAM FILES (X86)\WINDOWS KITS\10\INCLUDE\10.0.18362.0\UM\CONSOLEAPI2.H
C:\PROGRAM FILES (X86)\WINDOWS KITS\10\INCLUDE\10.0.18362.0\UM\CONSOLEAPI3.H
C:\PROGRAM FILES (X86)\WINDOWS KITS\10\INCLUDE\10.0.18362.0\UM\WINVER.H
C:\PROGRAM FILES (X86)\WINDOWS KITS\10\INCLUDE\10.0.18362.0\UM\VERRSRC.H
C:\PROGRAM FILES (X86)\WINDOWS KITS\10\INCLUDE\10.0.18362.0\UM\WINREG.H
C:\PROGRAM FILES (X86)\WINDOWS KITS\10\INCLUDE\10.0.18362.0\UM\REASON.H
C:\PROGRAM FILES (X86)\WINDOWS KITS\10\INCLUDE\10.0.18362.0\UM\WINNETWK.H
C:\PROGRAM FILES (X86)\WINDOWS KITS\10\INCLUDE\10.0.18362.0\SHARED\WNNC.H
C:\PROGRAM FILES (X86)\WINDOWS KITS\10\INCLUDE\10.0.18362.0\SHARED\CDERR.H
C:\PROGRAM FILES (X86)\WINDOWS KITS\10\INCLUDE\10.0.18362.0\UM\DDE.H
C:\PROGRAM FILES (X86)\WINDOWS KITS\10\INCLUDE\10.0.18362.0\UM\DDEML.H
C:\PROGRAM FILES (X86)\WINDOWS KITS\10\INCLUDE\10.0.18362.0\UM\DLGS.H
C:\PROGRAM FILES (X86)\WINDOWS KITS\10\INCLUDE\10.0.18362.0\UM\LZEXPAND.H
C:\PROGRAM FILES (X86)\WINDOWS KITS\10\INCLUDE\10.0.18362.0\UM\MMSYSTEM.H
C:\PROGRAM FILES (X86)\WINDOWS KITS\10\INCLUDE\10.0.18362.0\UM\MMSYSCOM.H
C:\PROGRAM FILES (X86)\WINDOWS KITS\10\INCLUDE\10.0.18362.0\UM\MCIAPI.H
C:\PROGRAM FILES (X86)\WINDOWS KITS\10\INCLUDE\10.0.18362.0\UM\MMISCAPI.H
C:\PROGRAM FILES (X86)\WINDOWS KITS\10\INCLUDE\10.0.18362.0\UM\MMISCAPI2.H
C:\PROGRAM FILES (X86)\WINDOWS KITS\10\INCLUDE\10.0.18362.0\UM\PLAYSOUNDAPI.H
C:\PROGRAM FILES (X86)\WINDOWS KITS\10\INCLUDE\10.0.18362.0\UM\MMEAPI.H
C:\PROGRAM FILES (X86)\WINDOWS KITS\10\INCLUDE\10.0.18362.0\UM\TIMEAPI.H
C:\PROGRAM FILES (X86)\WINDOWS KITS\10\INCLUDE\10.0.18362.0\UM\JOYSTICKAPI.H
C:\PROGRAM FILES (X86)\WINDOWS KITS\10\INCLUDE\10.0.18362.0\UM\NB30.H
C:\PROGRAM FILES (X86)\WINDOWS KITS\10\INCLUDE\10.0.18362.0\SHARED\RPC.H
C:\PROGRAM FILES (X86)\WINDOWS KITS\10\INCLUDE\10.0.18362.0\SHARED\RPCDCE.H
C:\PROGRAM FILES (X86)\WINDOWS KITS\10\INCLUDE\10.0.18362.0\SHARED\RPCDCEP.H
C:\PROGRAM FILES (X86)\WINDOWS KITS\10\INCLUDE\10.0.18362.0\UM\RPCNSI.H
C:\PROGRAM FILES (X86)\WINDOWS KITS\10\INCLUDE\10.0.18362.0\SHARED\RPCNTERR.H
C:\PROGRAM FILES (X86)\WINDOWS KITS\10\INCLUDE\10.0.18362.0\SHARED\RPCASYNC.H
C:\PROGRAM FILES (X86)\WINDOWS KITS\10\INCLUDE\10.0.18362.0\UM\SHELLAPI.H
C:\PROGRAM FILES (X86)\WINDOWS KITS\10\INCLUDE\10.0.18362.0\UM\WINPERF.H
C:\PROGRAM FILES (X86)\WINDOWS KITS\10\INCLUDE\10.0.18362.0\UM\WINSOCK.H
C:\PROGRAM FILES (X86)\WINDOWS KITS\10\INCLUDE\10.0.18362.0\SHARED\INADDR.H
C:\PROGRAM FILES (X86)\WINDOWS KITS\10\INCLUDE\10.0.18362.0\UM\WINCRYPT.H
C:\PROGRAM FILES (X86)\WINDOWS KITS\10\INCLUDE\10.0.18362.0\SHARED\BCRYPT.H
C:\PROGRAM FILES (X86)\WINDOWS KITS\10\INCLUDE\10.0.18362.0\UM\NCRYPT.H
C:\PROGRAM FILES (X86)\WINDOWS KITS\10\INCLUDE\10.0.18362.0\UM\DPAPI.H
C:\PROGRAM FILES (X86)\WINDOWS KITS\10\INCLUDE\10.0.18362.0\UM\WINEFS.H
C:\PROGRAM FILES (X86)\WINDOWS KITS\10\INCLUDE\10.0.18362.0\UM\WINSCARD.H
C:\PROGRAM FILES (X86)\WINDOWS KITS\10\INCLUDE\10.0.18362.0\SHARED\WTYPES.H
C:\PROGRAM FILES (X86)\WINDOWS KITS\10\INCLUDE\10.0.18362.0\SHARED\RPCNDR.H
C:\PROGRAM FILES (X86)\WINDOWS KITS\10\INCLUDE\10.0.18362.0\UM\RPCNSIP.H
C:\PROGRAM FILES (X86)\WINDOWS KITS\10\INCLUDE\10.0.18362.0\SHARED\RPCSAL.H
C:\PROGRAM FILES (X86)\WINDOWS KITS\10\INCLUDE\10.0.18362.0\SHARED\WTYPESBASE.H
C:\PROGRAM FILES (X86)\WINDOWS KITS\10\INCLUDE\10.0.18362.0\UM\WINIOCTL.H
C:\PROGRAM FILES (X86)\WINDOWS KITS\10\INCLUDE\10.0.18362.0\SHARED\WINSMCRD.H
C:\PROGRAM FILES (X86)\WINDOWS KITS\10\INCLUDE\10.0.18362.0\UM\WINSPOOL.H
C:\PROGRAM FILES (X86)\WINDOWS KITS\10\INCLUDE\10.0.18362.0\UM\PRSHT.H
C:\PROGRAM FILES (X86)\WINDOWS KITS\10\INCLUDE\10.0.18362.0\UM\OLE2.H
C:\PROGRAM FILES (X86)\WINDOWS KITS\10\INCLUDE\10.0.18362.0\UM\OBJBASE.H
C:\PROGRAM FILES (X86)\WINDOWS KITS\10\INCLUDE\10.0.18362.0\UM\COMBASEAPI.H
C:\PROGRAM FILES (X86)\WINDOWS KITS\10\INCLUDE\10.0.18362.0\UCRT\STDLIB.H
C:\PROGRAM FILES (X86)\WINDOWS KITS\10\INCLUDE\10.0.18362.0\UCRT\CORECRT_MALLOC.H
C:\PROGRAM FILES (X86)\WINDOWS KITS\10\INCLUDE\10.0.18362.0\UCRT\CORECRT_SEARCH.H
C:\PROGRAM FILES (X86)\WINDOWS KITS\10\INCLUDE\10.0.18362.0\UCRT\CORECRT_WSTDLIB.H
C:\PROGRAM FILES (X86)\MICROSOFT VISUAL STUDIO\2019\COMMUNITY\VC\TOOLS\MSVC\14.28.29333\INCLUDE\LIMITS.H
C:\PROGRAM FILES (X86)\WINDOWS KITS\10\INCLUDE\10.0.18362.0\UM\UNKNWNBASE.H
C:\PROGRAM FILES (X86)\WINDOWS KITS\10\INCLUDE\10.0.18362.0\UM\OBJIDLBASE.H
C:\PROGRAM FILES (X86)\WINDOWS KITS\10\INCLUDE\10.0.18362.0\UM\CGUID.H
C:\PROGRAM FILES (X86)\WINDOWS KITS\10\INCLUDE\10.0.18362.0\UM\COML2API.H
C:\PROGRAM FILES (X86)\WINDOWS KITS\10\INCLUDE\10.0.18362.0\UM\OBJIDL.H
C:\PROGRAM FILES (X86)\WINDOWS KITS\10\INCLUDE\10.0.18362.0\UM\UNKNWN.H
C:\PROGRAM FILES (X86)\WINDOWS KITS\10\INCLUDE\10.0.18362.0\UM\PROPIDLBASE.H
C:\PROGRAM FILES (X86)\WINDOWS KITS\10\INCLUDE\10.0.18362.0\UM\OAIDL.H
C:\PROGRAM FILES (X86)\WINDOWS KITS\10\INCLUDE\10.0.18362.0\UM\URLMON.H
C:\PROGRAM FILES (X86)\WINDOWS KITS\10\INCLUDE\10.0.18362.0\UM\OLEIDL.H
C:\PROGRAM FILES (X86)\WINDOWS KITS\10\INCLUDE\10.0.18362.0\UM\SERVPROV.H
C:\PROGRAM FILES (X86)\WINDOWS KITS\10\INCLUDE\10.0.18362.0\UM\MSXML.H
C:\PROGRAM FILES (X86)\WINDOWS KITS\10\INCLUDE\10.0.18362.0\UM\PROPIDL.H
C:\PROGRAM FILES (X86)\WINDOWS KITS\10\INCLUDE\10.0.18362.0\UM\OLEAUTO.H
C:\PROGRAM FILES (X86)\WINDOWS KITS\10\INCLUDE\10.0.18362.0\UM\COMMDLG.H
C:\PROGRAM FILES (X86)\WINDOWS KITS\10\INCLUDE\10.0.18362.0\SHARED\STRALIGN.H
C:\PROGRAM FILES (X86)\WINDOWS KITS\10\INCLUDE\10.0.18362.0\UM\WINSVC.H
C:\PROGRAM FILES (X86)\WINDOWS KITS\10\INCLUDE\10.0.18362.0\UM\MCX.H
C:\PROGRAM FILES (X86)\WINDOWS KITS\10\INCLUDE\10.0.18362.0\UM\IMM.H
C:\PROGRAM FILES (X86)\WINDOWS KITS\10\INCLUDE\10.0.18362.0\UM\IME_CMODES.H
^F:\DEV\UNI\YEAR4\HIGH_PERFORMANCE_GFX\TESTVULKAN\TESTVULKAN\IMGUI\IMGUI_IMPL_VULKAN.CPP
F:\DEV\UNI\YEAR4\HIGH_PERFORMANCE_GFX\TESTVULKAN\TESTVULKAN\IMGUI\IMGUI.H
F:\DEV\UNI\YEAR4\HIGH_PERFORMANCE_GFX\TESTVULKAN\TESTVULKAN\IMGUI\IMCONFIG.H
C:\PROGRAM FILES (X86)\WINDOWS KITS\10\INCLUDE\10.0.18362.0\UCRT\FLOAT.H
C:\PROGRAM FILES (X86)\WINDOWS KITS\10\INCLUDE\10.0.18362.0\UCRT\CORECRT.H
C:\PROGRAM FILES (X86)\MICROSOFT VISUAL STUDIO\2019\COMMUNITY\VC\TOOLS\MSVC\14.28.29333\INCLUDE\VCRUNTIME.H
C:\PROGRAM FILES (X86)\MICROSOFT VISUAL STUDIO\2019\COMMUNITY\VC\TOOLS\MSVC\14.28.29333\INCLUDE\SAL.H
C:\PROGRAM FILES (X86)\MICROSOFT VISUAL STUDIO\2019\COMMUNITY\VC\TOOLS\MSVC\14.28.29333\INCLUDE\CONCURRENCYSAL.H
C:\PROGRAM FILES (X86)\MICROSOFT VISUAL STUDIO\2019\COMMUNITY\VC\TOOLS\MSVC\14.28.29333\INCLUDE\VADEFS.H
C:\PROGRAM FILES (X86)\MICROSOFT VISUAL STUDIO\2019\COMMUNITY\VC\TOOLS\MSVC\14.28.29333\INCLUDE\STDARG.H
C:\PROGRAM FILES (X86)\WINDOWS KITS\10\INCLUDE\10.0.18362.0\UCRT\STDDEF.H
C:\PROGRAM FILES (X86)\WINDOWS KITS\10\INCLUDE\10.0.18362.0\UCRT\STRING.H
C:\PROGRAM FILES (X86)\WINDOWS KITS\10\INCLUDE\10.0.18362.0\UCRT\CORECRT_MEMORY.H
C:\PROGRAM FILES (X86)\WINDOWS KITS\10\INCLUDE\10.0.18362.0\UCRT\CORECRT_MEMCPY_S.H
C:\PROGRAM FILES (X86)\WINDOWS KITS\10\INCLUDE\10.0.18362.0\UCRT\ERRNO.H
C:\PROGRAM FILES (X86)\MICROSOFT VISUAL STUDIO\2019\COMMUNITY\VC\TOOLS\MSVC\14.28.29333\INCLUDE\VCRUNTIME_STRING.H
C:\PROGRAM FILES (X86)\WINDOWS KITS\10\INCLUDE\10.0.18362.0\UCRT\CORECRT_WSTRING.H
C:\PROGRAM FILES (X86)\WINDOWS KITS\10\INCLUDE\10.0.18362.0\UCRT\ASSERT.H
F:\DEV\UNI\YEAR4\HIGH_PERFORMANCE_GFX\TESTVULKAN\TESTVULKAN\IMGUI\IMGUI_IMPL_VULKAN.H
C:\VULKANSDK\1.2.162.1\INCLUDE\VULKAN\VULKAN.H
C:\VULKANSDK\1.2.162.1\INCLUDE\VULKAN\VK_PLATFORM.H
C:\PROGRAM FILES (X86)\MICROSOFT VISUAL STUDIO\2019\COMMUNITY\VC\TOOLS\MSVC\14.28.29333\INCLUDE\STDINT.H
C:\VULKANSDK\1.2.162.1\INCLUDE\VULKAN\VULKAN_CORE.H
C:\PROGRAM FILES (X86)\WINDOWS KITS\10\INCLUDE\10.0.18362.0\UCRT\STDIO.H
C:\PROGRAM FILES (X86)\WINDOWS KITS\10\INCLUDE\10.0.18362.0\UCRT\CORECRT_WSTDIO.H
C:\PROGRAM FILES (X86)\WINDOWS KITS\10\INCLUDE\10.0.18362.0\UCRT\CORECRT_STDIO_CONFIG.H
^F:\DEV\UNI\YEAR4\HIGH_PERFORMANCE_GFX\TESTVULKAN\TESTVULKAN\IMGUI\IMGUI_TABLES.CPP
F:\DEV\UNI\YEAR4\HIGH_PERFORMANCE_GFX\TESTVULKAN\TESTVULKAN\IMGUI\IMGUI.H
F:\DEV\UNI\YEAR4\HIGH_PERFORMANCE_GFX\TESTVULKAN\TESTVULKAN\IMGUI\IMCONFIG.H
C:\PROGRAM FILES (X86)\WINDOWS KITS\10\INCLUDE\10.0.18362.0\UCRT\FLOAT.H
C:\PROGRAM FILES (X86)\WINDOWS KITS\10\INCLUDE\10.0.18362.0\UCRT\CORECRT.H
C:\PROGRAM FILES (X86)\MICROSOFT VISUAL STUDIO\2019\COMMUNITY\VC\TOOLS\MSVC\14.28.29333\INCLUDE\VCRUNTIME.H
C:\PROGRAM FILES (X86)\MICROSOFT VISUAL STUDIO\2019\COMMUNITY\VC\TOOLS\MSVC\14.28.29333\INCLUDE\SAL.H
C:\PROGRAM FILES (X86)\MICROSOFT VISUAL STUDIO\2019\COMMUNITY\VC\TOOLS\MSVC\14.28.29333\INCLUDE\CONCURRENCYSAL.H
C:\PROGRAM FILES (X86)\MICROSOFT VISUAL STUDIO\2019\COMMUNITY\VC\TOOLS\MSVC\14.28.29333\INCLUDE\VADEFS.H
C:\PROGRAM FILES (X86)\MICROSOFT VISUAL STUDIO\2019\COMMUNITY\VC\TOOLS\MSVC\14.28.29333\INCLUDE\STDARG.H
C:\PROGRAM FILES (X86)\WINDOWS KITS\10\INCLUDE\10.0.18362.0\UCRT\STDDEF.H
C:\PROGRAM FILES (X86)\WINDOWS KITS\10\INCLUDE\10.0.18362.0\UCRT\STRING.H
C:\PROGRAM FILES (X86)\WINDOWS KITS\10\INCLUDE\10.0.18362.0\UCRT\CORECRT_MEMORY.H
C:\PROGRAM FILES (X86)\WINDOWS KITS\10\INCLUDE\10.0.18362.0\UCRT\CORECRT_MEMCPY_S.H
C:\PROGRAM FILES (X86)\WINDOWS KITS\10\INCLUDE\10.0.18362.0\UCRT\ERRNO.H
C:\PROGRAM FILES (X86)\MICROSOFT VISUAL STUDIO\2019\COMMUNITY\VC\TOOLS\MSVC\14.28.29333\INCLUDE\VCRUNTIME_STRING.H
C:\PROGRAM FILES (X86)\WINDOWS KITS\10\INCLUDE\10.0.18362.0\UCRT\CORECRT_WSTRING.H
C:\PROGRAM FILES (X86)\WINDOWS KITS\10\INCLUDE\10.0.18362.0\UCRT\ASSERT.H
F:\DEV\UNI\YEAR4\HIGH_PERFORMANCE_GFX\TESTVULKAN\TESTVULKAN\IMGUI\IMGUI_INTERNAL.H
C:\PROGRAM FILES (X86)\WINDOWS KITS\10\INCLUDE\10.0.18362.0\UCRT\STDIO.H
C:\PROGRAM FILES (X86)\WINDOWS KITS\10\INCLUDE\10.0.18362.0\UCRT\CORECRT_WSTDIO.H
C:\PROGRAM FILES (X86)\WINDOWS KITS\10\INCLUDE\10.0.18362.0\UCRT\CORECRT_STDIO_CONFIG.H
C:\PROGRAM FILES (X86)\WINDOWS KITS\10\INCLUDE\10.0.18362.0\UCRT\STDLIB.H
C:\PROGRAM FILES (X86)\WINDOWS KITS\10\INCLUDE\10.0.18362.0\UCRT\CORECRT_MALLOC.H
C:\PROGRAM FILES (X86)\WINDOWS KITS\10\INCLUDE\10.0.18362.0\UCRT\CORECRT_SEARCH.H
C:\PROGRAM FILES (X86)\WINDOWS KITS\10\INCLUDE\10.0.18362.0\UCRT\CORECRT_WSTDLIB.H
C:\PROGRAM FILES (X86)\MICROSOFT VISUAL STUDIO\2019\COMMUNITY\VC\TOOLS\MSVC\14.28.29333\INCLUDE\LIMITS.H
C:\PROGRAM FILES (X86)\WINDOWS KITS\10\INCLUDE\10.0.18362.0\UCRT\MATH.H
C:\PROGRAM FILES (X86)\WINDOWS KITS\10\INCLUDE\10.0.18362.0\UCRT\CORECRT_MATH.H
F:\DEV\UNI\YEAR4\HIGH_PERFORMANCE_GFX\TESTVULKAN\TESTVULKAN\IMGUI\IMSTB_TEXTEDIT.H
C:\PROGRAM FILES (X86)\MICROSOFT VISUAL STUDIO\2019\COMMUNITY\VC\TOOLS\MSVC\14.28.29333\INCLUDE\STDINT.H
^F:\DEV\UNI\YEAR4\HIGH_PERFORMANCE_GFX\TESTVULKAN\TESTVULKAN\IMGUI\IMGUI_WIDGETS.CPP
F:\DEV\UNI\YEAR4\HIGH_PERFORMANCE_GFX\TESTVULKAN\TESTVULKAN\IMGUI\IMGUI.H
F:\DEV\UNI\YEAR4\HIGH_PERFORMANCE_GFX\TESTVULKAN\TESTVULKAN\IMGUI\IMCONFIG.H
C:\PROGRAM FILES (X86)\WINDOWS KITS\10\INCLUDE\10.0.18362.0\UCRT\FLOAT.H
C:\PROGRAM FILES (X86)\WINDOWS KITS\10\INCLUDE\10.0.18362.0\UCRT\CORECRT.H
C:\PROGRAM FILES (X86)\MICROSOFT VISUAL STUDIO\2019\COMMUNITY\VC\TOOLS\MSVC\14.28.29333\INCLUDE\VCRUNTIME.H
C:\PROGRAM FILES (X86)\MICROSOFT VISUAL STUDIO\2019\COMMUNITY\VC\TOOLS\MSVC\14.28.29333\INCLUDE\SAL.H
C:\PROGRAM FILES (X86)\MICROSOFT VISUAL STUDIO\2019\COMMUNITY\VC\TOOLS\MSVC\14.28.29333\INCLUDE\CONCURRENCYSAL.H
C:\PROGRAM FILES (X86)\MICROSOFT VISUAL STUDIO\2019\COMMUNITY\VC\TOOLS\MSVC\14.28.29333\INCLUDE\VADEFS.H
C:\PROGRAM FILES (X86)\MICROSOFT VISUAL STUDIO\2019\COMMUNITY\VC\TOOLS\MSVC\14.28.29333\INCLUDE\STDARG.H
C:\PROGRAM FILES (X86)\WINDOWS KITS\10\INCLUDE\10.0.18362.0\UCRT\STDDEF.H
C:\PROGRAM FILES (X86)\WINDOWS KITS\10\INCLUDE\10.0.18362.0\UCRT\STRING.H
C:\PROGRAM FILES (X86)\WINDOWS KITS\10\INCLUDE\10.0.18362.0\UCRT\CORECRT_MEMORY.H
C:\PROGRAM FILES (X86)\WINDOWS KITS\10\INCLUDE\10.0.18362.0\UCRT\CORECRT_MEMCPY_S.H
C:\PROGRAM FILES (X86)\WINDOWS KITS\10\INCLUDE\10.0.18362.0\UCRT\ERRNO.H
C:\PROGRAM FILES (X86)\MICROSOFT VISUAL STUDIO\2019\COMMUNITY\VC\TOOLS\MSVC\14.28.29333\INCLUDE\VCRUNTIME_STRING.H
C:\PROGRAM FILES (X86)\WINDOWS KITS\10\INCLUDE\10.0.18362.0\UCRT\CORECRT_WSTRING.H
C:\PROGRAM FILES (X86)\WINDOWS KITS\10\INCLUDE\10.0.18362.0\UCRT\ASSERT.H
F:\DEV\UNI\YEAR4\HIGH_PERFORMANCE_GFX\TESTVULKAN\TESTVULKAN\IMGUI\IMGUI_INTERNAL.H
C:\PROGRAM FILES (X86)\WINDOWS KITS\10\INCLUDE\10.0.18362.0\UCRT\STDIO.H
C:\PROGRAM FILES (X86)\WINDOWS KITS\10\INCLUDE\10.0.18362.0\UCRT\CORECRT_WSTDIO.H
C:\PROGRAM FILES (X86)\WINDOWS KITS\10\INCLUDE\10.0.18362.0\UCRT\CORECRT_STDIO_CONFIG.H
C:\PROGRAM FILES (X86)\WINDOWS KITS\10\INCLUDE\10.0.18362.0\UCRT\STDLIB.H
C:\PROGRAM FILES (X86)\WINDOWS KITS\10\INCLUDE\10.0.18362.0\UCRT\CORECRT_MALLOC.H
C:\PROGRAM FILES (X86)\WINDOWS KITS\10\INCLUDE\10.0.18362.0\UCRT\CORECRT_SEARCH.H
C:\PROGRAM FILES (X86)\WINDOWS KITS\10\INCLUDE\10.0.18362.0\UCRT\CORECRT_WSTDLIB.H
C:\PROGRAM FILES (X86)\MICROSOFT VISUAL STUDIO\2019\COMMUNITY\VC\TOOLS\MSVC\14.28.29333\INCLUDE\LIMITS.H
C:\PROGRAM FILES (X86)\WINDOWS KITS\10\INCLUDE\10.0.18362.0\UCRT\MATH.H
C:\PROGRAM FILES (X86)\WINDOWS KITS\10\INCLUDE\10.0.18362.0\UCRT\CORECRT_MATH.H
F:\DEV\UNI\YEAR4\HIGH_PERFORMANCE_GFX\TESTVULKAN\TESTVULKAN\IMGUI\IMSTB_TEXTEDIT.H
C:\PROGRAM FILES (X86)\WINDOWS KITS\10\INCLUDE\10.0.18362.0\UCRT\CTYPE.H
C:\PROGRAM FILES (X86)\WINDOWS KITS\10\INCLUDE\10.0.18362.0\UCRT\CORECRT_WCTYPE.H
C:\PROGRAM FILES (X86)\MICROSOFT VISUAL STUDIO\2019\COMMUNITY\VC\TOOLS\MSVC\14.28.29333\INCLUDE\STDINT.H
^F:\DEV\UNI\YEAR4\HIGH_PERFORMANCE_GFX\TESTVULKAN\TESTVULKAN\A1VULKANAPP.CPP
C:\WINDOWS\GLOBALIZATION\SORTING\SORTDEFAULT.NLS
C:\PROGRAM FILES (X86)\MICROSOFT VISUAL STUDIO\2019\COMMUNITY\VC\TOOLS\MSVC\14.28.29333\BIN\HOSTX86\X64\1033\CLUI.DLL
C:\WINDOWS\SYSTEM32\TZRES.DLL
F:\DEV\UNI\YEAR4\HIGH_PERFORMANCE_GFX\TESTVULKAN\TESTVULKAN\A1VULKANAPP.H
F:\DEV\UNI\YEAR4\HIGH_PERFORMANCE_GFX\TESTVULKAN\TESTVULKAN\IMGUI\IMGUI.H
F:\DEV\UNI\YEAR4\HIGH_PERFORMANCE_GFX\TESTVULKAN\TESTVULKAN\IMGUI\IMCONFIG.H
C:\PROGRAM FILES (X86)\WINDOWS KITS\10\INCLUDE\10.0.18362.0\UCRT\FLOAT.H
C:\PROGRAM FILES (X86)\WINDOWS KITS\10\INCLUDE\10.0.18362.0\UCRT\CORECRT.H
C:\PROGRAM FILES (X86)\MICROSOFT VISUAL STUDIO\2019\COMMUNITY\VC\TOOLS\MSVC\14.28.29333\INCLUDE\VCRUNTIME.H
C:\PROGRAM FILES (X86)\MICROSOFT VISUAL STUDIO\2019\COMMUNITY\VC\TOOLS\MSVC\14.28.29333\INCLUDE\SAL.H
C:\PROGRAM FILES (X86)\MICROSOFT VISUAL STUDIO\2019\COMMUNITY\VC\TOOLS\MSVC\14.28.29333\INCLUDE\CONCURRENCYSAL.H
C:\PROGRAM FILES (X86)\MICROSOFT VISUAL STUDIO\2019\COMMUNITY\VC\TOOLS\MSVC\14.28.29333\INCLUDE\VADEFS.H
C:\PROGRAM FILES (X86)\MICROSOFT VISUAL STUDIO\2019\COMMUNITY\VC\TOOLS\MSVC\14.28.29333\INCLUDE\STDARG.H
C:\PROGRAM FILES (X86)\WINDOWS KITS\10\INCLUDE\10.0.18362.0\UCRT\STDDEF.H
C:\PROGRAM FILES (X86)\WINDOWS KITS\10\INCLUDE\10.0.18362.0\UCRT\STRING.H
C:\PROGRAM FILES (X86)\WINDOWS KITS\10\INCLUDE\10.0.18362.0\UCRT\CORECRT_MEMORY.H
C:\PROGRAM FILES (X86)\WINDOWS KITS\10\INCLUDE\10.0.18362.0\UCRT\CORECRT_MEMCPY_S.H
C:\PROGRAM FILES (X86)\WINDOWS KITS\10\INCLUDE\10.0.18362.0\UCRT\ERRNO.H
C:\PROGRAM FILES (X86)\MICROSOFT VISUAL STUDIO\2019\COMMUNITY\VC\TOOLS\MSVC\14.28.29333\INCLUDE\VCRUNTIME_STRING.H
C:\PROGRAM FILES (X86)\WINDOWS KITS\10\INCLUDE\10.0.18362.0\UCRT\CORECRT_WSTRING.H
C:\PROGRAM FILES (X86)\WINDOWS KITS\10\INCLUDE\10.0.18362.0\UCRT\ASSERT.H
F:\DEV\UNI\YEAR4\HIGH_PERFORMANCE_GFX\TESTVULKAN\TESTVULKAN\IMGUI\IMGUI_IMPL_GLFW.H
F:\DEV\UNI\YEAR4\HIGH_PERFORMANCE_GFX\TESTVULKAN\TESTVULKAN\IMGUI\IMGUI_IMPL_VULKAN.H
C:\VULKANSDK\1.2.162.1\INCLUDE\VULKAN\VULKAN.H
C:\VULKANSDK\1.2.162.1\INCLUDE\VULKAN\VK_PLATFORM.H
C:\PROGRAM FILES (X86)\MICROSOFT VISUAL STUDIO\2019\COMMUNITY\VC\TOOLS\MSVC\14.28.29333\INCLUDE\STDINT.H
C:\VULKANSDK\1.2.162.1\INCLUDE\VULKAN\VULKAN_CORE.H
C:\USERS\BENJA\DOCUMENTS\VISUAL STUDIO 2019\LIBRARIES\GLFW-3.3.2\INCLUDE\GLFW\GLFW3.H
C:\PROGRAM FILES (X86)\WINDOWS KITS\10\INCLUDE\10.0.18362.0\UM\GL\GL.H
C:\PROGRAM FILES (X86)\WINDOWS KITS\10\INCLUDE\10.0.18362.0\SHARED\WINAPIFAMILY.H
C:\PROGRAM FILES (X86)\WINDOWS KITS\10\INCLUDE\10.0.18362.0\SHARED\WINPACKAGEFAMILY.H
C:\USERS\BENJA\DOCUMENTS\VISUAL STUDIO 2019\LIBRARIES\GLM\GLM\GLM.HPP
C:\USERS\BENJA\DOCUMENTS\VISUAL STUDIO 2019\LIBRARIES\GLM\GLM\DETAIL\_FIXES.HPP
C:\PROGRAM FILES (X86)\MICROSOFT VISUAL STUDIO\2019\COMMUNITY\VC\TOOLS\MSVC\14.28.29333\INCLUDE\CMATH
C:\PROGRAM FILES (X86)\MICROSOFT VISUAL STUDIO\2019\COMMUNITY\VC\TOOLS\MSVC\14.28.29333\INCLUDE\YVALS.H
C:\PROGRAM FILES (X86)\MICROSOFT VISUAL STUDIO\2019\COMMUNITY\VC\TOOLS\MSVC\14.28.29333\INCLUDE\YVALS_CORE.H
C:\PROGRAM FILES (X86)\MICROSOFT VISUAL STUDIO\2019\COMMUNITY\VC\TOOLS\MSVC\14.28.29333\INCLUDE\XKEYCHECK.H
C:\PROGRAM FILES (X86)\WINDOWS KITS\10\INCLUDE\10.0.18362.0\UCRT\CRTDBG.H
C:\PROGRAM FILES (X86)\MICROSOFT VISUAL STUDIO\2019\COMMUNITY\VC\TOOLS\MSVC\14.28.29333\INCLUDE\VCRUNTIME_NEW_DEBUG.H
C:\PROGRAM FILES (X86)\MICROSOFT VISUAL STUDIO\2019\COMMUNITY\VC\TOOLS\MSVC\14.28.29333\INCLUDE\VCRUNTIME_NEW.H
C:\PROGRAM FILES (X86)\MICROSOFT VISUAL STUDIO\2019\COMMUNITY\VC\TOOLS\MSVC\14.28.29333\INCLUDE\CRTDEFS.H
C:\PROGRAM FILES (X86)\MICROSOFT VISUAL STUDIO\2019\COMMUNITY\VC\TOOLS\MSVC\14.28.29333\INCLUDE\USE_ANSI.H
C:\PROGRAM FILES (X86)\MICROSOFT VISUAL STUDIO\2019\COMMUNITY\VC\TOOLS\MSVC\14.28.29333\INCLUDE\CSTDLIB
C:\PROGRAM FILES (X86)\WINDOWS KITS\10\INCLUDE\10.0.18362.0\UCRT\MATH.H
C:\PROGRAM FILES (X86)\WINDOWS KITS\10\INCLUDE\10.0.18362.0\UCRT\CORECRT_MATH.H
C:\PROGRAM FILES (X86)\WINDOWS KITS\10\INCLUDE\10.0.18362.0\UCRT\STDLIB.H
C:\PROGRAM FILES (X86)\WINDOWS KITS\10\INCLUDE\10.0.18362.0\UCRT\CORECRT_MALLOC.H
C:\PROGRAM FILES (X86)\WINDOWS KITS\10\INCLUDE\10.0.18362.0\UCRT\CORECRT_SEARCH.H
C:\PROGRAM FILES (X86)\WINDOWS KITS\10\INCLUDE\10.0.18362.0\UCRT\CORECRT_WSTDLIB.H
C:\PROGRAM FILES (X86)\MICROSOFT VISUAL STUDIO\2019\COMMUNITY\VC\TOOLS\MSVC\14.28.29333\INCLUDE\LIMITS.H
C:\PROGRAM FILES (X86)\MICROSOFT VISUAL STUDIO\2019\COMMUNITY\VC\TOOLS\MSVC\14.28.29333\INCLUDE\XTR1COMMON
C:\USERS\BENJA\DOCUMENTS\VISUAL STUDIO 2019\LIBRARIES\GLM\GLM\DETAIL\SETUP.HPP
C:\PROGRAM FILES (X86)\MICROSOFT VISUAL STUDIO\2019\COMMUNITY\VC\TOOLS\MSVC\14.28.29333\INCLUDE\CASSERT
C:\PROGRAM FILES (X86)\MICROSOFT VISUAL STUDIO\2019\COMMUNITY\VC\TOOLS\MSVC\14.28.29333\INCLUDE\CSTDDEF
C:\USERS\BENJA\DOCUMENTS\VISUAL STUDIO 2019\LIBRARIES\GLM\GLM\SIMD\PLATFORM.H
C:\PROGRAM FILES (X86)\MICROSOFT VISUAL STUDIO\2019\COMMUNITY\VC\TOOLS\MSVC\14.28.29333\INCLUDE\CSTDINT
C:\PROGRAM FILES (X86)\MICROSOFT VISUAL STUDIO\2019\COMMUNITY\VC\TOOLS\MSVC\14.28.29333\INCLUDE\TYPE_TRAITS
C:\PROGRAM FILES (X86)\MICROSOFT VISUAL STUDIO\2019\COMMUNITY\VC\TOOLS\MSVC\14.28.29333\INCLUDE\XSTDDEF
C:\PROGRAM FILES (X86)\MICROSOFT VISUAL STUDIO\2019\COMMUNITY\VC\TOOLS\MSVC\14.28.29333\INCLUDE\INITIALIZER_LIST
C:\PROGRAM FILES (X86)\MICROSOFT VISUAL STUDIO\2019\COMMUNITY\VC\TOOLS\MSVC\14.28.29333\INCLUDE\CLIMITS
C:\PROGRAM FILES (X86)\MICROSOFT VISUAL STUDIO\2019\COMMUNITY\VC\TOOLS\MSVC\14.28.29333\INCLUDE\CFLOAT
C:\PROGRAM FILES (X86)\MICROSOFT VISUAL STUDIO\2019\COMMUNITY\VC\TOOLS\MSVC\14.28.29333\INCLUDE\LIMITS
C:\PROGRAM FILES (X86)\MICROSOFT VISUAL STUDIO\2019\COMMUNITY\VC\TOOLS\MSVC\14.28.29333\INCLUDE\CWCHAR
C:\PROGRAM FILES (X86)\MICROSOFT VISUAL STUDIO\2019\COMMUNITY\VC\TOOLS\MSVC\14.28.29333\INCLUDE\CSTDIO
C:\PROGRAM FILES (X86)\WINDOWS KITS\10\INCLUDE\10.0.18362.0\UCRT\STDIO.H
C:\PROGRAM FILES (X86)\WINDOWS KITS\10\INCLUDE\10.0.18362.0\UCRT\CORECRT_WSTDIO.H
C:\PROGRAM FILES (X86)\WINDOWS KITS\10\INCLUDE\10.0.18362.0\UCRT\CORECRT_STDIO_CONFIG.H
C:\PROGRAM FILES (X86)\WINDOWS KITS\10\INCLUDE\10.0.18362.0\UCRT\WCHAR.H
C:\PROGRAM FILES (X86)\WINDOWS KITS\10\INCLUDE\10.0.18362.0\UCRT\CORECRT_WCONIO.H
C:\PROGRAM FILES (X86)\WINDOWS KITS\10\INCLUDE\10.0.18362.0\UCRT\CORECRT_WCTYPE.H
C:\PROGRAM FILES (X86)\WINDOWS KITS\10\INCLUDE\10.0.18362.0\UCRT\CORECRT_WDIRECT.H
C:\PROGRAM FILES (X86)\WINDOWS KITS\10\INCLUDE\10.0.18362.0\UCRT\CORECRT_WIO.H
C:\PROGRAM FILES (X86)\WINDOWS KITS\10\INCLUDE\10.0.18362.0\UCRT\CORECRT_SHARE.H
C:\PROGRAM FILES (X86)\WINDOWS KITS\10\INCLUDE\10.0.18362.0\UCRT\CORECRT_WPROCESS.H
C:\PROGRAM FILES (X86)\WINDOWS KITS\10\INCLUDE\10.0.18362.0\UCRT\CORECRT_WTIME.H
C:\PROGRAM FILES (X86)\WINDOWS KITS\10\INCLUDE\10.0.18362.0\UCRT\SYS\STAT.H
C:\PROGRAM FILES (X86)\WINDOWS KITS\10\INCLUDE\10.0.18362.0\UCRT\SYS\TYPES.H
C:\PROGRAM FILES (X86)\MICROSOFT VISUAL STUDIO\2019\COMMUNITY\VC\TOOLS\MSVC\14.28.29333\INCLUDE\INTRIN0.H
C:\PROGRAM FILES (X86)\MICROSOFT VISUAL STUDIO\2019\COMMUNITY\VC\TOOLS\MSVC\14.28.29333\INCLUDE\ISA_AVAILABILITY.H
C:\USERS\BENJA\DOCUMENTS\VISUAL STUDIO 2019\LIBRARIES\GLM\GLM\FWD.HPP
C:\USERS\BENJA\DOCUMENTS\VISUAL STUDIO 2019\LIBRARIES\GLM\GLM\DETAIL\QUALIFIER.HPP
C:\USERS\BENJA\DOCUMENTS\VISUAL STUDIO 2019\LIBRARIES\GLM\GLM\VEC2.HPP
C:\USERS\BENJA\DOCUMENTS\VISUAL STUDIO 2019\LIBRARIES\GLM\GLM\EXT\VECTOR_BOOL2.HPP
C:\USERS\BENJA\DOCUMENTS\VISUAL STUDIO 2019\LIBRARIES\GLM\GLM\DETAIL\TYPE_VEC2.HPP
C:\USERS\BENJA\DOCUMENTS\VISUAL STUDIO 2019\LIBRARIES\GLM\GLM\DETAIL\TYPE_VEC2.INL
C:\USERS\BENJA\DOCUMENTS\VISUAL STUDIO 2019\LIBRARIES\GLM\GLM\DETAIL\COMPUTE_VECTOR_RELATIONAL.HPP
C:\USERS\BENJA\DOCUMENTS\VISUAL STUDIO 2019\LIBRARIES\GLM\GLM\EXT\VECTOR_BOOL2_PRECISION.HPP
C:\USERS\BENJA\DOCUMENTS\VISUAL STUDIO 2019\LIBRARIES\GLM\GLM\EXT\VECTOR_FLOAT2.HPP
C:\USERS\BENJA\DOCUMENTS\VISUAL STUDIO 2019\LIBRARIES\GLM\GLM\EXT\VECTOR_FLOAT2_PRECISION.HPP
C:\USERS\BENJA\DOCUMENTS\VISUAL STUDIO 2019\LIBRARIES\GLM\GLM\EXT\VECTOR_DOUBLE2.HPP
C:\USERS\BENJA\DOCUMENTS\VISUAL STUDIO 2019\LIBRARIES\GLM\GLM\EXT\VECTOR_DOUBLE2_PRECISION.HPP
C:\USERS\BENJA\DOCUMENTS\VISUAL STUDIO 2019\LIBRARIES\GLM\GLM\EXT\VECTOR_INT2.HPP
C:\USERS\BENJA\DOCUMENTS\VISUAL STUDIO 2019\LIBRARIES\GLM\GLM\EXT\VECTOR_INT2_SIZED.HPP
C:\USERS\BENJA\DOCUMENTS\VISUAL STUDIO 2019\LIBRARIES\GLM\GLM\EXT\SCALAR_INT_SIZED.HPP
C:\USERS\BENJA\DOCUMENTS\VISUAL STUDIO 2019\LIBRARIES\GLM\GLM\EXT\VECTOR_UINT2.HPP
C:\USERS\BENJA\DOCUMENTS\VISUAL STUDIO 2019\LIBRARIES\GLM\GLM\EXT\VECTOR_UINT2_SIZED.HPP
C:\USERS\BENJA\DOCUMENTS\VISUAL STUDIO 2019\LIBRARIES\GLM\GLM\EXT\SCALAR_UINT_SIZED.HPP
C:\USERS\BENJA\DOCUMENTS\VISUAL STUDIO 2019\LIBRARIES\GLM\GLM\VEC3.HPP
C:\USERS\BENJA\DOCUMENTS\VISUAL STUDIO 2019\LIBRARIES\GLM\GLM\EXT\VECTOR_BOOL3.HPP
C:\USERS\BENJA\DOCUMENTS\VISUAL STUDIO 2019\LIBRARIES\GLM\GLM\DETAIL\TYPE_VEC3.HPP
C:\USERS\BENJA\DOCUMENTS\VISUAL STUDIO 2019\LIBRARIES\GLM\GLM\DETAIL\TYPE_VEC3.INL
C:\USERS\BENJA\DOCUMENTS\VISUAL STUDIO 2019\LIBRARIES\GLM\GLM\EXT\VECTOR_BOOL3_PRECISION.HPP
C:\USERS\BENJA\DOCUMENTS\VISUAL STUDIO 2019\LIBRARIES\GLM\GLM\EXT\VECTOR_FLOAT3.HPP
C:\USERS\BENJA\DOCUMENTS\VISUAL STUDIO 2019\LIBRARIES\GLM\GLM\EXT\VECTOR_FLOAT3_PRECISION.HPP
C:\USERS\BENJA\DOCUMENTS\VISUAL STUDIO 2019\LIBRARIES\GLM\GLM\EXT\VECTOR_DOUBLE3.HPP
C:\USERS\BENJA\DOCUMENTS\VISUAL STUDIO 2019\LIBRARIES\GLM\GLM\EXT\VECTOR_DOUBLE3_PRECISION.HPP
C:\USERS\BENJA\DOCUMENTS\VISUAL STUDIO 2019\LIBRARIES\GLM\GLM\EXT\VECTOR_INT3.HPP
C:\USERS\BENJA\DOCUMENTS\VISUAL STUDIO 2019\LIBRARIES\GLM\GLM\EXT\VECTOR_INT3_SIZED.HPP
C:\USERS\BENJA\DOCUMENTS\VISUAL STUDIO 2019\LIBRARIES\GLM\GLM\EXT\VECTOR_UINT3.HPP
C:\USERS\BENJA\DOCUMENTS\VISUAL STUDIO 2019\LIBRARIES\GLM\GLM\EXT\VECTOR_UINT3_SIZED.HPP
C:\USERS\BENJA\DOCUMENTS\VISUAL STUDIO 2019\LIBRARIES\GLM\GLM\VEC4.HPP
C:\USERS\BENJA\DOCUMENTS\VISUAL STUDIO 2019\LIBRARIES\GLM\GLM\EXT\VECTOR_BOOL4.HPP
C:\USERS\BENJA\DOCUMENTS\VISUAL STUDIO 2019\LIBRARIES\GLM\GLM\DETAIL\TYPE_VEC4.HPP
C:\USERS\BENJA\DOCUMENTS\VISUAL STUDIO 2019\LIBRARIES\GLM\GLM\DETAIL\TYPE_VEC4.INL
C:\USERS\BENJA\DOCUMENTS\VISUAL STUDIO 2019\LIBRARIES\GLM\GLM\EXT\VECTOR_BOOL4_PRECISION.HPP
C:\USERS\BENJA\DOCUMENTS\VISUAL STUDIO 2019\LIBRARIES\GLM\GLM\EXT\VECTOR_FLOAT4.HPP
C:\USERS\BENJA\DOCUMENTS\VISUAL STUDIO 2019\LIBRARIES\GLM\GLM\EXT\VECTOR_FLOAT4_PRECISION.HPP
C:\USERS\BENJA\DOCUMENTS\VISUAL STUDIO 2019\LIBRARIES\GLM\GLM\EXT\VECTOR_DOUBLE4.HPP
C:\USERS\BENJA\DOCUMENTS\VISUAL STUDIO 2019\LIBRARIES\GLM\GLM\EXT\VECTOR_DOUBLE4_PRECISION.HPP
C:\USERS\BENJA\DOCUMENTS\VISUAL STUDIO 2019\LIBRARIES\GLM\GLM\EXT\VECTOR_INT4.HPP
C:\USERS\BENJA\DOCUMENTS\VISUAL STUDIO 2019\LIBRARIES\GLM\GLM\EXT\VECTOR_INT4_SIZED.HPP
C:\USERS\BENJA\DOCUMENTS\VISUAL STUDIO 2019\LIBRARIES\GLM\GLM\EXT\VECTOR_UINT4.HPP
C:\USERS\BENJA\DOCUMENTS\VISUAL STUDIO 2019\LIBRARIES\GLM\GLM\EXT\VECTOR_UINT4_SIZED.HPP
C:\USERS\BENJA\DOCUMENTS\VISUAL STUDIO 2019\LIBRARIES\GLM\GLM\MAT2X2.HPP
C:\USERS\BENJA\DOCUMENTS\VISUAL STUDIO 2019\LIBRARIES\GLM\GLM\EXT\MATRIX_DOUBLE2X2.HPP
C:\USERS\BENJA\DOCUMENTS\VISUAL STUDIO 2019\LIBRARIES\GLM\GLM\DETAIL\TYPE_MAT2X2.HPP
C:\USERS\BENJA\DOCUMENTS\VISUAL STUDIO 2019\LIBRARIES\GLM\GLM\DETAIL\TYPE_MAT2X2.INL
C:\USERS\BENJA\DOCUMENTS\VISUAL STUDIO 2019\LIBRARIES\GLM\GLM\MATRIX.HPP
C:\USERS\BENJA\DOCUMENTS\VISUAL STUDIO 2019\LIBRARIES\GLM\GLM\MAT2X3.HPP
C:\USERS\BENJA\DOCUMENTS\VISUAL STUDIO 2019\LIBRARIES\GLM\GLM\EXT\MATRIX_DOUBLE2X3.HPP
C:\USERS\BENJA\DOCUMENTS\VISUAL STUDIO 2019\LIBRARIES\GLM\GLM\DETAIL\TYPE_MAT2X3.HPP
C:\USERS\BENJA\DOCUMENTS\VISUAL STUDIO 2019\LIBRARIES\GLM\GLM\DETAIL\TYPE_MAT2X3.INL
C:\USERS\BENJA\DOCUMENTS\VISUAL STUDIO 2019\LIBRARIES\GLM\GLM\EXT\MATRIX_DOUBLE2X3_PRECISION.HPP
C:\USERS\BENJA\DOCUMENTS\VISUAL STUDIO 2019\LIBRARIES\GLM\GLM\EXT\MATRIX_FLOAT2X3.HPP
C:\USERS\BENJA\DOCUMENTS\VISUAL STUDIO 2019\LIBRARIES\GLM\GLM\EXT\MATRIX_FLOAT2X3_PRECISION.HPP
C:\USERS\BENJA\DOCUMENTS\VISUAL STUDIO 2019\LIBRARIES\GLM\GLM\MAT2X4.HPP
C:\USERS\BENJA\DOCUMENTS\VISUAL STUDIO 2019\LIBRARIES\GLM\GLM\EXT\MATRIX_DOUBLE2X4.HPP
C:\USERS\BENJA\DOCUMENTS\VISUAL STUDIO 2019\LIBRARIES\GLM\GLM\DETAIL\TYPE_MAT2X4.HPP
C:\USERS\BENJA\DOCUMENTS\VISUAL STUDIO 2019\LIBRARIES\GLM\GLM\DETAIL\TYPE_MAT2X4.INL
C:\USERS\BENJA\DOCUMENTS\VISUAL STUDIO 2019\LIBRARIES\GLM\GLM\EXT\MATRIX_DOUBLE2X4_PRECISION.HPP
C:\USERS\BENJA\DOCUMENTS\VISUAL STUDIO 2019\LIBRARIES\GLM\GLM\EXT\MATRIX_FLOAT2X4.HPP
C:\USERS\BENJA\DOCUMENTS\VISUAL STUDIO 2019\LIBRARIES\GLM\GLM\EXT\MATRIX_FLOAT2X4_PRECISION.HPP
C:\USERS\BENJA\DOCUMENTS\VISUAL STUDIO 2019\LIBRARIES\GLM\GLM\MAT3X2.HPP
C:\USERS\BENJA\DOCUMENTS\VISUAL STUDIO 2019\LIBRARIES\GLM\GLM\EXT\MATRIX_DOUBLE3X2.HPP
C:\USERS\BENJA\DOCUMENTS\VISUAL STUDIO 2019\LIBRARIES\GLM\GLM\DETAIL\TYPE_MAT3X2.HPP
C:\USERS\BENJA\DOCUMENTS\VISUAL STUDIO 2019\LIBRARIES\GLM\GLM\DETAIL\TYPE_MAT3X2.INL
C:\USERS\BENJA\DOCUMENTS\VISUAL STUDIO 2019\LIBRARIES\GLM\GLM\EXT\MATRIX_DOUBLE3X2_PRECISION.HPP
C:\USERS\BENJA\DOCUMENTS\VISUAL STUDIO 2019\LIBRARIES\GLM\GLM\EXT\MATRIX_FLOAT3X2.HPP
C:\USERS\BENJA\DOCUMENTS\VISUAL STUDIO 2019\LIBRARIES\GLM\GLM\EXT\MATRIX_FLOAT3X2_PRECISION.HPP
C:\USERS\BENJA\DOCUMENTS\VISUAL STUDIO 2019\LIBRARIES\GLM\GLM\MAT3X3.HPP
C:\USERS\BENJA\DOCUMENTS\VISUAL STUDIO 2019\LIBRARIES\GLM\GLM\EXT\MATRIX_DOUBLE3X3.HPP
C:\USERS\BENJA\DOCUMENTS\VISUAL STUDIO 2019\LIBRARIES\GLM\GLM\DETAIL\TYPE_MAT3X3.HPP
C:\USERS\BENJA\DOCUMENTS\VISUAL STUDIO 2019\LIBRARIES\GLM\GLM\DETAIL\TYPE_MAT3X3.INL
C:\USERS\BENJA\DOCUMENTS\VISUAL STUDIO 2019\LIBRARIES\GLM\GLM\EXT\MATRIX_DOUBLE3X3_PRECISION.HPP
C:\USERS\BENJA\DOCUMENTS\VISUAL STUDIO 2019\LIBRARIES\GLM\GLM\EXT\MATRIX_FLOAT3X3.HPP
C:\USERS\BENJA\DOCUMENTS\VISUAL STUDIO 2019\LIBRARIES\GLM\GLM\EXT\MATRIX_FLOAT3X3_PRECISION.HPP
C:\USERS\BENJA\DOCUMENTS\VISUAL STUDIO 2019\LIBRARIES\GLM\GLM\MAT3X4.HPP
C:\USERS\BENJA\DOCUMENTS\VISUAL STUDIO 2019\LIBRARIES\GLM\GLM\EXT\MATRIX_DOUBLE3X4.HPP
C:\USERS\BENJA\DOCUMENTS\VISUAL STUDIO 2019\LIBRARIES\GLM\GLM\DETAIL\TYPE_MAT3X4.HPP
C:\USERS\BENJA\DOCUMENTS\VISUAL STUDIO 2019\LIBRARIES\GLM\GLM\DETAIL\TYPE_MAT3X4.INL
C:\USERS\BENJA\DOCUMENTS\VISUAL STUDIO 2019\LIBRARIES\GLM\GLM\EXT\MATRIX_DOUBLE3X4_PRECISION.HPP
C:\USERS\BENJA\DOCUMENTS\VISUAL STUDIO 2019\LIBRARIES\GLM\GLM\EXT\MATRIX_FLOAT3X4.HPP
C:\USERS\BENJA\DOCUMENTS\VISUAL STUDIO 2019\LIBRARIES\GLM\GLM\EXT\MATRIX_FLOAT3X4_PRECISION.HPP
C:\USERS\BENJA\DOCUMENTS\VISUAL STUDIO 2019\LIBRARIES\GLM\GLM\MAT4X2.HPP
C:\USERS\BENJA\DOCUMENTS\VISUAL STUDIO 2019\LIBRARIES\GLM\GLM\EXT\MATRIX_DOUBLE4X2.HPP
C:\USERS\BENJA\DOCUMENTS\VISUAL STUDIO 2019\LIBRARIES\GLM\GLM\DETAIL\TYPE_MAT4X2.HPP
C:\USERS\BENJA\DOCUMENTS\VISUAL STUDIO 2019\LIBRARIES\GLM\GLM\DETAIL\TYPE_MAT4X2.INL
C:\USERS\BENJA\DOCUMENTS\VISUAL STUDIO 2019\LIBRARIES\GLM\GLM\EXT\MATRIX_DOUBLE4X2_PRECISION.HPP
C:\USERS\BENJA\DOCUMENTS\VISUAL STUDIO 2019\LIBRARIES\GLM\GLM\EXT\MATRIX_FLOAT4X2.HPP
C:\USERS\BENJA\DOCUMENTS\VISUAL STUDIO 2019\LIBRARIES\GLM\GLM\EXT\MATRIX_FLOAT4X2_PRECISION.HPP
C:\USERS\BENJA\DOCUMENTS\VISUAL STUDIO 2019\LIBRARIES\GLM\GLM\MAT4X3.HPP
C:\USERS\BENJA\DOCUMENTS\VISUAL STUDIO 2019\LIBRARIES\GLM\GLM\EXT\MATRIX_DOUBLE4X3.HPP
C:\USERS\BENJA\DOCUMENTS\VISUAL STUDIO 2019\LIBRARIES\GLM\GLM\DETAIL\TYPE_MAT4X3.HPP
C:\USERS\BENJA\DOCUMENTS\VISUAL STUDIO 2019\LIBRARIES\GLM\GLM\DETAIL\TYPE_MAT4X3.INL
C:\USERS\BENJA\DOCUMENTS\VISUAL STUDIO 2019\LIBRARIES\GLM\GLM\EXT\MATRIX_DOUBLE4X3_PRECISION.HPP
C:\USERS\BENJA\DOCUMENTS\VISUAL STUDIO 2019\LIBRARIES\GLM\GLM\EXT\MATRIX_FLOAT4X3.HPP
C:\USERS\BENJA\DOCUMENTS\VISUAL STUDIO 2019\LIBRARIES\GLM\GLM\EXT\MATRIX_FLOAT4X3_PRECISION.HPP
C:\USERS\BENJA\DOCUMENTS\VISUAL STUDIO 2019\LIBRARIES\GLM\GLM\MAT4X4.HPP
C:\USERS\BENJA\DOCUMENTS\VISUAL STUDIO 2019\LIBRARIES\GLM\GLM\EXT\MATRIX_DOUBLE4X4.HPP
C:\USERS\BENJA\DOCUMENTS\VISUAL STUDIO 2019\LIBRARIES\GLM\GLM\DETAIL\TYPE_MAT4X4.HPP
C:\USERS\BENJA\DOCUMENTS\VISUAL STUDIO 2019\LIBRARIES\GLM\GLM\DETAIL\TYPE_MAT4X4.INL
C:\USERS\BENJA\DOCUMENTS\VISUAL STUDIO 2019\LIBRARIES\GLM\GLM\EXT\MATRIX_DOUBLE4X4_PRECISION.HPP
C:\USERS\BENJA\DOCUMENTS\VISUAL STUDIO 2019\LIBRARIES\GLM\GLM\EXT\MATRIX_FLOAT4X4.HPP
C:\USERS\BENJA\DOCUMENTS\VISUAL STUDIO 2019\LIBRARIES\GLM\GLM\EXT\MATRIX_FLOAT4X4_PRECISION.HPP
C:\USERS\BENJA\DOCUMENTS\VISUAL STUDIO 2019\LIBRARIES\GLM\GLM\DETAIL\FUNC_MATRIX.INL
C:\USERS\BENJA\DOCUMENTS\VISUAL STUDIO 2019\LIBRARIES\GLM\GLM\GEOMETRIC.HPP
C:\USERS\BENJA\DOCUMENTS\VISUAL STUDIO 2019\LIBRARIES\GLM\GLM\DETAIL\FUNC_GEOMETRIC.INL
C:\USERS\BENJA\DOCUMENTS\VISUAL STUDIO 2019\LIBRARIES\GLM\GLM\EXPONENTIAL.HPP
C:\USERS\BENJA\DOCUMENTS\VISUAL STUDIO 2019\LIBRARIES\GLM\GLM\DETAIL\TYPE_VEC1.HPP
C:\USERS\BENJA\DOCUMENTS\VISUAL STUDIO 2019\LIBRARIES\GLM\GLM\DETAIL\TYPE_VEC1.INL
C:\USERS\BENJA\DOCUMENTS\VISUAL STUDIO 2019\LIBRARIES\GLM\GLM\DETAIL\FUNC_EXPONENTIAL.INL
C:\USERS\BENJA\DOCUMENTS\VISUAL STUDIO 2019\LIBRARIES\GLM\GLM\VECTOR_RELATIONAL.HPP
C:\USERS\BENJA\DOCUMENTS\VISUAL STUDIO 2019\LIBRARIES\GLM\GLM\DETAIL\FUNC_VECTOR_RELATIONAL.INL
C:\USERS\BENJA\DOCUMENTS\VISUAL STUDIO 2019\LIBRARIES\GLM\GLM\DETAIL\_VECTORIZE.HPP
C:\USERS\BENJA\DOCUMENTS\VISUAL STUDIO 2019\LIBRARIES\GLM\GLM\COMMON.HPP
C:\USERS\BENJA\DOCUMENTS\VISUAL STUDIO 2019\LIBRARIES\GLM\GLM\DETAIL\FUNC_COMMON.INL
C:\USERS\BENJA\DOCUMENTS\VISUAL STUDIO 2019\LIBRARIES\GLM\GLM\DETAIL\COMPUTE_COMMON.HPP
C:\USERS\BENJA\DOCUMENTS\VISUAL STUDIO 2019\LIBRARIES\GLM\GLM\EXT\MATRIX_DOUBLE2X2_PRECISION.HPP
C:\USERS\BENJA\DOCUMENTS\VISUAL STUDIO 2019\LIBRARIES\GLM\GLM\EXT\MATRIX_FLOAT2X2.HPP
C:\USERS\BENJA\DOCUMENTS\VISUAL STUDIO 2019\LIBRARIES\GLM\GLM\EXT\MATRIX_FLOAT2X2_PRECISION.HPP
C:\USERS\BENJA\DOCUMENTS\VISUAL STUDIO 2019\LIBRARIES\GLM\GLM\TRIGONOMETRIC.HPP
C:\USERS\BENJA\DOCUMENTS\VISUAL STUDIO 2019\LIBRARIES\GLM\GLM\DETAIL\FUNC_TRIGONOMETRIC.INL
C:\USERS\BENJA\DOCUMENTS\VISUAL STUDIO 2019\LIBRARIES\GLM\GLM\PACKING.HPP
C:\USERS\BENJA\DOCUMENTS\VISUAL STUDIO 2019\LIBRARIES\GLM\GLM\DETAIL\FUNC_PACKING.INL
C:\USERS\BENJA\DOCUMENTS\VISUAL STUDIO 2019\LIBRARIES\GLM\GLM\DETAIL\TYPE_HALF.HPP
C:\USERS\BENJA\DOCUMENTS\VISUAL STUDIO 2019\LIBRARIES\GLM\GLM\DETAIL\TYPE_HALF.INL
C:\USERS\BENJA\DOCUMENTS\VISUAL STUDIO 2019\LIBRARIES\GLM\GLM\INTEGER.HPP
C:\USERS\BENJA\DOCUMENTS\VISUAL STUDIO 2019\LIBRARIES\GLM\GLM\DETAIL\FUNC_INTEGER.INL
C:\PROGRAM FILES (X86)\MICROSOFT VISUAL STUDIO\2019\COMMUNITY\VC\TOOLS\MSVC\14.28.29333\INCLUDE\INTRIN.H
C:\PROGRAM FILES (X86)\MICROSOFT VISUAL STUDIO\2019\COMMUNITY\VC\TOOLS\MSVC\14.28.29333\INCLUDE\SETJMP.H
C:\PROGRAM FILES (X86)\MICROSOFT VISUAL STUDIO\2019\COMMUNITY\VC\TOOLS\MSVC\14.28.29333\INCLUDE\IMMINTRIN.H
C:\PROGRAM FILES (X86)\MICROSOFT VISUAL STUDIO\2019\COMMUNITY\VC\TOOLS\MSVC\14.28.29333\INCLUDE\WMMINTRIN.H
C:\PROGRAM FILES (X86)\MICROSOFT VISUAL STUDIO\2019\COMMUNITY\VC\TOOLS\MSVC\14.28.29333\INCLUDE\NMMINTRIN.H
C:\PROGRAM FILES (X86)\MICROSOFT VISUAL STUDIO\2019\COMMUNITY\VC\TOOLS\MSVC\14.28.29333\INCLUDE\SMMINTRIN.H
C:\PROGRAM FILES (X86)\MICROSOFT VISUAL STUDIO\2019\COMMUNITY\VC\TOOLS\MSVC\14.28.29333\INCLUDE\TMMINTRIN.H
C:\PROGRAM FILES (X86)\MICROSOFT VISUAL STUDIO\2019\COMMUNITY\VC\TOOLS\MSVC\14.28.29333\INCLUDE\PMMINTRIN.H
C:\PROGRAM FILES (X86)\MICROSOFT VISUAL STUDIO\2019\COMMUNITY\VC\TOOLS\MSVC\14.28.29333\INCLUDE\EMMINTRIN.H
C:\PROGRAM FILES (X86)\MICROSOFT VISUAL STUDIO\2019\COMMUNITY\VC\TOOLS\MSVC\14.28.29333\INCLUDE\XMMINTRIN.H
C:\PROGRAM FILES (X86)\MICROSOFT VISUAL STUDIO\2019\COMMUNITY\VC\TOOLS\MSVC\14.28.29333\INCLUDE\MMINTRIN.H
C:\PROGRAM FILES (X86)\WINDOWS KITS\10\INCLUDE\10.0.18362.0\UCRT\MALLOC.H
C:\PROGRAM FILES (X86)\MICROSOFT VISUAL STUDIO\2019\COMMUNITY\VC\TOOLS\MSVC\14.28.29333\INCLUDE\ZMMINTRIN.H
C:\PROGRAM FILES (X86)\MICROSOFT VISUAL STUDIO\2019\COMMUNITY\VC\TOOLS\MSVC\14.28.29333\INCLUDE\AMMINTRIN.H
C:\USERS\BENJA\DOCUMENTS\VISUAL STUDIO 2019\LIBRARIES\GLM\GLM\GTC\MATRIX_TRANSFORM.HPP
C:\USERS\BENJA\DOCUMENTS\VISUAL STUDIO 2019\LIBRARIES\GLM\GLM\EXT\MATRIX_PROJECTION.HPP
C:\USERS\BENJA\DOCUMENTS\VISUAL STUDIO 2019\LIBRARIES\GLM\GLM\GTC\CONSTANTS.HPP
C:\USERS\BENJA\DOCUMENTS\VISUAL STUDIO 2019\LIBRARIES\GLM\GLM\EXT\SCALAR_CONSTANTS.HPP
C:\USERS\BENJA\DOCUMENTS\VISUAL STUDIO 2019\LIBRARIES\GLM\GLM\EXT\SCALAR_CONSTANTS.INL
C:\USERS\BENJA\DOCUMENTS\VISUAL STUDIO 2019\LIBRARIES\GLM\GLM\GTC\CONSTANTS.INL
C:\USERS\BENJA\DOCUMENTS\VISUAL STUDIO 2019\LIBRARIES\GLM\GLM\EXT\MATRIX_PROJECTION.INL
C:\USERS\BENJA\DOCUMENTS\VISUAL STUDIO 2019\LIBRARIES\GLM\GLM\EXT\MATRIX_CLIP_SPACE.HPP
C:\USERS\BENJA\DOCUMENTS\VISUAL STUDIO 2019\LIBRARIES\GLM\GLM\EXT\MATRIX_CLIP_SPACE.INL
C:\USERS\BENJA\DOCUMENTS\VISUAL STUDIO 2019\LIBRARIES\GLM\GLM\EXT\MATRIX_TRANSFORM.HPP
C:\USERS\BENJA\DOCUMENTS\VISUAL STUDIO 2019\LIBRARIES\GLM\GLM\EXT\MATRIX_TRANSFORM.INL
C:\USERS\BENJA\DOCUMENTS\VISUAL STUDIO 2019\LIBRARIES\GLM\GLM\GTC\MATRIX_TRANSFORM.INL
C:\USERS\BENJA\DOCUMENTS\VISUAL STUDIO 2019\LIBRARIES\GLM\GLM\GTX\HASH.HPP
C:\PROGRAM FILES (X86)\MICROSOFT VISUAL STUDIO\2019\COMMUNITY\VC\TOOLS\MSVC\14.28.29333\INCLUDE\FUNCTIONAL
C:\PROGRAM FILES (X86)\MICROSOFT VISUAL STUDIO\2019\COMMUNITY\VC\TOOLS\MSVC\14.28.29333\INCLUDE\EXCEPTION
C:\PROGRAM FILES (X86)\MICROSOFT VISUAL STUDIO\2019\COMMUNITY\VC\TOOLS\MSVC\14.28.29333\INCLUDE\VCRUNTIME_EXCEPTION.H
C:\PROGRAM FILES (X86)\MICROSOFT VISUAL STUDIO\2019\COMMUNITY\VC\TOOLS\MSVC\14.28.29333\INCLUDE\EH.H
C:\PROGRAM FILES (X86)\WINDOWS KITS\10\INCLUDE\10.0.18362.0\UCRT\CORECRT_TERMINATE.H
C:\PROGRAM FILES (X86)\MICROSOFT VISUAL STUDIO\2019\COMMUNITY\VC\TOOLS\MSVC\14.28.29333\INCLUDE\TUPLE
C:\PROGRAM FILES (X86)\MICROSOFT VISUAL STUDIO\2019\COMMUNITY\VC\TOOLS\MSVC\14.28.29333\INCLUDE\NEW
C:\PROGRAM FILES (X86)\MICROSOFT VISUAL STUDIO\2019\COMMUNITY\VC\TOOLS\MSVC\14.28.29333\INCLUDE\XUTILITY
C:\PROGRAM FILES (X86)\MICROSOFT VISUAL STUDIO\2019\COMMUNITY\VC\TOOLS\MSVC\14.28.29333\INCLUDE\CSTRING
C:\PROGRAM FILES (X86)\MICROSOFT VISUAL STUDIO\2019\COMMUNITY\VC\TOOLS\MSVC\14.28.29333\INCLUDE\UTILITY
C:\PROGRAM FILES (X86)\MICROSOFT VISUAL STUDIO\2019\COMMUNITY\VC\TOOLS\MSVC\14.28.29333\INCLUDE\TYPEINFO
C:\PROGRAM FILES (X86)\MICROSOFT VISUAL STUDIO\2019\COMMUNITY\VC\TOOLS\MSVC\14.28.29333\INCLUDE\VCRUNTIME_TYPEINFO.H
C:\PROGRAM FILES (X86)\MICROSOFT VISUAL STUDIO\2019\COMMUNITY\VC\TOOLS\MSVC\14.28.29333\INCLUDE\XMEMORY
C:\PROGRAM FILES (X86)\MICROSOFT VISUAL STUDIO\2019\COMMUNITY\VC\TOOLS\MSVC\14.28.29333\INCLUDE\XATOMIC.H
C:\PROGRAM FILES (X86)\MICROSOFT VISUAL STUDIO\2019\COMMUNITY\VC\TOOLS\MSVC\14.28.29333\INCLUDE\MEMORY
C:\PROGRAM FILES (X86)\MICROSOFT VISUAL STUDIO\2019\COMMUNITY\VC\TOOLS\MSVC\14.28.29333\INCLUDE\IOSFWD
C:\PROGRAM FILES (X86)\MICROSOFT VISUAL STUDIO\2019\COMMUNITY\VC\TOOLS\MSVC\14.28.29333\INCLUDE\UNORDERED_MAP
C:\PROGRAM FILES (X86)\MICROSOFT VISUAL STUDIO\2019\COMMUNITY\VC\TOOLS\MSVC\14.28.29333\INCLUDE\XHASH
C:\PROGRAM FILES (X86)\MICROSOFT VISUAL STUDIO\2019\COMMUNITY\VC\TOOLS\MSVC\14.28.29333\INCLUDE\LIST
C:\PROGRAM FILES (X86)\MICROSOFT VISUAL STUDIO\2019\COMMUNITY\VC\TOOLS\MSVC\14.28.29333\INCLUDE\XPOLYMORPHIC_ALLOCATOR.H
C:\PROGRAM FILES (X86)\MICROSOFT VISUAL STUDIO\2019\COMMUNITY\VC\TOOLS\MSVC\14.28.29333\INCLUDE\VECTOR
C:\PROGRAM FILES (X86)\MICROSOFT VISUAL STUDIO\2019\COMMUNITY\VC\TOOLS\MSVC\14.28.29333\INCLUDE\XBIT_OPS.H
C:\PROGRAM FILES (X86)\MICROSOFT VISUAL STUDIO\2019\COMMUNITY\VC\TOOLS\MSVC\14.28.29333\INCLUDE\XSTRING
C:\PROGRAM FILES (X86)\MICROSOFT VISUAL STUDIO\2019\COMMUNITY\VC\TOOLS\MSVC\14.28.29333\INCLUDE\XNODE_HANDLE.H
C:\USERS\BENJA\DOCUMENTS\VISUAL STUDIO 2019\LIBRARIES\GLM\GLM\GTC\VEC1.HPP
C:\USERS\BENJA\DOCUMENTS\VISUAL STUDIO 2019\LIBRARIES\GLM\GLM\EXT\VECTOR_BOOL1.HPP
C:\USERS\BENJA\DOCUMENTS\VISUAL STUDIO 2019\LIBRARIES\GLM\GLM\EXT\VECTOR_BOOL1_PRECISION.HPP
C:\USERS\BENJA\DOCUMENTS\VISUAL STUDIO 2019\LIBRARIES\GLM\GLM\EXT\VECTOR_FLOAT1.HPP
C:\USERS\BENJA\DOCUMENTS\VISUAL STUDIO 2019\LIBRARIES\GLM\GLM\EXT\VECTOR_FLOAT1_PRECISION.HPP
C:\USERS\BENJA\DOCUMENTS\VISUAL STUDIO 2019\LIBRARIES\GLM\GLM\EXT\VECTOR_DOUBLE1.HPP
C:\USERS\BENJA\DOCUMENTS\VISUAL STUDIO 2019\LIBRARIES\GLM\GLM\EXT\VECTOR_DOUBLE1_PRECISION.HPP
C:\USERS\BENJA\DOCUMENTS\VISUAL STUDIO 2019\LIBRARIES\GLM\GLM\EXT\VECTOR_INT1.HPP
C:\USERS\BENJA\DOCUMENTS\VISUAL STUDIO 2019\LIBRARIES\GLM\GLM\EXT\VECTOR_INT1_SIZED.HPP
C:\USERS\BENJA\DOCUMENTS\VISUAL STUDIO 2019\LIBRARIES\GLM\GLM\EXT\VECTOR_UINT1.HPP
C:\USERS\BENJA\DOCUMENTS\VISUAL STUDIO 2019\LIBRARIES\GLM\GLM\EXT\VECTOR_UINT1_SIZED.HPP
C:\USERS\BENJA\DOCUMENTS\VISUAL STUDIO 2019\LIBRARIES\GLM\GLM\GTC\QUATERNION.HPP
C:\USERS\BENJA\DOCUMENTS\VISUAL STUDIO 2019\LIBRARIES\GLM\GLM\EXT\VECTOR_RELATIONAL.HPP
C:\USERS\BENJA\DOCUMENTS\VISUAL STUDIO 2019\LIBRARIES\GLM\GLM\EXT\VECTOR_RELATIONAL.INL
C:\USERS\BENJA\DOCUMENTS\VISUAL STUDIO 2019\LIBRARIES\GLM\GLM\DETAIL\TYPE_FLOAT.HPP
C:\USERS\BENJA\DOCUMENTS\VISUAL STUDIO 2019\LIBRARIES\GLM\GLM\EXT\QUATERNION_COMMON.HPP
C:\USERS\BENJA\DOCUMENTS\VISUAL STUDIO 2019\LIBRARIES\GLM\GLM\EXT\QUATERNION_GEOMETRIC.HPP
C:\USERS\BENJA\DOCUMENTS\VISUAL STUDIO 2019\LIBRARIES\GLM\GLM\EXT\QUATERNION_GEOMETRIC.INL
C:\USERS\BENJA\DOCUMENTS\VISUAL STUDIO 2019\LIBRARIES\GLM\GLM\EXT\QUATERNION_COMMON.INL
C:\USERS\BENJA\DOCUMENTS\VISUAL STUDIO 2019\LIBRARIES\GLM\GLM\EXT\QUATERNION_FLOAT.HPP
C:\USERS\BENJA\DOCUMENTS\VISUAL STUDIO 2019\LIBRARIES\GLM\GLM\DETAIL\TYPE_QUAT.HPP
C:\USERS\BENJA\DOCUMENTS\VISUAL STUDIO 2019\LIBRARIES\GLM\GLM\EXT\QUATERNION_RELATIONAL.HPP
C:\USERS\BENJA\DOCUMENTS\VISUAL STUDIO 2019\LIBRARIES\GLM\GLM\EXT\QUATERNION_RELATIONAL.INL
C:\USERS\BENJA\DOCUMENTS\VISUAL STUDIO 2019\LIBRARIES\GLM\GLM\DETAIL\TYPE_QUAT.INL
C:\USERS\BENJA\DOCUMENTS\VISUAL STUDIO 2019\LIBRARIES\GLM\GLM\EXT\QUATERNION_FLOAT_PRECISION.HPP
C:\USERS\BENJA\DOCUMENTS\VISUAL STUDIO 2019\LIBRARIES\GLM\GLM\EXT\QUATERNION_DOUBLE.HPP
C:\USERS\BENJA\DOCUMENTS\VISUAL STUDIO 2019\LIBRARIES\GLM\GLM\EXT\QUATERNION_DOUBLE_PRECISION.HPP
C:\USERS\BENJA\DOCUMENTS\VISUAL STUDIO 2019\LIBRARIES\GLM\GLM\EXT\QUATERNION_TRIGONOMETRIC.HPP
C:\USERS\BENJA\DOCUMENTS\VISUAL STUDIO 2019\LIBRARIES\GLM\GLM\EXT\QUATERNION_TRIGONOMETRIC.INL
C:\USERS\BENJA\DOCUMENTS\VISUAL STUDIO 2019\LIBRARIES\GLM\GLM\EXT\QUATERNION_TRANSFORM.HPP
C:\USERS\BENJA\DOCUMENTS\VISUAL STUDIO 2019\LIBRARIES\GLM\GLM\EXT\QUATERNION_TRANSFORM.INL
C:\USERS\BENJA\DOCUMENTS\VISUAL STUDIO 2019\LIBRARIES\GLM\GLM\GTC\QUATERNION.INL
C:\USERS\BENJA\DOCUMENTS\VISUAL STUDIO 2019\LIBRARIES\GLM\GLM\GTC\EPSILON.HPP
C:\USERS\BENJA\DOCUMENTS\VISUAL STUDIO 2019\LIBRARIES\GLM\GLM\GTC\EPSILON.INL
C:\USERS\BENJA\DOCUMENTS\VISUAL STUDIO 2019\LIBRARIES\GLM\GLM\GTX\DUAL_QUATERNION.HPP
C:\USERS\BENJA\DOCUMENTS\VISUAL STUDIO 2019\LIBRARIES\GLM\GLM\GTX\DUAL_QUATERNION.INL
C:\USERS\BENJA\DOCUMENTS\VISUAL STUDIO 2019\LIBRARIES\GLM\GLM\GTX\HASH.INL
C:\PROGRAM FILES (X86)\MICROSOFT VISUAL STUDIO\2019\COMMUNITY\VC\TOOLS\MSVC\14.28.29333\INCLUDE\CHRONO
C:\PROGRAM FILES (X86)\MICROSOFT VISUAL STUDIO\2019\COMMUNITY\VC\TOOLS\MSVC\14.28.29333\INCLUDE\RATIO
C:\PROGRAM FILES (X86)\WINDOWS KITS\10\INCLUDE\10.0.18362.0\UCRT\TIME.H
C:\PROGRAM FILES (X86)\MICROSOFT VISUAL STUDIO\2019\COMMUNITY\VC\TOOLS\MSVC\14.28.29333\INCLUDE\XTIMEC.H
C:\USERS\BENJA\DOCUMENTS\VISUAL STUDIO 2019\LIBRARIES\STB-MASTER\STB_IMAGE.H
C:\USERS\BENJA\DOCUMENTS\VISUAL STUDIO 2019\LIBRARIES\TINYOBJLOADER-MASTER\TINY_OBJ_LOADER.H
C:\PROGRAM FILES (X86)\MICROSOFT VISUAL STUDIO\2019\COMMUNITY\VC\TOOLS\MSVC\14.28.29333\INCLUDE\MAP
C:\PROGRAM FILES (X86)\MICROSOFT VISUAL STUDIO\2019\COMMUNITY\VC\TOOLS\MSVC\14.28.29333\INCLUDE\XTREE
C:\PROGRAM FILES (X86)\MICROSOFT VISUAL STUDIO\2019\COMMUNITY\VC\TOOLS\MSVC\14.28.29333\INCLUDE\STRING
C:\PROGRAM FILES (X86)\MICROSOFT VISUAL STUDIO\2019\COMMUNITY\VC\TOOLS\MSVC\14.28.29333\INCLUDE\CCTYPE
C:\PROGRAM FILES (X86)\WINDOWS KITS\10\INCLUDE\10.0.18362.0\UCRT\CTYPE.H
C:\PROGRAM FILES (X86)\MICROSOFT VISUAL STUDIO\2019\COMMUNITY\VC\TOOLS\MSVC\14.28.29333\INCLUDE\FSTREAM
C:\PROGRAM FILES (X86)\MICROSOFT VISUAL STUDIO\2019\COMMUNITY\VC\TOOLS\MSVC\14.28.29333\INCLUDE\ISTREAM
C:\PROGRAM FILES (X86)\MICROSOFT VISUAL STUDIO\2019\COMMUNITY\VC\TOOLS\MSVC\14.28.29333\INCLUDE\OSTREAM
C:\PROGRAM FILES (X86)\MICROSOFT VISUAL STUDIO\2019\COMMUNITY\VC\TOOLS\MSVC\14.28.29333\INCLUDE\IOS
C:\PROGRAM FILES (X86)\MICROSOFT VISUAL STUDIO\2019\COMMUNITY\VC\TOOLS\MSVC\14.28.29333\INCLUDE\XLOCNUM
C:\PROGRAM FILES (X86)\MICROSOFT VISUAL STUDIO\2019\COMMUNITY\VC\TOOLS\MSVC\14.28.29333\INCLUDE\ITERATOR
C:\PROGRAM FILES (X86)\MICROSOFT VISUAL STUDIO\2019\COMMUNITY\VC\TOOLS\MSVC\14.28.29333\INCLUDE\STREAMBUF
C:\PROGRAM FILES (X86)\MICROSOFT VISUAL STUDIO\2019\COMMUNITY\VC\TOOLS\MSVC\14.28.29333\INCLUDE\XIOSBASE
C:\PROGRAM FILES (X86)\WINDOWS KITS\10\INCLUDE\10.0.18362.0\UCRT\SHARE.H
C:\PROGRAM FILES (X86)\MICROSOFT VISUAL STUDIO\2019\COMMUNITY\VC\TOOLS\MSVC\14.28.29333\INCLUDE\SYSTEM_ERROR
C:\PROGRAM FILES (X86)\MICROSOFT VISUAL STUDIO\2019\COMMUNITY\VC\TOOLS\MSVC\14.28.29333\INCLUDE\__MSVC_SYSTEM_ERROR_ABI.HPP
C:\PROGRAM FILES (X86)\MICROSOFT VISUAL STUDIO\2019\COMMUNITY\VC\TOOLS\MSVC\14.28.29333\INCLUDE\CERRNO
C:\PROGRAM FILES (X86)\MICROSOFT VISUAL STUDIO\2019\COMMUNITY\VC\TOOLS\MSVC\14.28.29333\INCLUDE\STDEXCEPT
C:\PROGRAM FILES (X86)\MICROSOFT VISUAL STUDIO\2019\COMMUNITY\VC\TOOLS\MSVC\14.28.29333\INCLUDE\XCALL_ONCE.H
C:\PROGRAM FILES (X86)\MICROSOFT VISUAL STUDIO\2019\COMMUNITY\VC\TOOLS\MSVC\14.28.29333\INCLUDE\XERRC.H
C:\PROGRAM FILES (X86)\MICROSOFT VISUAL STUDIO\2019\COMMUNITY\VC\TOOLS\MSVC\14.28.29333\INCLUDE\ATOMIC
C:\PROGRAM FILES (X86)\MICROSOFT VISUAL STUDIO\2019\COMMUNITY\VC\TOOLS\MSVC\14.28.29333\INCLUDE\XTHREADS.H
C:\PROGRAM FILES (X86)\MICROSOFT VISUAL STUDIO\2019\COMMUNITY\VC\TOOLS\MSVC\14.28.29333\INCLUDE\XLOCALE
C:\PROGRAM FILES (X86)\MICROSOFT VISUAL STUDIO\2019\COMMUNITY\VC\TOOLS\MSVC\14.28.29333\INCLUDE\XFACET
C:\PROGRAM FILES (X86)\MICROSOFT VISUAL STUDIO\2019\COMMUNITY\VC\TOOLS\MSVC\14.28.29333\INCLUDE\XLOCINFO
C:\PROGRAM FILES (X86)\MICROSOFT VISUAL STUDIO\2019\COMMUNITY\VC\TOOLS\MSVC\14.28.29333\INCLUDE\XLOCINFO.H
C:\PROGRAM FILES (X86)\WINDOWS KITS\10\INCLUDE\10.0.18362.0\UCRT\LOCALE.H
C:\PROGRAM FILES (X86)\MICROSOFT VISUAL STUDIO\2019\COMMUNITY\VC\TOOLS\MSVC\14.28.29333\INCLUDE\SSTREAM
C:\PROGRAM FILES (X86)\MICROSOFT VISUAL STUDIO\2019\COMMUNITY\VC\TOOLS\MSVC\14.28.29333\INCLUDE\IOSTREAM
C:\PROGRAM FILES (X86)\MICROSOFT VISUAL STUDIO\2019\COMMUNITY\VC\TOOLS\MSVC\14.28.29333\INCLUDE\OPTIONAL
C:\PROGRAM FILES (X86)\MICROSOFT VISUAL STUDIO\2019\COMMUNITY\VC\TOOLS\MSVC\14.28.29333\INCLUDE\XSMF_CONTROL.H
C:\PROGRAM FILES (X86)\MICROSOFT VISUAL STUDIO\2019\COMMUNITY\VC\TOOLS\MSVC\14.28.29333\INCLUDE\SET
C:\PROGRAM FILES (X86)\MICROSOFT VISUAL STUDIO\2019\COMMUNITY\VC\TOOLS\MSVC\14.28.29333\INCLUDE\ARRAY
C:\PROGRAM FILES (X86)\MICROSOFT VISUAL STUDIO\2019\COMMUNITY\VC\TOOLS\MSVC\14.28.29333\INCLUDE\ALGORITHM
