^F:\DEV\UNI\YEAR4\HIGH_PERFORMANCE_GFX\TESTVULKAN\TESTVULKAN\MAIN.CPP
/c /IC:\VULKANSDK\1.2.162.1\INCLUDE /I"C:\USERS\BENJA\DOCUMENTS\VISUAL STUDIO 2019\LIBRARIES\GLM" /I"C:\USERS\BENJA\DOCUMENTS\VISUAL STUDIO 2019\LIBRARIES\GLFW-3.3.2\INCLUDE" /ZI /JMC /nologo /W3 /WX- /diagnostics:column /sdl /Od /D _DEBUG /D _CONSOLE /D _UNICODE /D UNICODE /Gm- /EHsc /RTC1 /MDd /GS /fp:precise /permissive- /Zc:wchar_t /Zc:forScope /Zc:inline /std:c++17 /Fo"X64\DEBUG\\" /Fd"X64\DEBUG\VC142.PDB" /Gd /TP /FC F:\DEV\UNI\YEAR4\HIGH_PERFORMANCE_GFX\TESTVULKAN\TESTVULKAN\MAIN.CPP
^F:\DEV\UNI\YEAR4\HIGH_PERFORMANCE_GFX\TESTVULKAN\TESTVULKAN\A1VULKANAPP.CPP
/c /I"C:\USERS\BENJA\DOCUMENTS\VISUAL STUDIO 2019\LIBRARIES\TINYOBJLOADER-MASTER" /I"C:\USERS\BENJA\DOCUMENTS\VISUAL STUDIO 2019\LIBRARIES\STB-MASTER" /IC:\VULKANSDK\1.2.162.1\INCLUDE /I"C:\USERS\BENJA\DOCUMENTS\VISUAL STUDIO 2019\LIBRARIES\GLM" /I"C:\USERS\BENJA\DOCUMENTS\VISUAL STUDIO 2019\LIBRARIES\GLFW-3.3.2\INCLUDE" /ZI /JMC /nologo /W3 /WX- /diagnostics:column /sdl /Od /D _DEBUG /D _CONSOLE /D _UNICODE /D UNICODE /Gm- /EHsc /RTC1 /MDd /GS /fp:precise /permissive- /Zc:wchar_t /Zc:forScope /Zc:inline /std:c++17 /Fo"X64\DEBUG\\" /Fd"X64\DEBUG\VC142.PDB" /Gd /TP /FC F:\DEV\UNI\YEAR4\HIGH_PERFORMANCE_GFX\TESTVULKAN\TESTVULKAN\A1VULKANAPP.CPP
^F:\DEV\UNI\YEAR4\HIGH_PERFORMANCE_GFX\TESTVULKAN\TESTVULKAN\IMGUI\IMGUI.CPP
/c /I"C:\USERS\BENJA\DOCUMENTS\VISUAL STUDIO 2019\LIBRARIES\TINYOBJLOADER-MASTER" /I"C:\USERS\BENJA\DOCUMENTS\VISUAL STUDIO 2019\LIBRARIES\STB-MASTER" /IC:\VULKANSDK\1.2.162.1\INCLUDE /I"C:\USERS\BENJA\DOCUMENTS\VISUAL STUDIO 2019\LIBRARIES\GLM" /I"C:\USERS\BENJA\DOCUMENTS\VISUAL STUDIO 2019\LIBRARIES\GLFW-3.3.2\INCLUDE" /ZI /JMC /nologo /W3 /WX- /diagnostics:column /sdl /Od /D _DEBUG /D _CONSOLE /D _UNICODE /D UNICODE /Gm- /EHsc /RTC1 /MDd /GS /fp:precise /permissive- /Zc:wchar_t /Zc:forScope /Zc:inline /std:c++17 /Fo"X64\DEBUG\\" /Fd"X64\DEBUG\VC142.PDB" /Gd /TP /FC F:\DEV\UNI\YEAR4\HIGH_PERFORMANCE_GFX\TESTVULKAN\TESTVULKAN\IMGUI\IMGUI.CPP
^F:\DEV\UNI\YEAR4\HIGH_PERFORMANCE_GFX\TESTVULKAN\TESTVULKAN\IMGUI\IMGUI_DEMO.CPP
/c /I"C:\USERS\BENJA\DOCUMENTS\VISUAL STUDIO 2019\LIBRARIES\TINYOBJLOADER-MASTER" /I"C:\USERS\BENJA\DOCUMENTS\VISUAL STUDIO 2019\LIBRARIES\STB-MASTER" /IC:\VULKANSDK\1.2.162.1\INCLUDE /I"C:\USERS\BENJA\DOCUMENTS\VISUAL STUDIO 2019\LIBRARIES\GLM" /I"C:\USERS\BENJA\DOCUMENTS\VISUAL STUDIO 2019\LIBRARIES\GLFW-3.3.2\INCLUDE" /ZI /JMC /nologo /W3 /WX- /diagnostics:column /sdl /Od /D _DEBUG /D _CONSOLE /D _UNICODE /D UNICODE /Gm- /EHsc /RTC1 /MDd /GS /fp:precise /permissive- /Zc:wchar_t /Zc:forScope /Zc:inline /std:c++17 /Fo"X64\DEBUG\\" /Fd"X64\DEBUG\VC142.PDB" /Gd /TP /FC F:\DEV\UNI\YEAR4\HIGH_PERFORMANCE_GFX\TESTVULKAN\TESTVULKAN\IMGUI\IMGUI_DEMO.CPP
^F:\DEV\UNI\YEAR4\HIGH_PERFORMANCE_GFX\TESTVULKAN\TESTVULKAN\IMGUI\IMGUI_DRAW.CPP
/c /I"C:\USERS\BENJA\DOCUMENTS\VISUAL STUDIO 2019\LIBRARIES\TINYOBJLOADER-MASTER" /I"C:\USERS\BENJA\DOCUMENTS\VISUAL STUDIO 2019\LIBRARIES\STB-MASTER" /IC:\VULKANSDK\1.2.162.1\INCLUDE /I"C:\USERS\BENJA\DOCUMENTS\VISUAL STUDIO 2019\LIBRARIES\GLM" /I"C:\USERS\BENJA\DOCUMENTS\VISUAL STUDIO 2019\LIBRARIES\GLFW-3.3.2\INCLUDE" /ZI /JMC /nologo /W3 /WX- /diagnostics:column /sdl /Od /D _DEBUG /D _CONSOLE /D _UNICODE /D UNICODE /Gm- /EHsc /RTC1 /MDd /GS /fp:precise /permissive- /Zc:wchar_t /Zc:forScope /Zc:inline /std:c++17 /Fo"X64\DEBUG\\" /Fd"X64\DEBUG\VC142.PDB" /Gd /TP /FC F:\DEV\UNI\YEAR4\HIGH_PERFORMANCE_GFX\TESTVULKAN\TESTVULKAN\IMGUI\IMGUI_DRAW.CPP
^F:\DEV\UNI\YEAR4\HIGH_PERFORMANCE_GFX\TESTVULKAN\TESTVULKAN\IMGUI\IMGUI_IMPL_GLFW.CPP
/c /I"C:\USERS\BENJA\DOCUMENTS\VISUAL STUDIO 2019\LIBRARIES\TINYOBJLOADER-MASTER" /I"C:\USERS\BENJA\DOCUMENTS\VISUAL STUDIO 2019\LIBRARIES\STB-MASTER" /IC:\VULKANSDK\1.2.162.1\INCLUDE /I"C:\USERS\BENJA\DOCUMENTS\VISUAL STUDIO 2019\LIBRARIES\GLM" /I"C:\USERS\BENJA\DOCUMENTS\VISUAL STUDIO 2019\LIBRARIES\GLFW-3.3.2\INCLUDE" /ZI /JMC /nologo /W3 /WX- /diagnostics:column /sdl /Od /D _DEBUG /D _CONSOLE /D _UNICODE /D UNICODE /Gm- /EHsc /RTC1 /MDd /GS /fp:precise /permissive- /Zc:wchar_t /Zc:forScope /Zc:inline /std:c++17 /Fo"X64\DEBUG\\" /Fd"X64\DEBUG\VC142.PDB" /Gd /TP /FC F:\DEV\UNI\YEAR4\HIGH_PERFORMANCE_GFX\TESTVULKAN\TESTVULKAN\IMGUI\IMGUI_IMPL_GLFW.CPP
^F:\DEV\UNI\YEAR4\HIGH_PERFORMANCE_GFX\TESTVULKAN\TESTVULKAN\IMGUI\IMGUI_IMPL_VULKAN.CPP
/c /I"C:\USERS\BENJA\DOCUMENTS\VISUAL STUDIO 2019\LIBRARIES\TINYOBJLOADER-MASTER" /I"C:\USERS\BENJA\DOCUMENTS\VISUAL STUDIO 2019\LIBRARIES\STB-MASTER" /IC:\VULKANSDK\1.2.162.1\INCLUDE /I"C:\USERS\BENJA\DOCUMENTS\VISUAL STUDIO 2019\LIBRARIES\GLM" /I"C:\USERS\BENJA\DOCUMENTS\VISUAL STUDIO 2019\LIBRARIES\GLFW-3.3.2\INCLUDE" /ZI /JMC /nologo /W3 /WX- /diagnostics:column /sdl /Od /D _DEBUG /D _CONSOLE /D _UNICODE /D UNICODE /Gm- /EHsc /RTC1 /MDd /GS /fp:precise /permissive- /Zc:wchar_t /Zc:forScope /Zc:inline /std:c++17 /Fo"X64\DEBUG\\" /Fd"X64\DEBUG\VC142.PDB" /Gd /TP /FC F:\DEV\UNI\YEAR4\HIGH_PERFORMANCE_GFX\TESTVULKAN\TESTVULKAN\IMGUI\IMGUI_IMPL_VULKAN.CPP
^F:\DEV\UNI\YEAR4\HIGH_PERFORMANCE_GFX\TESTVULKAN\TESTVULKAN\IMGUI\IMGUI_TABLES.CPP
/c /I"C:\USERS\BENJA\DOCUMENTS\VISUAL STUDIO 2019\LIBRARIES\TINYOBJLOADER-MASTER" /I"C:\USERS\BENJA\DOCUMENTS\VISUAL STUDIO 2019\LIBRARIES\STB-MASTER" /IC:\VULKANSDK\1.2.162.1\INCLUDE /I"C:\USERS\BENJA\DOCUMENTS\VISUAL STUDIO 2019\LIBRARIES\GLM" /I"C:\USERS\BENJA\DOCUMENTS\VISUAL STUDIO 2019\LIBRARIES\GLFW-3.3.2\INCLUDE" /ZI /JMC /nologo /W3 /WX- /diagnostics:column /sdl /Od /D _DEBUG /D _CONSOLE /D _UNICODE /D UNICODE /Gm- /EHsc /RTC1 /MDd /GS /fp:precise /permissive- /Zc:wchar_t /Zc:forScope /Zc:inline /std:c++17 /Fo"X64\DEBUG\\" /Fd"X64\DEBUG\VC142.PDB" /Gd /TP /FC F:\DEV\UNI\YEAR4\HIGH_PERFORMANCE_GFX\TESTVULKAN\TESTVULKAN\IMGUI\IMGUI_TABLES.CPP
^F:\DEV\UNI\YEAR4\HIGH_PERFORMANCE_GFX\TESTVULKAN\TESTVULKAN\IMGUI\IMGUI_WIDGETS.CPP
/c /I"C:\USERS\BENJA\DOCUMENTS\VISUAL STUDIO 2019\LIBRARIES\TINYOBJLOADER-MASTER" /I"C:\USERS\BENJA\DOCUMENTS\VISUAL STUDIO 2019\LIBRARIES\STB-MASTER" /IC:\VULKANSDK\1.2.162.1\INCLUDE /I"C:\USERS\BENJA\DOCUMENTS\VISUAL STUDIO 2019\LIBRARIES\GLM" /I"C:\USERS\BENJA\DOCUMENTS\VISUAL STUDIO 2019\LIBRARIES\GLFW-3.3.2\INCLUDE" /ZI /JMC /nologo /W3 /WX- /diagnostics:column /sdl /Od /D _DEBUG /D _CONSOLE /D _UNICODE /D UNICODE /Gm- /EHsc /RTC1 /MDd /GS /fp:precise /permissive- /Zc:wchar_t /Zc:forScope /Zc:inline /std:c++17 /Fo"X64\DEBUG\\" /Fd"X64\DEBUG\VC142.PDB" /Gd /TP /FC F:\DEV\UNI\YEAR4\HIGH_PERFORMANCE_GFX\TESTVULKAN\TESTVULKAN\IMGUI\IMGUI_WIDGETS.CPP
^F:\DEV\UNI\YEAR4\BACKUPS\TESTVULKAN_IMGUIBROKEN\TESTVULKAN\IMGUI\IMGUI.CPP
/c /I"C:\USERS\BENJA\DOCUMENTS\VISUAL STUDIO 2019\LIBRARIES\TINYOBJLOADER-MASTER" /I"C:\USERS\BENJA\DOCUMENTS\VISUAL STUDIO 2019\LIBRARIES\STB-MASTER" /IC:\VULKANSDK\1.2.162.1\INCLUDE /I"C:\USERS\BENJA\DOCUMENTS\VISUAL STUDIO 2019\LIBRARIES\GLM" /I"C:\USERS\BENJA\DOCUMENTS\VISUAL STUDIO 2019\LIBRARIES\GLFW-3.3.2\INCLUDE" /ZI /JMC /nologo /W3 /WX- /diagnostics:column /sdl /Od /D _DEBUG /D _CONSOLE /D _UNICODE /D UNICODE /Gm- /EHsc /RTC1 /MDd /GS /fp:precise /permissive- /Zc:wchar_t /Zc:forScope /Zc:inline /std:c++17 /Fo"X64\DEBUG\\" /Fd"X64\DEBUG\VC142.PDB" /Gd /TP /FC F:\DEV\UNI\YEAR4\BACKUPS\TESTVULKAN_IMGUIBROKEN\TESTVULKAN\IMGUI\IMGUI.CPP
^F:\DEV\UNI\YEAR4\BACKUPS\TESTVULKAN_IMGUIBROKEN\TESTVULKAN\IMGUI\IMGUI_DEMO.CPP
/c /I"C:\USERS\BENJA\DOCUMENTS\VISUAL STUDIO 2019\LIBRARIES\TINYOBJLOADER-MASTER" /I"C:\USERS\BENJA\DOCUMENTS\VISUAL STUDIO 2019\LIBRARIES\STB-MASTER" /IC:\VULKANSDK\1.2.162.1\INCLUDE /I"C:\USERS\BENJA\DOCUMENTS\VISUAL STUDIO 2019\LIBRARIES\GLM" /I"C:\USERS\BENJA\DOCUMENTS\VISUAL STUDIO 2019\LIBRARIES\GLFW-3.3.2\INCLUDE" /ZI /JMC /nologo /W3 /WX- /diagnostics:column /sdl /Od /D _DEBUG /D _CONSOLE /D _UNICODE /D UNICODE /Gm- /EHsc /RTC1 /MDd /GS /fp:precise /permissive- /Zc:wchar_t /Zc:forScope /Zc:inline /std:c++17 /Fo"X64\DEBUG\\" /Fd"X64\DEBUG\VC142.PDB" /Gd /TP /FC F:\DEV\UNI\YEAR4\BACKUPS\TESTVULKAN_IMGUIBROKEN\TESTVULKAN\IMGUI\IMGUI_DEMO.CPP
^F:\DEV\UNI\YEAR4\BACKUPS\TESTVULKAN_IMGUIBROKEN\TESTVULKAN\IMGUI\IMGUI_DRAW.CPP
/c /I"C:\USERS\BENJA\DOCUMENTS\VISUAL STUDIO 2019\LIBRARIES\TINYOBJLOADER-MASTER" /I"C:\USERS\BENJA\DOCUMENTS\VISUAL STUDIO 2019\LIBRARIES\STB-MASTER" /IC:\VULKANSDK\1.2.162.1\INCLUDE /I"C:\USERS\BENJA\DOCUMENTS\VISUAL STUDIO 2019\LIBRARIES\GLM" /I"C:\USERS\BENJA\DOCUMENTS\VISUAL STUDIO 2019\LIBRARIES\GLFW-3.3.2\INCLUDE" /ZI /JMC /nologo /W3 /WX- /diagnostics:column /sdl /Od /D _DEBUG /D _CONSOLE /D _UNICODE /D UNICODE /Gm- /EHsc /RTC1 /MDd /GS /fp:precise /permissive- /Zc:wchar_t /Zc:forScope /Zc:inline /std:c++17 /Fo"X64\DEBUG\\" /Fd"X64\DEBUG\VC142.PDB" /Gd /TP /FC F:\DEV\UNI\YEAR4\BACKUPS\TESTVULKAN_IMGUIBROKEN\TESTVULKAN\IMGUI\IMGUI_DRAW.CPP
^F:\DEV\UNI\YEAR4\BACKUPS\TESTVULKAN_IMGUIBROKEN\TESTVULKAN\IMGUI\IMGUI_IMPL_GLFW.CPP
/c /I"C:\USERS\BENJA\DOCUMENTS\VISUAL STUDIO 2019\LIBRARIES\TINYOBJLOADER-MASTER" /I"C:\USERS\BENJA\DOCUMENTS\VISUAL STUDIO 2019\LIBRARIES\STB-MASTER" /IC:\VULKANSDK\1.2.162.1\INCLUDE /I"C:\USERS\BENJA\DOCUMENTS\VISUAL STUDIO 2019\LIBRARIES\GLM" /I"C:\USERS\BENJA\DOCUMENTS\VISUAL STUDIO 2019\LIBRARIES\GLFW-3.3.2\INCLUDE" /ZI /JMC /nologo /W3 /WX- /diagnostics:column /sdl /Od /D _DEBUG /D _CONSOLE /D _UNICODE /D UNICODE /Gm- /EHsc /RTC1 /MDd /GS /fp:precise /permissive- /Zc:wchar_t /Zc:forScope /Zc:inline /std:c++17 /Fo"X64\DEBUG\\" /Fd"X64\DEBUG\VC142.PDB" /Gd /TP /FC F:\DEV\UNI\YEAR4\BACKUPS\TESTVULKAN_IMGUIBROKEN\TESTVULKAN\IMGUI\IMGUI_IMPL_GLFW.CPP
^F:\DEV\UNI\YEAR4\BACKUPS\TESTVULKAN_IMGUIBROKEN\TESTVULKAN\IMGUI\IMGUI_IMPL_VULKAN.CPP
/c /I"C:\USERS\BENJA\DOCUMENTS\VISUAL STUDIO 2019\LIBRARIES\TINYOBJLOADER-MASTER" /I"C:\USERS\BENJA\DOCUMENTS\VISUAL STUDIO 2019\LIBRARIES\STB-MASTER" /IC:\VULKANSDK\1.2.162.1\INCLUDE /I"C:\USERS\BENJA\DOCUMENTS\VISUAL STUDIO 2019\LIBRARIES\GLM" /I"C:\USERS\BENJA\DOCUMENTS\VISUAL STUDIO 2019\LIBRARIES\GLFW-3.3.2\INCLUDE" /ZI /JMC /nologo /W3 /WX- /diagnostics:column /sdl /Od /D _DEBUG /D _CONSOLE /D _UNICODE /D UNICODE /Gm- /EHsc /RTC1 /MDd /GS /fp:precise /permissive- /Zc:wchar_t /Zc:forScope /Zc:inline /std:c++17 /Fo"X64\DEBUG\\" /Fd"X64\DEBUG\VC142.PDB" /Gd /TP /FC F:\DEV\UNI\YEAR4\BACKUPS\TESTVULKAN_IMGUIBROKEN\TESTVULKAN\IMGUI\IMGUI_IMPL_VULKAN.CPP
^F:\DEV\UNI\YEAR4\BACKUPS\TESTVULKAN_IMGUIBROKEN\TESTVULKAN\IMGUI\IMGUI_TABLES.CPP
/c /I"C:\USERS\BENJA\DOCUMENTS\VISUAL STUDIO 2019\LIBRARIES\TINYOBJLOADER-MASTER" /I"C:\USERS\BENJA\DOCUMENTS\VISUAL STUDIO 2019\LIBRARIES\STB-MASTER" /IC:\VULKANSDK\1.2.162.1\INCLUDE /I"C:\USERS\BENJA\DOCUMENTS\VISUAL STUDIO 2019\LIBRARIES\GLM" /I"C:\USERS\BENJA\DOCUMENTS\VISUAL STUDIO 2019\LIBRARIES\GLFW-3.3.2\INCLUDE" /ZI /JMC /nologo /W3 /WX- /diagnostics:column /sdl /Od /D _DEBUG /D _CONSOLE /D _UNICODE /D UNICODE /Gm- /EHsc /RTC1 /MDd /GS /fp:precise /permissive- /Zc:wchar_t /Zc:forScope /Zc:inline /std:c++17 /Fo"X64\DEBUG\\" /Fd"X64\DEBUG\VC142.PDB" /Gd /TP /FC F:\DEV\UNI\YEAR4\BACKUPS\TESTVULKAN_IMGUIBROKEN\TESTVULKAN\IMGUI\IMGUI_TABLES.CPP
^F:\DEV\UNI\YEAR4\BACKUPS\TESTVULKAN_IMGUIBROKEN\TESTVULKAN\IMGUI\IMGUI_WIDGETS.CPP
/c /I"C:\USERS\BENJA\DOCUMENTS\VISUAL STUDIO 2019\LIBRARIES\TINYOBJLOADER-MASTER" /I"C:\USERS\BENJA\DOCUMENTS\VISUAL STUDIO 2019\LIBRARIES\STB-MASTER" /IC:\VULKANSDK\1.2.162.1\INCLUDE /I"C:\USERS\BENJA\DOCUMENTS\VISUAL STUDIO 2019\LIBRARIES\GLM" /I"C:\USERS\BENJA\DOCUMENTS\VISUAL STUDIO 2019\LIBRARIES\GLFW-3.3.2\INCLUDE" /ZI /JMC /nologo /W3 /WX- /diagnostics:column /sdl /Od /D _DEBUG /D _CONSOLE /D _UNICODE /D UNICODE /Gm- /EHsc /RTC1 /MDd /GS /fp:precise /permissive- /Zc:wchar_t /Zc:forScope /Zc:inline /std:c++17 /Fo"X64\DEBUG\\" /Fd"X64\DEBUG\VC142.PDB" /Gd /TP /FC F:\DEV\UNI\YEAR4\BACKUPS\TESTVULKAN_IMGUIBROKEN\TESTVULKAN\IMGUI\IMGUI_WIDGETS.CPP
^F:\DEV\UNI\YEAR4\BACKUPS\TESTVULKAN_IMGUIBROKEN\TESTVULKAN\A1VULKANAPP.CPP
/c /I"C:\USERS\BENJA\DOCUMENTS\VISUAL STUDIO 2019\LIBRARIES\TINYOBJLOADER-MASTER" /I"C:\USERS\BENJA\DOCUMENTS\VISUAL STUDIO 2019\LIBRARIES\STB-MASTER" /IC:\VULKANSDK\1.2.162.1\INCLUDE /I"C:\USERS\BENJA\DOCUMENTS\VISUAL STUDIO 2019\LIBRARIES\GLM" /I"C:\USERS\BENJA\DOCUMENTS\VISUAL STUDIO 2019\LIBRARIES\GLFW-3.3.2\INCLUDE" /ZI /JMC /nologo /W3 /WX- /diagnostics:column /sdl /Od /D _DEBUG /D _CONSOLE /D _UNICODE /D UNICODE /Gm- /EHsc /RTC1 /MDd /GS /fp:precise /permissive- /Zc:wchar_t /Zc:forScope /Zc:inline /std:c++17 /Fo"X64\DEBUG\\" /Fd"X64\DEBUG\VC142.PDB" /Gd /TP /FC F:\DEV\UNI\YEAR4\BACKUPS\TESTVULKAN_IMGUIBROKEN\TESTVULKAN\A1VULKANAPP.CPP
