^F:\DEV\UNI\YEAR4\HIGH_PERFORMANCE_GFX\TESTVULKAN\TESTVULKAN\X64\DEBUG\A1VULKANAPP.OBJ|F:\DEV\UNI\YEAR4\HIGH_PERFORMANCE_GFX\TESTVULKAN\TESTVULKAN\X64\DEBUG\IMGUI.OBJ|F:\DEV\UNI\YEAR4\HIGH_PERFORMANCE_GFX\TESTVULKAN\TESTVULKAN\X64\DEBUG\IMGUI_DEMO.OBJ|F:\DEV\UNI\YEAR4\HIGH_PERFORMANCE_GFX\TESTVULKAN\TESTVULKAN\X64\DEBUG\IMGUI_DRAW.OBJ|F:\DEV\UNI\YEAR4\HIGH_PERFORMANCE_GFX\TESTVULKAN\TESTVULKAN\X64\DEBUG\IMGUI_IMPL_GLFW.OBJ|F:\DEV\UNI\YEAR4\HIGH_PERFORMANCE_GFX\TESTVULKAN\TESTVULKAN\X64\DEBUG\IMGUI_IMPL_VULKAN.OBJ|F:\DEV\UNI\YEAR4\HIGH_PERFORMANCE_GFX\TESTVULKAN\TESTVULKAN\X64\DEBUG\IMGUI_TABLES.OBJ|F:\DEV\UNI\YEAR4\HIGH_PERFORMANCE_GFX\TESTVULKAN\TESTVULKAN\X64\DEBUG\IMGUI_WIDGETS.OBJ
F:\DEV\UNI\YEAR4\HIGH_PERFORMANCE_GFX\TESTVULKAN\X64\DEBUG\TESTVULKAN.EXE
F:\DEV\UNI\YEAR4\HIGH_PERFORMANCE_GFX\TESTVULKAN\X64\DEBUG\TESTVULKAN.ILK
F:\DEV\UNI\YEAR4\HIGH_PERFORMANCE_GFX\TESTVULKAN\X64\DEBUG\TESTVULKAN.PDB
^F:\DEV\UNI\YEAR4\BACKUPS\TESTVULKAN_IMGUIBROKEN\TESTVULKAN\X64\DEBUG\A1VULKANAPP.OBJ|F:\DEV\UNI\YEAR4\BACKUPS\TESTVULKAN_IMGUIBROKEN\TESTVULKAN\X64\DEBUG\IMGUI.OBJ|F:\DEV\UNI\YEAR4\BACKUPS\TESTVULKAN_IMGUIBROKEN\TESTVULKAN\X64\DEBUG\IMGUI_DEMO.OBJ|F:\DEV\UNI\YEAR4\BACKUPS\TESTVULKAN_IMGUIBROKEN\TESTVULKAN\X64\DEBUG\IMGUI_DRAW.OBJ|F:\DEV\UNI\YEAR4\BACKUPS\TESTVULKAN_IMGUIBROKEN\TESTVULKAN\X64\DEBUG\IMGUI_IMPL_GLFW.OBJ|F:\DEV\UNI\YEAR4\BACKUPS\TESTVULKAN_IMGUIBROKEN\TESTVULKAN\X64\DEBUG\IMGUI_IMPL_VULKAN.OBJ|F:\DEV\UNI\YEAR4\BACKUPS\TESTVULKAN_IMGUIBROKEN\TESTVULKAN\X64\DEBUG\IMGUI_TABLES.OBJ|F:\DEV\UNI\YEAR4\BACKUPS\TESTVULKAN_IMGUIBROKEN\TESTVULKAN\X64\DEBUG\IMGUI_WIDGETS.OBJ
F:\DEV\UNI\YEAR4\BACKUPS\TESTVULKAN_IMGUIBROKEN\X64\DEBUG\TESTVULKAN.EXE
F:\DEV\UNI\YEAR4\BACKUPS\TESTVULKAN_IMGUIBROKEN\X64\DEBUG\TESTVULKAN.ILK
F:\DEV\UNI\YEAR4\BACKUPS\TESTVULKAN_IMGUIBROKEN\X64\DEBUG\TESTVULKAN.PDB
