^F:\DEV\UNI\YEAR4\HIGH_PERFORMANCE_GFX\A2\TESTVULKAN\TESTVULKAN\X64\RELEASE\A2VULKANAPP.OBJ|F:\DEV\UNI\YEAR4\HIGH_PERFORMANCE_GFX\A2\TESTVULKAN\TESTVULKAN\X64\RELEASE\IMGUI.OBJ|F:\DEV\UNI\YEAR4\HIGH_PERFORMANCE_GFX\A2\TESTVULKAN\TESTVULKAN\X64\RELEASE\IMGUI_DEMO.OBJ|F:\DEV\UNI\YEAR4\HIGH_PERFORMANCE_GFX\A2\TESTVULKAN\TESTVULKAN\X64\RELEASE\IMGUI_DRAW.OBJ|F:\DEV\UNI\YEAR4\HIGH_PERFORMANCE_GFX\A2\TESTVULKAN\TESTVULKAN\X64\RELEASE\IMGUI_IMPL_GLFW.OBJ|F:\DEV\UNI\YEAR4\HIGH_PERFORMANCE_GFX\A2\TESTVULKAN\TESTVULKAN\X64\RELEASE\IMGUI_IMPL_VULKAN.OBJ|F:\DEV\UNI\YEAR4\HIGH_PERFORMANCE_GFX\A2\TESTVULKAN\TESTVULKAN\X64\RELEASE\IMGUI_TABLES.OBJ|F:\DEV\UNI\YEAR4\HIGH_PERFORMANCE_GFX\A2\TESTVULKAN\TESTVULKAN\X64\RELEASE\IMGUI_WIDGETS.OBJ
/OUT:"F:\DEV\UNI\YEAR4\HIGH_PERFORMANCE_GFX\A2\TESTVULKAN\X64\RELEASE\FLIGHTSIM.EXE" /INCREMENTAL:NO /NOLOGO /LIBPATH:C:\VULKANSDK\1.2.162.1\LIB /LIBPATH:"C:\USERS\BENJA\DOCUMENTS\VISUAL STUDIO 2019\LIBRARIES\GLFW-3.3.2\LIB-VC2019" "VULKAN-1.LIB" GLFW3.LIB KERNEL32.LIB USER32.LIB GDI32.LIB WINSPOOL.LIB COMDLG32.LIB ADVAPI32.LIB SHELL32.LIB OLE32.LIB OLEAUT32.LIB UUID.LIB ODBC32.LIB ODBCCP32.LIB /MANIFEST /MANIFESTUAC:"level='asInvoker' uiAccess='false'" /manifest:embed /DEBUG /PDB:"F:\DEV\UNI\YEAR4\HIGH_PERFORMANCE_GFX\A2\TESTVULKAN\X64\RELEASE\FLIGHTSIM.PDB" /SUBSYSTEM:CONSOLE /OPT:REF /OPT:ICF /LTCG:incremental /TLBID:1 /DYNAMICBASE /NXCOMPAT /IMPLIB:"F:\DEV\UNI\YEAR4\HIGH_PERFORMANCE_GFX\A2\TESTVULKAN\X64\RELEASE\FLIGHTSIM.LIB" /MACHINE:X64 X64\RELEASE\A2VULKANAPP.OBJ
X64\RELEASE\IMGUI.OBJ
X64\RELEASE\IMGUI_DEMO.OBJ
X64\RELEASE\IMGUI_DRAW.OBJ
X64\RELEASE\IMGUI_IMPL_GLFW.OBJ
X64\RELEASE\IMGUI_IMPL_VULKAN.OBJ
X64\RELEASE\IMGUI_TABLES.OBJ
X64\RELEASE\IMGUI_WIDGETS.OBJ
^F:\DEV\UNI\YEAR4\HIGH_PERFORMANCE_GFX\A2\FLIGHTSIM\FLIGHTSIM\X64\RELEASE\A2VULKANAPP.OBJ|F:\DEV\UNI\YEAR4\HIGH_PERFORMANCE_GFX\A2\FLIGHTSIM\FLIGHTSIM\X64\RELEASE\IMGUI.OBJ|F:\DEV\UNI\YEAR4\HIGH_PERFORMANCE_GFX\A2\FLIGHTSIM\FLIGHTSIM\X64\RELEASE\IMGUI_DEMO.OBJ|F:\DEV\UNI\YEAR4\HIGH_PERFORMANCE_GFX\A2\FLIGHTSIM\FLIGHTSIM\X64\RELEASE\IMGUI_DRAW.OBJ|F:\DEV\UNI\YEAR4\HIGH_PERFORMANCE_GFX\A2\FLIGHTSIM\FLIGHTSIM\X64\RELEASE\IMGUI_IMPL_GLFW.OBJ|F:\DEV\UNI\YEAR4\HIGH_PERFORMANCE_GFX\A2\FLIGHTSIM\FLIGHTSIM\X64\RELEASE\IMGUI_IMPL_VULKAN.OBJ|F:\DEV\UNI\YEAR4\HIGH_PERFORMANCE_GFX\A2\FLIGHTSIM\FLIGHTSIM\X64\RELEASE\IMGUI_TABLES.OBJ|F:\DEV\UNI\YEAR4\HIGH_PERFORMANCE_GFX\A2\FLIGHTSIM\FLIGHTSIM\X64\RELEASE\IMGUI_WIDGETS.OBJ
/OUT:"F:\DEV\UNI\YEAR4\HIGH_PERFORMANCE_GFX\A2\FLIGHTSIM\X64\RELEASE\FLIGHTSIM.EXE" /INCREMENTAL:NO /NOLOGO /LIBPATH:C:\VULKANSDK\1.2.162.1\LIB /LIBPATH:"C:\USERS\BENJA\DOCUMENTS\VISUAL STUDIO 2019\LIBRARIES\GLFW-3.3.2\LIB-VC2019" "VULKAN-1.LIB" GLFW3.LIB KERNEL32.LIB USER32.LIB GDI32.LIB WINSPOOL.LIB COMDLG32.LIB ADVAPI32.LIB SHELL32.LIB OLE32.LIB OLEAUT32.LIB UUID.LIB ODBC32.LIB ODBCCP32.LIB /MANIFEST /MANIFESTUAC:"level='asInvoker' uiAccess='false'" /manifest:embed /DEBUG /PDB:"F:\DEV\UNI\YEAR4\HIGH_PERFORMANCE_GFX\A2\FLIGHTSIM\X64\RELEASE\FLIGHTSIM.PDB" /SUBSYSTEM:CONSOLE /OPT:REF /OPT:ICF /LTCG:incremental /TLBID:1 /DYNAMICBASE /NXCOMPAT /IMPLIB:"F:\DEV\UNI\YEAR4\HIGH_PERFORMANCE_GFX\A2\FLIGHTSIM\X64\RELEASE\FLIGHTSIM.LIB" /MACHINE:X64 X64\RELEASE\A2VULKANAPP.OBJ
X64\RELEASE\IMGUI.OBJ
X64\RELEASE\IMGUI_DEMO.OBJ
X64\RELEASE\IMGUI_DRAW.OBJ
X64\RELEASE\IMGUI_IMPL_GLFW.OBJ
X64\RELEASE\IMGUI_IMPL_VULKAN.OBJ
X64\RELEASE\IMGUI_TABLES.OBJ
X64\RELEASE\IMGUI_WIDGETS.OBJ
