﻿  A2VulkanApp.cpp
A2VulkanApp.obj : error LNK2019: unresolved external symbol _vkCreateInstance@12 referenced in function "private: void __thiscall A2VulkanApp::createInstance(void)" (?createInstance@A2VulkanApp@@AAEXXZ)
A2VulkanApp.obj : error LNK2019: unresolved external symbol _vkDestroyInstance@8 referenced in function "private: void __thiscall A2VulkanApp::cleanup(void)" (?cleanup@A2VulkanApp@@AAEXXZ)
A2VulkanApp.obj : error LNK2019: unresolved external symbol _vkEnumeratePhysicalDevices@12 referenced in function "private: void __thiscall A2VulkanApp::pickPhysicalDevice(void)" (?pickPhysicalDevice@A2VulkanApp@@AAEXXZ)
A2VulkanApp.obj : error LNK2019: unresolved external symbol _vkGetPhysicalDeviceFeatures@8 referenced in function "private: bool __thiscall A2VulkanApp::isDeviceSuitable(struct VkPhysicalDevice_T *)" (?isDeviceSuitable@A2VulkanApp@@AAE_NPAUVkPhysicalDevice_T@@@Z)
A2VulkanApp.obj : error LNK2019: unresolved external symbol _vkGetPhysicalDeviceFormatProperties@12 referenced in function "private: enum VkFormat __thiscall A2VulkanApp::findSupportedFormat(class std::vector<enum VkFormat,class std::allocator<enum VkFormat> > const &,enum VkImageTiling,unsigned int)" (?findSupportedFormat@A2VulkanApp@@AAE?AW4VkFormat@@ABV?$vector@W4VkFormat@@V?$allocator@W4VkFormat@@@std@@@std@@W4VkImageTiling@@I@Z)
A2VulkanApp.obj : error LNK2019: unresolved external symbol _vkGetPhysicalDeviceProperties@8 referenced in function "private: void __thiscall A2VulkanApp::createTextureSampler(void)" (?createTextureSampler@A2VulkanApp@@AAEXXZ)
A2VulkanApp.obj : error LNK2019: unresolved external symbol _vkGetPhysicalDeviceQueueFamilyProperties@12 referenced in function "private: struct A2VulkanApp::QueueFamilyIndices __thiscall A2VulkanApp::findQueueFamilies(struct VkPhysicalDevice_T *)" (?findQueueFamilies@A2VulkanApp@@AAE?AUQueueFamilyIndices@1@PAUVkPhysicalDevice_T@@@Z)
A2VulkanApp.obj : error LNK2019: unresolved external symbol _vkGetPhysicalDeviceMemoryProperties@8 referenced in function "private: unsigned int __thiscall A2VulkanApp::findMemoryType(unsigned int,unsigned int)" (?findMemoryType@A2VulkanApp@@AAEIII@Z)
imgui_impl_vulkan.obj : error LNK2001: unresolved external symbol _vkGetPhysicalDeviceMemoryProperties@8
A2VulkanApp.obj : error LNK2019: unresolved external symbol _vkGetInstanceProcAddr@8 referenced in function "enum VkResult __cdecl CreateDebugUtilsMessengerEXT(struct VkInstance_T *,struct VkDebugUtilsMessengerCreateInfoEXT const *,struct VkAllocationCallbacks const *,unsigned __int64 *)" (?CreateDebugUtilsMessengerEXT@@YA?AW4VkResult@@PAUVkInstance_T@@PBUVkDebugUtilsMessengerCreateInfoEXT@@PBUVkAllocationCallbacks@@PA_K@Z)
A2VulkanApp.obj : error LNK2019: unresolved external symbol _vkCreateDevice@16 referenced in function "private: void __thiscall A2VulkanApp::createLogicalDevice(void)" (?createLogicalDevice@A2VulkanApp@@AAEXXZ)
A2VulkanApp.obj : error LNK2019: unresolved external symbol _vkDestroyDevice@8 referenced in function "private: void __thiscall A2VulkanApp::cleanup(void)" (?cleanup@A2VulkanApp@@AAEXXZ)
A2VulkanApp.obj : error LNK2019: unresolved external symbol _vkEnumerateDeviceExtensionProperties@16 referenced in function "private: bool __thiscall A2VulkanApp::checkDeviceExtensionSupport(struct VkPhysicalDevice_T *)" (?checkDeviceExtensionSupport@A2VulkanApp@@AAE_NPAUVkPhysicalDevice_T@@@Z)
A2VulkanApp.obj : error LNK2019: unresolved external symbol _vkEnumerateInstanceLayerProperties@8 referenced in function "private: bool __thiscall A2VulkanApp::checkValidationLayerSupport(void)" (?checkValidationLayerSupport@A2VulkanApp@@AAE_NXZ)
A2VulkanApp.obj : error LNK2019: unresolved external symbol _vkGetDeviceQueue@16 referenced in function "private: void __thiscall A2VulkanApp::createLogicalDevice(void)" (?createLogicalDevice@A2VulkanApp@@AAEXXZ)
A2VulkanApp.obj : error LNK2019: unresolved external symbol _vkQueueSubmit@20 referenced in function "private: void __thiscall A2VulkanApp::drawFrame(void)" (?drawFrame@A2VulkanApp@@AAEXXZ)
A2VulkanApp.obj : error LNK2019: unresolved external symbol _vkQueueWaitIdle@4 referenced in function "private: void __thiscall A2VulkanApp::endSingleTimeCommands(struct VkCommandBuffer_T *)" (?endSingleTimeCommands@A2VulkanApp@@AAEXPAUVkCommandBuffer_T@@@Z)
A2VulkanApp.obj : error LNK2019: unresolved external symbol _vkDeviceWaitIdle@4 referenced in function "private: void __thiscall A2VulkanApp::mainLoop(void)" (?mainLoop@A2VulkanApp@@AAEXXZ)
imgui_impl_vulkan.obj : error LNK2001: unresolved external symbol _vkDeviceWaitIdle@4
A2VulkanApp.obj : error LNK2019: unresolved external symbol _vkAllocateMemory@16 referenced in function "private: void __thiscall A2VulkanApp::createBuffer(unsigned __int64,unsigned int,unsigned int,unsigned __int64 &,unsigned __int64 &)" (?createBuffer@A2VulkanApp@@AAEX_KIIAA_K1@Z)
imgui_impl_vulkan.obj : error LNK2001: unresolved external symbol _vkAllocateMemory@16
A2VulkanApp.obj : error LNK2019: unresolved external symbol _vkFreeMemory@16 referenced in function "private: void __thiscall A2VulkanApp::cleanup(void)" (?cleanup@A2VulkanApp@@AAEXXZ)
imgui_impl_vulkan.obj : error LNK2001: unresolved external symbol _vkFreeMemory@16
A2VulkanApp.obj : error LNK2019: unresolved external symbol _vkMapMemory@36 referenced in function "private: void __thiscall A2VulkanApp::createIndexBuffer(void)" (?createIndexBuffer@A2VulkanApp@@AAEXXZ)
imgui_impl_vulkan.obj : error LNK2001: unresolved external symbol _vkMapMemory@36
A2VulkanApp.obj : error LNK2019: unresolved external symbol _vkUnmapMemory@12 referenced in function "private: void __thiscall A2VulkanApp::createIndexBuffer(void)" (?createIndexBuffer@A2VulkanApp@@AAEXXZ)
imgui_impl_vulkan.obj : error LNK2001: unresolved external symbol _vkUnmapMemory@12
A2VulkanApp.obj : error LNK2019: unresolved external symbol _vkBindBufferMemory@28 referenced in function "private: void __thiscall A2VulkanApp::createBuffer(unsigned __int64,unsigned int,unsigned int,unsigned __int64 &,unsigned __int64 &)" (?createBuffer@A2VulkanApp@@AAEX_KIIAA_K1@Z)
imgui_impl_vulkan.obj : error LNK2001: unresolved external symbol _vkBindBufferMemory@28
A2VulkanApp.obj : error LNK2019: unresolved external symbol _vkBindImageMemory@28 referenced in function "private: void __thiscall A2VulkanApp::createImage(unsigned int,unsigned int,enum VkFormat,enum VkImageTiling,unsigned int,unsigned int,unsigned __int64 &,unsigned __int64 &)" (?createImage@A2VulkanApp@@AAEXIIW4VkFormat@@W4VkImageTiling@@IIAA_K2@Z)
imgui_impl_vulkan.obj : error LNK2001: unresolved external symbol _vkBindImageMemory@28
A2VulkanApp.obj : error LNK2019: unresolved external symbol _vkGetBufferMemoryRequirements@16 referenced in function "private: void __thiscall A2VulkanApp::createBuffer(unsigned __int64,unsigned int,unsigned int,unsigned __int64 &,unsigned __int64 &)" (?createBuffer@A2VulkanApp@@AAEX_KIIAA_K1@Z)
imgui_impl_vulkan.obj : error LNK2001: unresolved external symbol _vkGetBufferMemoryRequirements@16
A2VulkanApp.obj : error LNK2019: unresolved external symbol _vkGetImageMemoryRequirements@16 referenced in function "private: void __thiscall A2VulkanApp::createImage(unsigned int,unsigned int,enum VkFormat,enum VkImageTiling,unsigned int,unsigned int,unsigned __int64 &,unsigned __int64 &)" (?createImage@A2VulkanApp@@AAEXIIW4VkFormat@@W4VkImageTiling@@IIAA_K2@Z)
imgui_impl_vulkan.obj : error LNK2001: unresolved external symbol _vkGetImageMemoryRequirements@16
A2VulkanApp.obj : error LNK2019: unresolved external symbol _vkCreateFence@16 referenced in function "private: void __thiscall A2VulkanApp::createSyncObjects(void)" (?createSyncObjects@A2VulkanApp@@AAEXXZ)
imgui_impl_vulkan.obj : error LNK2001: unresolved external symbol _vkCreateFence@16
A2VulkanApp.obj : error LNK2019: unresolved external symbol _vkDestroyFence@16 referenced in function "private: void __thiscall A2VulkanApp::cleanup(void)" (?cleanup@A2VulkanApp@@AAEXXZ)
imgui_impl_vulkan.obj : error LNK2001: unresolved external symbol _vkDestroyFence@16
A2VulkanApp.obj : error LNK2019: unresolved external symbol _vkResetFences@12 referenced in function "private: void __thiscall A2VulkanApp::drawFrame(void)" (?drawFrame@A2VulkanApp@@AAEXXZ)
A2VulkanApp.obj : error LNK2019: unresolved external symbol _vkWaitForFences@24 referenced in function "private: void __thiscall A2VulkanApp::drawFrame(void)" (?drawFrame@A2VulkanApp@@AAEXXZ)
A2VulkanApp.obj : error LNK2019: unresolved external symbol _vkCreateSemaphore@16 referenced in function "private: void __thiscall A2VulkanApp::createSyncObjects(void)" (?createSyncObjects@A2VulkanApp@@AAEXXZ)
imgui_impl_vulkan.obj : error LNK2001: unresolved external symbol _vkCreateSemaphore@16
A2VulkanApp.obj : error LNK2019: unresolved external symbol _vkDestroySemaphore@16 referenced in function "private: void __thiscall A2VulkanApp::cleanup(void)" (?cleanup@A2VulkanApp@@AAEXXZ)
imgui_impl_vulkan.obj : error LNK2001: unresolved external symbol _vkDestroySemaphore@16
A2VulkanApp.obj : error LNK2019: unresolved external symbol _vkCreateBuffer@16 referenced in function "private: void __thiscall A2VulkanApp::createBuffer(unsigned __int64,unsigned int,unsigned int,unsigned __int64 &,unsigned __int64 &)" (?createBuffer@A2VulkanApp@@AAEX_KIIAA_K1@Z)
imgui_impl_vulkan.obj : error LNK2001: unresolved external symbol _vkCreateBuffer@16
A2VulkanApp.obj : error LNK2019: unresolved external symbol _vkDestroyBuffer@16 referenced in function "private: void __thiscall A2VulkanApp::cleanup(void)" (?cleanup@A2VulkanApp@@AAEXXZ)
imgui_impl_vulkan.obj : error LNK2001: unresolved external symbol _vkDestroyBuffer@16
A2VulkanApp.obj : error LNK2019: unresolved external symbol _vkCreateImage@16 referenced in function "private: void __thiscall A2VulkanApp::createImage(unsigned int,unsigned int,enum VkFormat,enum VkImageTiling,unsigned int,unsigned int,unsigned __int64 &,unsigned __int64 &)" (?createImage@A2VulkanApp@@AAEXIIW4VkFormat@@W4VkImageTiling@@IIAA_K2@Z)
imgui_impl_vulkan.obj : error LNK2001: unresolved external symbol _vkCreateImage@16
A2VulkanApp.obj : error LNK2019: unresolved external symbol _vkDestroyImage@16 referenced in function "private: void __thiscall A2VulkanApp::cleanup(void)" (?cleanup@A2VulkanApp@@AAEXXZ)
imgui_impl_vulkan.obj : error LNK2001: unresolved external symbol _vkDestroyImage@16
A2VulkanApp.obj : error LNK2019: unresolved external symbol _vkCreateImageView@16 referenced in function "private: unsigned __int64 __thiscall A2VulkanApp::createImageView(unsigned __int64,enum VkFormat,unsigned int)" (?createImageView@A2VulkanApp@@AAE_K_KW4VkFormat@@I@Z)
imgui_impl_vulkan.obj : error LNK2001: unresolved external symbol _vkCreateImageView@16
A2VulkanApp.obj : error LNK2019: unresolved external symbol _vkDestroyImageView@16 referenced in function "private: void __thiscall A2VulkanApp::cleanup(void)" (?cleanup@A2VulkanApp@@AAEXXZ)
imgui_impl_vulkan.obj : error LNK2001: unresolved external symbol _vkDestroyImageView@16
A2VulkanApp.obj : error LNK2019: unresolved external symbol _vkCreateShaderModule@16 referenced in function "private: unsigned __int64 __thiscall A2VulkanApp::createShaderModule(class std::vector<char,class std::allocator<char> > const &)" (?createShaderModule@A2VulkanApp@@AAE_KABV?$vector@DV?$allocator@D@std@@@std@@@Z)
imgui_impl_vulkan.obj : error LNK2001: unresolved external symbol _vkCreateShaderModule@16
A2VulkanApp.obj : error LNK2019: unresolved external symbol _vkDestroyShaderModule@16 referenced in function "private: void __thiscall A2VulkanApp::createGraphicsPipeline(void)" (?createGraphicsPipeline@A2VulkanApp@@AAEXXZ)
imgui_impl_vulkan.obj : error LNK2001: unresolved external symbol _vkDestroyShaderModule@16
A2VulkanApp.obj : error LNK2019: unresolved external symbol _vkCreateGraphicsPipelines@28 referenced in function "private: void __thiscall A2VulkanApp::createGraphicsPipeline(void)" (?createGraphicsPipeline@A2VulkanApp@@AAEXXZ)
imgui_impl_vulkan.obj : error LNK2001: unresolved external symbol _vkCreateGraphicsPipelines@28
A2VulkanApp.obj : error LNK2019: unresolved external symbol _vkDestroyPipeline@16 referenced in function "private: void __thiscall A2VulkanApp::cleanupSwapChain(void)" (?cleanupSwapChain@A2VulkanApp@@AAEXXZ)
imgui_impl_vulkan.obj : error LNK2001: unresolved external symbol _vkDestroyPipeline@16
A2VulkanApp.obj : error LNK2019: unresolved external symbol _vkCreatePipelineLayout@16 referenced in function "private: void __thiscall A2VulkanApp::createGraphicsPipeline(void)" (?createGraphicsPipeline@A2VulkanApp@@AAEXXZ)
imgui_impl_vulkan.obj : error LNK2001: unresolved external symbol _vkCreatePipelineLayout@16
A2VulkanApp.obj : error LNK2019: unresolved external symbol _vkDestroyPipelineLayout@16 referenced in function "private: void __thiscall A2VulkanApp::cleanupSwapChain(void)" (?cleanupSwapChain@A2VulkanApp@@AAEXXZ)
imgui_impl_vulkan.obj : error LNK2001: unresolved external symbol _vkDestroyPipelineLayout@16
A2VulkanApp.obj : error LNK2019: unresolved external symbol _vkCreateSampler@16 referenced in function "private: void __thiscall A2VulkanApp::createTextureSampler(void)" (?createTextureSampler@A2VulkanApp@@AAEXXZ)
imgui_impl_vulkan.obj : error LNK2001: unresolved external symbol _vkCreateSampler@16
A2VulkanApp.obj : error LNK2019: unresolved external symbol _vkDestroySampler@16 referenced in function "private: void __thiscall A2VulkanApp::cleanup(void)" (?cleanup@A2VulkanApp@@AAEXXZ)
imgui_impl_vulkan.obj : error LNK2001: unresolved external symbol _vkDestroySampler@16
A2VulkanApp.obj : error LNK2019: unresolved external symbol _vkCreateDescriptorSetLayout@16 referenced in function "private: void __thiscall A2VulkanApp::createDiscriptorSetLayout(void)" (?createDiscriptorSetLayout@A2VulkanApp@@AAEXXZ)
imgui_impl_vulkan.obj : error LNK2001: unresolved external symbol _vkCreateDescriptorSetLayout@16
A2VulkanApp.obj : error LNK2019: unresolved external symbol _vkDestroyDescriptorSetLayout@16 referenced in function "private: void __thiscall A2VulkanApp::cleanup(void)" (?cleanup@A2VulkanApp@@AAEXXZ)
imgui_impl_vulkan.obj : error LNK2001: unresolved external symbol _vkDestroyDescriptorSetLayout@16
A2VulkanApp.obj : error LNK2019: unresolved external symbol _vkCreateDescriptorPool@16 referenced in function "private: void __thiscall A2VulkanApp::createDescriptorPool(void)" (?createDescriptorPool@A2VulkanApp@@AAEXXZ)
A2VulkanApp.obj : error LNK2019: unresolved external symbol _vkDestroyDescriptorPool@16 referenced in function "private: void __thiscall A2VulkanApp::cleanupSwapChain(void)" (?cleanupSwapChain@A2VulkanApp@@AAEXXZ)
A2VulkanApp.obj : error LNK2019: unresolved external symbol _vkAllocateDescriptorSets@12 referenced in function "private: void __thiscall A2VulkanApp::createDescriptorSets(void)" (?createDescriptorSets@A2VulkanApp@@AAEXXZ)
imgui_impl_vulkan.obj : error LNK2001: unresolved external symbol _vkAllocateDescriptorSets@12
A2VulkanApp.obj : error LNK2019: unresolved external symbol _vkUpdateDescriptorSets@20 referenced in function "private: void __thiscall A2VulkanApp::createDescriptorSets(void)" (?createDescriptorSets@A2VulkanApp@@AAEXXZ)
imgui_impl_vulkan.obj : error LNK2001: unresolved external symbol _vkUpdateDescriptorSets@20
A2VulkanApp.obj : error LNK2019: unresolved external symbol _vkCreateFramebuffer@16 referenced in function "private: void __thiscall A2VulkanApp::createFramebuffers(void)" (?createFramebuffers@A2VulkanApp@@AAEXXZ)
imgui_impl_vulkan.obj : error LNK2001: unresolved external symbol _vkCreateFramebuffer@16
A2VulkanApp.obj : error LNK2019: unresolved external symbol _vkDestroyFramebuffer@16 referenced in function "private: void __thiscall A2VulkanApp::cleanupImGuiSwapChain(void)" (?cleanupImGuiSwapChain@A2VulkanApp@@AAEXXZ)
imgui_impl_vulkan.obj : error LNK2001: unresolved external symbol _vkDestroyFramebuffer@16
A2VulkanApp.obj : error LNK2019: unresolved external symbol _vkCreateRenderPass@16 referenced in function "private: void __thiscall A2VulkanApp::createImGuiRenderPass(void)" (?createImGuiRenderPass@A2VulkanApp@@AAEXXZ)
imgui_impl_vulkan.obj : error LNK2001: unresolved external symbol _vkCreateRenderPass@16
A2VulkanApp.obj : error LNK2019: unresolved external symbol _vkDestroyRenderPass@16 referenced in function "private: void __thiscall A2VulkanApp::cleanupImGuiSwapChain(void)" (?cleanupImGuiSwapChain@A2VulkanApp@@AAEXXZ)
imgui_impl_vulkan.obj : error LNK2001: unresolved external symbol _vkDestroyRenderPass@16
A2VulkanApp.obj : error LNK2019: unresolved external symbol _vkCreateCommandPool@16 referenced in function "private: void __thiscall A2VulkanApp::createCommandPool(unsigned __int64 *,unsigned int)" (?createCommandPool@A2VulkanApp@@AAEXPA_KI@Z)
imgui_impl_vulkan.obj : error LNK2001: unresolved external symbol _vkCreateCommandPool@16
A2VulkanApp.obj : error LNK2019: unresolved external symbol _vkDestroyCommandPool@16 referenced in function "private: void __thiscall A2VulkanApp::cleanup(void)" (?cleanup@A2VulkanApp@@AAEXXZ)
imgui_impl_vulkan.obj : error LNK2001: unresolved external symbol _vkDestroyCommandPool@16
A2VulkanApp.obj : error LNK2019: unresolved external symbol _vkResetCommandPool@16 referenced in function "private: void __thiscall A2VulkanApp::drawFrame(void)" (?drawFrame@A2VulkanApp@@AAEXXZ)
A2VulkanApp.obj : error LNK2019: unresolved external symbol _vkAllocateCommandBuffers@12 referenced in function "private: struct VkCommandBuffer_T * __thiscall A2VulkanApp::beginSingleTimeCommands(void)" (?beginSingleTimeCommands@A2VulkanApp@@AAEPAUVkCommandBuffer_T@@XZ)
imgui_impl_vulkan.obj : error LNK2001: unresolved external symbol _vkAllocateCommandBuffers@12
A2VulkanApp.obj : error LNK2019: unresolved external symbol _vkFreeCommandBuffers@20 referenced in function "private: void __thiscall A2VulkanApp::cleanupImGuiSwapChain(void)" (?cleanupImGuiSwapChain@A2VulkanApp@@AAEXXZ)
imgui_impl_vulkan.obj : error LNK2001: unresolved external symbol _vkFreeCommandBuffers@20
A2VulkanApp.obj : error LNK2019: unresolved external symbol _vkBeginCommandBuffer@8 referenced in function "private: struct VkCommandBuffer_T * __thiscall A2VulkanApp::beginSingleTimeCommands(void)" (?beginSingleTimeCommands@A2VulkanApp@@AAEPAUVkCommandBuffer_T@@XZ)
A2VulkanApp.obj : error LNK2019: unresolved external symbol _vkEndCommandBuffer@4 referenced in function "private: void __thiscall A2VulkanApp::createCommandBuffers(void)" (?createCommandBuffers@A2VulkanApp@@AAEXXZ)
A2VulkanApp.obj : error LNK2019: unresolved external symbol _vkCmdBindPipeline@16 referenced in function "private: void __thiscall A2VulkanApp::createCommandBuffers(void)" (?createCommandBuffers@A2VulkanApp@@AAEXXZ)
imgui_impl_vulkan.obj : error LNK2001: unresolved external symbol _vkCmdBindPipeline@16
A2VulkanApp.obj : error LNK2019: unresolved external symbol _vkCmdBindDescriptorSets@36 referenced in function "private: void __thiscall A2VulkanApp::createCommandBuffers(void)" (?createCommandBuffers@A2VulkanApp@@AAEXXZ)
imgui_impl_vulkan.obj : error LNK2001: unresolved external symbol _vkCmdBindDescriptorSets@36
A2VulkanApp.obj : error LNK2019: unresolved external symbol _vkCmdBindIndexBuffer@24 referenced in function "private: void __thiscall A2VulkanApp::createCommandBuffers(void)" (?createCommandBuffers@A2VulkanApp@@AAEXXZ)
imgui_impl_vulkan.obj : error LNK2001: unresolved external symbol _vkCmdBindIndexBuffer@24
A2VulkanApp.obj : error LNK2019: unresolved external symbol _vkCmdBindVertexBuffers@20 referenced in function "private: void __thiscall A2VulkanApp::createCommandBuffers(void)" (?createCommandBuffers@A2VulkanApp@@AAEXXZ)
imgui_impl_vulkan.obj : error LNK2001: unresolved external symbol _vkCmdBindVertexBuffers@20
A2VulkanApp.obj : error LNK2019: unresolved external symbol _vkCmdDrawIndexed@24 referenced in function "private: void __thiscall A2VulkanApp::createCommandBuffers(void)" (?createCommandBuffers@A2VulkanApp@@AAEXXZ)
imgui_impl_vulkan.obj : error LNK2001: unresolved external symbol _vkCmdDrawIndexed@24
A2VulkanApp.obj : error LNK2019: unresolved external symbol _vkCmdCopyBuffer@28 referenced in function "private: void __thiscall A2VulkanApp::copyBuffer(unsigned __int64,unsigned __int64,unsigned __int64)" (?copyBuffer@A2VulkanApp@@AAEX_K00@Z)
A2VulkanApp.obj : error LNK2019: unresolved external symbol _vkCmdCopyBufferToImage@32 referenced in function "private: void __thiscall A2VulkanApp::copyBufferToImage(unsigned __int64,unsigned __int64,unsigned int,unsigned int)" (?copyBufferToImage@A2VulkanApp@@AAEX_K0II@Z)
imgui_impl_vulkan.obj : error LNK2001: unresolved external symbol _vkCmdCopyBufferToImage@32
A2VulkanApp.obj : error LNK2019: unresolved external symbol _vkCmdPipelineBarrier@40 referenced in function "private: void __thiscall A2VulkanApp::transitionImageLayout(unsigned __int64,enum VkFormat,enum VkImageLayout,enum VkImageLayout)" (?transitionImageLayout@A2VulkanApp@@AAEX_KW4VkFormat@@W4VkImageLayout@@2@Z)
imgui_impl_vulkan.obj : error LNK2001: unresolved external symbol _vkCmdPipelineBarrier@40
A2VulkanApp.obj : error LNK2019: unresolved external symbol _vkCmdBeginRenderPass@12 referenced in function "private: void __thiscall A2VulkanApp::createCommandBuffers(void)" (?createCommandBuffers@A2VulkanApp@@AAEXXZ)
A2VulkanApp.obj : error LNK2019: unresolved external symbol _vkCmdEndRenderPass@4 referenced in function "private: void __thiscall A2VulkanApp::createCommandBuffers(void)" (?createCommandBuffers@A2VulkanApp@@AAEXXZ)
A2VulkanApp.obj : error LNK2019: unresolved external symbol _vkDestroySurfaceKHR@16 referenced in function "private: void __thiscall A2VulkanApp::cleanup(void)" (?cleanup@A2VulkanApp@@AAEXXZ)
imgui_impl_vulkan.obj : error LNK2001: unresolved external symbol _vkDestroySurfaceKHR@16
A2VulkanApp.obj : error LNK2019: unresolved external symbol _vkGetPhysicalDeviceSurfaceSupportKHR@20 referenced in function "private: struct A2VulkanApp::QueueFamilyIndices __thiscall A2VulkanApp::findQueueFamilies(struct VkPhysicalDevice_T *)" (?findQueueFamilies@A2VulkanApp@@AAE?AUQueueFamilyIndices@1@PAUVkPhysicalDevice_T@@@Z)
A2VulkanApp.obj : error LNK2019: unresolved external symbol _vkGetPhysicalDeviceSurfaceCapabilitiesKHR@16 referenced in function "private: struct A2VulkanApp::SwapChainSupportDetails __thiscall A2VulkanApp::querySwapChainSupport(struct VkPhysicalDevice_T *)" (?querySwapChainSupport@A2VulkanApp@@AAE?AUSwapChainSupportDetails@1@PAUVkPhysicalDevice_T@@@Z)
imgui_impl_vulkan.obj : error LNK2001: unresolved external symbol _vkGetPhysicalDeviceSurfaceCapabilitiesKHR@16
A2VulkanApp.obj : error LNK2019: unresolved external symbol _vkGetPhysicalDeviceSurfaceFormatsKHR@20 referenced in function "private: struct A2VulkanApp::SwapChainSupportDetails __thiscall A2VulkanApp::querySwapChainSupport(struct VkPhysicalDevice_T *)" (?querySwapChainSupport@A2VulkanApp@@AAE?AUSwapChainSupportDetails@1@PAUVkPhysicalDevice_T@@@Z)
imgui_impl_vulkan.obj : error LNK2001: unresolved external symbol _vkGetPhysicalDeviceSurfaceFormatsKHR@20
A2VulkanApp.obj : error LNK2019: unresolved external symbol _vkGetPhysicalDeviceSurfacePresentModesKHR@20 referenced in function "private: struct A2VulkanApp::SwapChainSupportDetails __thiscall A2VulkanApp::querySwapChainSupport(struct VkPhysicalDevice_T *)" (?querySwapChainSupport@A2VulkanApp@@AAE?AUSwapChainSupportDetails@1@PAUVkPhysicalDevice_T@@@Z)
imgui_impl_vulkan.obj : error LNK2001: unresolved external symbol _vkGetPhysicalDeviceSurfacePresentModesKHR@20
A2VulkanApp.obj : error LNK2019: unresolved external symbol _vkCreateSwapchainKHR@16 referenced in function "private: void __thiscall A2VulkanApp::createSwapChain(void)" (?createSwapChain@A2VulkanApp@@AAEXXZ)
imgui_impl_vulkan.obj : error LNK2001: unresolved external symbol _vkCreateSwapchainKHR@16
A2VulkanApp.obj : error LNK2019: unresolved external symbol _vkDestroySwapchainKHR@16 referenced in function "private: void __thiscall A2VulkanApp::cleanupSwapChain(void)" (?cleanupSwapChain@A2VulkanApp@@AAEXXZ)
imgui_impl_vulkan.obj : error LNK2001: unresolved external symbol _vkDestroySwapchainKHR@16
A2VulkanApp.obj : error LNK2019: unresolved external symbol _vkGetSwapchainImagesKHR@20 referenced in function "private: void __thiscall A2VulkanApp::createSwapChain(void)" (?createSwapChain@A2VulkanApp@@AAEXXZ)
imgui_impl_vulkan.obj : error LNK2001: unresolved external symbol _vkGetSwapchainImagesKHR@20
A2VulkanApp.obj : error LNK2019: unresolved external symbol _vkAcquireNextImageKHR@40 referenced in function "private: void __thiscall A2VulkanApp::drawFrame(void)" (?drawFrame@A2VulkanApp@@AAEXXZ)
A2VulkanApp.obj : error LNK2019: unresolved external symbol _vkQueuePresentKHR@8 referenced in function "private: void __thiscall A2VulkanApp::drawFrame(void)" (?drawFrame@A2VulkanApp@@AAEXXZ)
A2VulkanApp.obj : error LNK2019: unresolved external symbol _glfwInit referenced in function "private: void __thiscall A2VulkanApp::initWindow(void)" (?initWindow@A2VulkanApp@@AAEXXZ)
A2VulkanApp.obj : error LNK2019: unresolved external symbol _glfwTerminate referenced in function "private: void __thiscall A2VulkanApp::cleanup(void)" (?cleanup@A2VulkanApp@@AAEXXZ)
A2VulkanApp.obj : error LNK2019: unresolved external symbol _glfwWindowHint referenced in function "private: void __thiscall A2VulkanApp::initWindow(void)" (?initWindow@A2VulkanApp@@AAEXXZ)
A2VulkanApp.obj : error LNK2019: unresolved external symbol _glfwCreateWindow referenced in function "private: void __thiscall A2VulkanApp::initWindow(void)" (?initWindow@A2VulkanApp@@AAEXXZ)
A2VulkanApp.obj : error LNK2019: unresolved external symbol _glfwDestroyWindow referenced in function "private: void __thiscall A2VulkanApp::cleanup(void)" (?cleanup@A2VulkanApp@@AAEXXZ)
A2VulkanApp.obj : error LNK2019: unresolved external symbol _glfwWindowShouldClose referenced in function "private: void __thiscall A2VulkanApp::mainLoop(void)" (?mainLoop@A2VulkanApp@@AAEXXZ)
A2VulkanApp.obj : error LNK2019: unresolved external symbol _glfwGetFramebufferSize referenced in function "private: struct VkExtent2D __thiscall A2VulkanApp::chooseSwapExtent(struct VkSurfaceCapabilitiesKHR const &)" (?chooseSwapExtent@A2VulkanApp@@AAE?AUVkExtent2D@@ABUVkSurfaceCapabilitiesKHR@@@Z)
imgui_impl_glfw.obj : error LNK2001: unresolved external symbol _glfwGetFramebufferSize
A2VulkanApp.obj : error LNK2019: unresolved external symbol _glfwSetWindowUserPointer referenced in function "private: void __thiscall A2VulkanApp::initWindow(void)" (?initWindow@A2VulkanApp@@AAEXXZ)
A2VulkanApp.obj : error LNK2019: unresolved external symbol _glfwGetWindowUserPointer referenced in function "private: static void __cdecl A2VulkanApp::framebufferResizeCallback(struct GLFWwindow *,int,int)" (?framebufferResizeCallback@A2VulkanApp@@CAXPAUGLFWwindow@@HH@Z)
A2VulkanApp.obj : error LNK2019: unresolved external symbol _glfwSetFramebufferSizeCallback referenced in function "private: void __thiscall A2VulkanApp::initWindow(void)" (?initWindow@A2VulkanApp@@AAEXXZ)
A2VulkanApp.obj : error LNK2019: unresolved external symbol _glfwPollEvents referenced in function "private: void __thiscall A2VulkanApp::mainLoop(void)" (?mainLoop@A2VulkanApp@@AAEXXZ)
A2VulkanApp.obj : error LNK2019: unresolved external symbol _glfwWaitEvents referenced in function "private: void __thiscall A2VulkanApp::recreateSwapChain(void)" (?recreateSwapChain@A2VulkanApp@@AAEXXZ)
A2VulkanApp.obj : error LNK2019: unresolved external symbol _glfwGetRequiredInstanceExtensions referenced in function "private: class std::vector<char const *,class std::allocator<char const *> > __thiscall A2VulkanApp::getRequiredExtensions(void)" (?getRequiredExtensions@A2VulkanApp@@AAE?AV?$vector@PBDV?$allocator@PBD@std@@@std@@XZ)
A2VulkanApp.obj : error LNK2019: unresolved external symbol _glfwCreateWindowSurface referenced in function "private: void __thiscall A2VulkanApp::createSurface(void)" (?createSurface@A2VulkanApp@@AAEXXZ)
imgui_impl_glfw.obj : error LNK2019: unresolved external symbol _glfwSetErrorCallback referenced in function "bool __cdecl ImGui_ImplGlfw_Init(struct GLFWwindow *,bool,enum GlfwClientApi)" (?ImGui_ImplGlfw_Init@@YA_NPAUGLFWwindow@@_NW4GlfwClientApi@@@Z)
imgui_impl_glfw.obj : error LNK2019: unresolved external symbol _glfwGetWindowSize referenced in function "void __cdecl ImGui_ImplGlfw_NewFrame(void)" (?ImGui_ImplGlfw_NewFrame@@YAXXZ)
imgui_impl_glfw.obj : error LNK2019: unresolved external symbol _glfwGetWindowAttrib referenced in function "void __cdecl ImGui_ImplGlfw_UpdateMousePosAndButtons(void)" (?ImGui_ImplGlfw_UpdateMousePosAndButtons@@YAXXZ)
imgui_impl_glfw.obj : error LNK2019: unresolved external symbol _glfwGetInputMode referenced in function "void __cdecl ImGui_ImplGlfw_UpdateMouseCursor(void)" (?ImGui_ImplGlfw_UpdateMouseCursor@@YAXXZ)
imgui_impl_glfw.obj : error LNK2019: unresolved external symbol _glfwSetInputMode referenced in function "void __cdecl ImGui_ImplGlfw_UpdateMouseCursor(void)" (?ImGui_ImplGlfw_UpdateMouseCursor@@YAXXZ)
imgui_impl_glfw.obj : error LNK2019: unresolved external symbol _glfwGetMouseButton referenced in function "void __cdecl ImGui_ImplGlfw_UpdateMousePosAndButtons(void)" (?ImGui_ImplGlfw_UpdateMousePosAndButtons@@YAXXZ)
imgui_impl_glfw.obj : error LNK2019: unresolved external symbol _glfwGetCursorPos referenced in function "void __cdecl ImGui_ImplGlfw_UpdateMousePosAndButtons(void)" (?ImGui_ImplGlfw_UpdateMousePosAndButtons@@YAXXZ)
imgui_impl_glfw.obj : error LNK2019: unresolved external symbol _glfwSetCursorPos referenced in function "void __cdecl ImGui_ImplGlfw_UpdateMousePosAndButtons(void)" (?ImGui_ImplGlfw_UpdateMousePosAndButtons@@YAXXZ)
imgui_impl_glfw.obj : error LNK2019: unresolved external symbol _glfwCreateStandardCursor referenced in function "bool __cdecl ImGui_ImplGlfw_Init(struct GLFWwindow *,bool,enum GlfwClientApi)" (?ImGui_ImplGlfw_Init@@YA_NPAUGLFWwindow@@_NW4GlfwClientApi@@@Z)
imgui_impl_glfw.obj : error LNK2019: unresolved external symbol _glfwDestroyCursor referenced in function "void __cdecl ImGui_ImplGlfw_Shutdown(void)" (?ImGui_ImplGlfw_Shutdown@@YAXXZ)
imgui_impl_glfw.obj : error LNK2019: unresolved external symbol _glfwSetCursor referenced in function "void __cdecl ImGui_ImplGlfw_UpdateMouseCursor(void)" (?ImGui_ImplGlfw_UpdateMouseCursor@@YAXXZ)
imgui_impl_glfw.obj : error LNK2019: unresolved external symbol _glfwSetKeyCallback referenced in function "bool __cdecl ImGui_ImplGlfw_Init(struct GLFWwindow *,bool,enum GlfwClientApi)" (?ImGui_ImplGlfw_Init@@YA_NPAUGLFWwindow@@_NW4GlfwClientApi@@@Z)
imgui_impl_glfw.obj : error LNK2019: unresolved external symbol _glfwSetCharCallback referenced in function "bool __cdecl ImGui_ImplGlfw_Init(struct GLFWwindow *,bool,enum GlfwClientApi)" (?ImGui_ImplGlfw_Init@@YA_NPAUGLFWwindow@@_NW4GlfwClientApi@@@Z)
imgui_impl_glfw.obj : error LNK2019: unresolved external symbol _glfwSetMouseButtonCallback referenced in function "bool __cdecl ImGui_ImplGlfw_Init(struct GLFWwindow *,bool,enum GlfwClientApi)" (?ImGui_ImplGlfw_Init@@YA_NPAUGLFWwindow@@_NW4GlfwClientApi@@@Z)
imgui_impl_glfw.obj : error LNK2019: unresolved external symbol _glfwSetScrollCallback referenced in function "bool __cdecl ImGui_ImplGlfw_Init(struct GLFWwindow *,bool,enum GlfwClientApi)" (?ImGui_ImplGlfw_Init@@YA_NPAUGLFWwindow@@_NW4GlfwClientApi@@@Z)
imgui_impl_glfw.obj : error LNK2019: unresolved external symbol _glfwGetJoystickAxes referenced in function "void __cdecl ImGui_ImplGlfw_UpdateGamepads(void)" (?ImGui_ImplGlfw_UpdateGamepads@@YAXXZ)
imgui_impl_glfw.obj : error LNK2019: unresolved external symbol _glfwGetJoystickButtons referenced in function "void __cdecl ImGui_ImplGlfw_UpdateGamepads(void)" (?ImGui_ImplGlfw_UpdateGamepads@@YAXXZ)
imgui_impl_glfw.obj : error LNK2019: unresolved external symbol _glfwSetClipboardString referenced in function "void __cdecl ImGui_ImplGlfw_SetClipboardText(void *,char const *)" (?ImGui_ImplGlfw_SetClipboardText@@YAXPAXPBD@Z)
imgui_impl_glfw.obj : error LNK2019: unresolved external symbol _glfwGetClipboardString referenced in function "char const * __cdecl ImGui_ImplGlfw_GetClipboardText(void *)" (?ImGui_ImplGlfw_GetClipboardText@@YAPBDPAX@Z)
imgui_impl_glfw.obj : error LNK2019: unresolved external symbol _glfwGetTime referenced in function "void __cdecl ImGui_ImplGlfw_NewFrame(void)" (?ImGui_ImplGlfw_NewFrame@@YAXXZ)
imgui_impl_glfw.obj : error LNK2019: unresolved external symbol _glfwGetWin32Window referenced in function "bool __cdecl ImGui_ImplGlfw_Init(struct GLFWwindow *,bool,enum GlfwClientApi)" (?ImGui_ImplGlfw_Init@@YA_NPAUGLFWwindow@@_NW4GlfwClientApi@@@Z)
imgui_impl_vulkan.obj : error LNK2019: unresolved external symbol _vkFlushMappedMemoryRanges@12 referenced in function "bool __cdecl ImGui_ImplVulkan_CreateFontsTexture(struct VkCommandBuffer_T *)" (?ImGui_ImplVulkan_CreateFontsTexture@@YA_NPAUVkCommandBuffer_T@@@Z)
imgui_impl_vulkan.obj : error LNK2019: unresolved external symbol _vkCmdSetViewport@16 referenced in function "void __cdecl ImGui_ImplVulkan_SetupRenderState(struct ImDrawData *,unsigned __int64,struct VkCommandBuffer_T *,struct ImGui_ImplVulkanH_FrameRenderBuffers *,int,int)" (?ImGui_ImplVulkan_SetupRenderState@@YAXPAUImDrawData@@_KPAUVkCommandBuffer_T@@PAUImGui_ImplVulkanH_FrameRenderBuffers@@HH@Z)
imgui_impl_vulkan.obj : error LNK2019: unresolved external symbol _vkCmdSetScissor@16 referenced in function "void __cdecl ImGui_ImplVulkan_RenderDrawData(struct ImDrawData *,struct VkCommandBuffer_T *,unsigned __int64)" (?ImGui_ImplVulkan_RenderDrawData@@YAXPAUImDrawData@@PAUVkCommandBuffer_T@@_K@Z)
imgui_impl_vulkan.obj : error LNK2019: unresolved external symbol _vkCmdPushConstants@28 referenced in function "void __cdecl ImGui_ImplVulkan_SetupRenderState(struct ImDrawData *,unsigned __int64,struct VkCommandBuffer_T *,struct ImGui_ImplVulkanH_FrameRenderBuffers *,int,int)" (?ImGui_ImplVulkan_SetupRenderState@@YAXPAUImDrawData@@_KPAUVkCommandBuffer_T@@PAUImGui_ImplVulkanH_FrameRenderBuffers@@HH@Z)
C:\VulkanSDK\1.2.162.1\Lib\vulkan-1.lib : warning LNK4272: library machine type 'x64' conflicts with target machine type 'x86'
C:\Users\benja\Documents\Visual Studio 2019\Libraries\glfw-3.3.2\lib-vc2019\glfw3.lib : warning LNK4272: library machine type 'x64' conflicts with target machine type 'x86'
F:\Dev\Uni\Year4\High_Performance_GFX\A2\FlightSim\Debug\FlightSim.exe : fatal error LNK1120: 121 unresolved externals
